:2000000001520040016400400265004002030140010501403506014016070140010D01404B
:20002000401401401B1501404E1601402617014001190140011B01400240014001410140D9
:2000400001420140034301400244014002450140024601400147014002480140014901405E
:20006000044C0140024D014006500140015101400804870D850D8767A520B120A520382062
:200080003E10401449FF4AFF4BFF4F01501858045A045D095F01604062406440654066803A
:2000A00068806A806C806E808F019301B701BF40C054C5ECC720C823C9FFCAFFCBFFCD8377
:2000C000CE03CF01D018D280D401D604D904DA04DB04DD99DF01E040E240E440E540E680B5
:2000E000E880EA80EC80EE801D20224031023B4041024502478049054B40510259055A8052
:20010000638073C08340A520CC01CE08D091D208D60BD801EC804030410249FF4AFF4BFFAF
:200120004DA04F0450185A045D015F01604062C06440654066C068C06AC06CC06EC0830299
:2001400087018A0494029701A604AA03B002B101B201B404B502BE10C030C102C5D0C62082
:20016000C701C81AC9FFCAFFCBFFCDAFCE0FCF04D018D280D405D804D904DA04DB04DC11D8
:20018000DD11DF01E040E2C0E440E540E6C0E8C0EAC0ECC0EEC007040E2016281E682744CC
:2001A00037043C023E0841204304452047044F01552056285E485F0174019F40C040C220A9
:2001C000C460CC40CEC0D066D6D0EC1002011F0122012801330136013E404014410249FF52
:2001E0004AFF4BFF4DA04F0150185280580459045A045B045C905D995F0160406280644017
:200200006540668068406A506BA86C406D206E506FA88203840490029B01A604B001B40284
:20022000B501B604BE50C015C102C525C6C0C70EC81FC9FFCAFFCBFFCDAFCE07CF01D01818
:20024000D407D804D904DA04DB04DC99DD99DF01E040E280E440E540E680E840EA50EBA85C
:20026000EC40ED20EE50EFA80004024007400A4010201680172019401A441D8020042720DD
:200280003020374041A045A04640482049024B805254534059505A046214768081128340CB
:2002A000A120C01CC208C454CC14D0BCD208D60ED806E401E401EC103310CC109F109F1074
:2002C00083109F10E2207D01DE01B101EC014508D001A5082510C820B51057088308A5089A
:2002E000D402B508EC0801010B01100211011A021B0100030000000000000100000F0F00EB
:20030000040000000000000000000400BB0018010000000000000000000000000000000001
:00000001FF
