ARM GAS  C:\Users\kelvi\AppData\Local\Temp\ccUnxnng.s 			page 1


   1              		.syntax unified
   2              		.cpu cortex-m3
   3              		.fpu softvfp
   4              		.eabi_attribute 20, 1
   5              		.eabi_attribute 21, 1
   6              		.eabi_attribute 23, 3
   7              		.eabi_attribute 24, 1
   8              		.eabi_attribute 25, 1
   9              		.eabi_attribute 26, 1
  10              		.eabi_attribute 30, 1
  11              		.eabi_attribute 34, 1
  12              		.eabi_attribute 18, 4
  13              		.thumb
  14              		.file	"main.c"
  15              		.text
  16              	.Ltext0:
  17              		.cfi_sections	.debug_frame
  18              		.section	.text.main,"ax",%progbits
  19              		.align	2
  20              		.global	main
  21              		.thumb
  22              		.thumb_func
  23              		.type	main, %function
  24              	main:
  25              	.LFB63:
  26              		.file 1 "main.c"
   1:main.c        **** /* ========================================
   2:main.c        ****  *
   3:main.c        ****  * Copyright YOUR COMPANY, THE YEAR
   4:main.c        ****  * All Rights Reserved
   5:main.c        ****  * UNPUBLISHED, LICENSED SOFTWARE.
   6:main.c        ****  *
   7:main.c        ****  * CONFIDENTIAL AND PROPRIETARY INFORMATION
   8:main.c        ****  * WHICH IS THE PROPERTY OF your company.
   9:main.c        ****  *
  10:main.c        ****  * ========================================
  11:main.c        **** */
  12:main.c        **** #include "project.h"
  13:main.c        **** 
  14:main.c        **** int main(void)
  15:main.c        **** {
  27              		.loc 1 15 0
  28              		.cfi_startproc
  29              		@ args = 0, pretend = 0, frame = 0
  30              		@ frame_needed = 0, uses_anonymous_args = 0
  31 0000 08B5     		push	{r3, lr}
  32              		.cfi_def_cfa_offset 8
  33              		.cfi_offset 3, -8
  34              		.cfi_offset 14, -4
  16:main.c        ****     CyGlobalIntEnable; /* Enable global interrupts. */
  35              		.loc 1 16 0
  36              	@ 16 "main.c" 1
  37 0002 62B6     		CPSIE   i
  38              	@ 0 "" 2
  39              		.thumb
  40              	.L6:
  41              	.LBB2:
ARM GAS  C:\Users\kelvi\AppData\Local\Temp\ccUnxnng.s 			page 2


  17:main.c        **** 
  18:main.c        ****     /* Place your initialization/startup code here (e.g. MyInst_Start()) */
  19:main.c        **** 
  20:main.c        ****     for(;;)//per pin method
  21:main.c        ****     {   
  22:main.c        ****         Pin_Red_Write(0u);
  42              		.loc 1 22 0
  43 0004 0020     		movs	r0, #0
  44 0006 FFF7FEFF 		bl	Pin_Red_Write
  45              	.LVL0:
  23:main.c        ****         Pin_Green_Write(1u);
  46              		.loc 1 23 0
  47 000a 0120     		movs	r0, #1
  48 000c FFF7FEFF 		bl	Pin_Green_Write
  49              	.LVL1:
  24:main.c        ****         Pin_Blue_Write(1u);
  50              		.loc 1 24 0
  51 0010 0120     		movs	r0, #1
  52 0012 FFF7FEFF 		bl	Pin_Blue_Write
  53              	.LVL2:
  25:main.c        ****         
  26:main.c        ****         int i = 0; 
  54              		.loc 1 26 0
  55 0016 0023     		movs	r3, #0
  27:main.c        ****         for (; i < 1000000; i++){}
  56              		.loc 1 27 0
  57 0018 00E0     		b	.L2
  58              	.LVL3:
  59              	.L3:
  60              		.loc 1 27 0 is_stmt 0 discriminator 2
  61 001a 0133     		adds	r3, r3, #1
  62              	.LVL4:
  63              	.L2:
  64              		.loc 1 27 0 discriminator 1
  65 001c 094A     		ldr	r2, .L8
  66 001e 9342     		cmp	r3, r2
  67 0020 FBDD     		ble	.L3
  28:main.c        ****         
  29:main.c        ****         Pin_Red_Write(1u);
  68              		.loc 1 29 0 is_stmt 1
  69 0022 0120     		movs	r0, #1
  70 0024 FFF7FEFF 		bl	Pin_Red_Write
  71              	.LVL5:
  30:main.c        ****         Pin_Green_Write(1u);
  72              		.loc 1 30 0
  73 0028 0120     		movs	r0, #1
  74 002a FFF7FEFF 		bl	Pin_Green_Write
  75              	.LVL6:
  31:main.c        ****         Pin_Blue_Write(1u);
  76              		.loc 1 31 0
  77 002e 0120     		movs	r0, #1
  78 0030 FFF7FEFF 		bl	Pin_Blue_Write
  79              	.LVL7:
  32:main.c        ****         
  33:main.c        ****         for (i = 0; i < 1000000; i++){}
  80              		.loc 1 33 0
  81 0034 0023     		movs	r3, #0
ARM GAS  C:\Users\kelvi\AppData\Local\Temp\ccUnxnng.s 			page 3


  82 0036 00E0     		b	.L4
  83              	.LVL8:
  84              	.L5:
  85              		.loc 1 33 0 is_stmt 0 discriminator 3
  86 0038 0133     		adds	r3, r3, #1
  87              	.LVL9:
  88              	.L4:
  89              		.loc 1 33 0 discriminator 1
  90 003a 024A     		ldr	r2, .L8
  91 003c 9342     		cmp	r3, r2
  92 003e FBDD     		ble	.L5
  93 0040 E0E7     		b	.L6
  94              	.L9:
  95 0042 00BF     		.align	2
  96              	.L8:
  97 0044 3F420F00 		.word	999999
  98              	.LBE2:
  99              		.cfi_endproc
 100              	.LFE63:
 101              		.size	main, .-main
 102              		.text
 103              	.Letext0:
 104              		.file 2 "c:\\program files (x86)\\cypress\\psoc creator\\4.0\\psoc creator\\import\\gnu\\arm\\4.9.
 105              		.file 3 "c:\\program files (x86)\\cypress\\psoc creator\\4.0\\psoc creator\\import\\gnu\\arm\\4.9.
 106              		.file 4 "Generated_Source\\PSoC5/cytypes.h"
 107              		.file 5 "Generated_Source\\PSoC5/Pin_Red.h"
 108              		.file 6 "Generated_Source\\PSoC5/Pin_Green.h"
 109              		.file 7 "Generated_Source\\PSoC5/core_cm3.h"
 110              		.file 8 "Generated_Source\\PSoC5/Pin_Blue.h"
 111              		.section	.debug_info,"",%progbits
 112              	.Ldebug_info0:
 113 0000 85010000 		.4byte	0x185
 114 0004 0400     		.2byte	0x4
 115 0006 00000000 		.4byte	.Ldebug_abbrev0
 116 000a 04       		.byte	0x4
 117 000b 01       		.uleb128 0x1
 118 000c 91000000 		.4byte	.LASF18
 119 0010 01       		.byte	0x1
 120 0011 3F000000 		.4byte	.LASF19
 121 0015 2D010000 		.4byte	.LASF20
 122 0019 00000000 		.4byte	.Ldebug_ranges0+0
 123 001d 00000000 		.4byte	0
 124 0021 00000000 		.4byte	.Ldebug_line0
 125 0025 02       		.uleb128 0x2
 126 0026 01       		.byte	0x1
 127 0027 06       		.byte	0x6
 128 0028 A0010000 		.4byte	.LASF0
 129 002c 02       		.uleb128 0x2
 130 002d 01       		.byte	0x1
 131 002e 08       		.byte	0x8
 132 002f 31000000 		.4byte	.LASF1
 133 0033 02       		.uleb128 0x2
 134 0034 02       		.byte	0x2
 135 0035 05       		.byte	0x5
 136 0036 BC010000 		.4byte	.LASF2
 137 003a 02       		.uleb128 0x2
 138 003b 02       		.byte	0x2
ARM GAS  C:\Users\kelvi\AppData\Local\Temp\ccUnxnng.s 			page 4


 139 003c 07       		.byte	0x7
 140 003d 0E000000 		.4byte	.LASF3
 141 0041 03       		.uleb128 0x3
 142 0042 AC010000 		.4byte	.LASF9
 143 0046 02       		.byte	0x2
 144 0047 3F       		.byte	0x3f
 145 0048 4C000000 		.4byte	0x4c
 146 004c 02       		.uleb128 0x2
 147 004d 04       		.byte	0x4
 148 004e 05       		.byte	0x5
 149 004f 83010000 		.4byte	.LASF4
 150 0053 02       		.uleb128 0x2
 151 0054 04       		.byte	0x4
 152 0055 07       		.byte	0x7
 153 0056 68000000 		.4byte	.LASF5
 154 005a 02       		.uleb128 0x2
 155 005b 08       		.byte	0x8
 156 005c 05       		.byte	0x5
 157 005d 00000000 		.4byte	.LASF6
 158 0061 02       		.uleb128 0x2
 159 0062 08       		.byte	0x8
 160 0063 07       		.byte	0x7
 161 0064 7A000000 		.4byte	.LASF7
 162 0068 04       		.uleb128 0x4
 163 0069 04       		.byte	0x4
 164 006a 05       		.byte	0x5
 165 006b 696E7400 		.ascii	"int\000"
 166 006f 02       		.uleb128 0x2
 167 0070 04       		.byte	0x4
 168 0071 07       		.byte	0x7
 169 0072 C6010000 		.4byte	.LASF8
 170 0076 03       		.uleb128 0x3
 171 0077 60000000 		.4byte	.LASF10
 172 007b 03       		.byte	0x3
 173 007c 2C       		.byte	0x2c
 174 007d 41000000 		.4byte	0x41
 175 0081 05       		.uleb128 0x5
 176 0082 5A000000 		.4byte	.LASF11
 177 0086 04       		.byte	0x4
 178 0087 9201     		.2byte	0x192
 179 0089 2C000000 		.4byte	0x2c
 180 008d 02       		.uleb128 0x2
 181 008e 04       		.byte	0x4
 182 008f 04       		.byte	0x4
 183 0090 B6010000 		.4byte	.LASF12
 184 0094 02       		.uleb128 0x2
 185 0095 08       		.byte	0x8
 186 0096 04       		.byte	0x4
 187 0097 8C010000 		.4byte	.LASF13
 188 009b 02       		.uleb128 0x2
 189 009c 01       		.byte	0x1
 190 009d 08       		.byte	0x8
 191 009e 7E010000 		.4byte	.LASF14
 192 00a2 02       		.uleb128 0x2
 193 00a3 04       		.byte	0x4
 194 00a4 07       		.byte	0x7
 195 00a5 D3010000 		.4byte	.LASF15
ARM GAS  C:\Users\kelvi\AppData\Local\Temp\ccUnxnng.s 			page 5


 196 00a9 06       		.uleb128 0x6
 197 00aa 55000000 		.4byte	.LASF21
 198 00ae 01       		.byte	0x1
 199 00af 0E       		.byte	0xe
 200 00b0 68000000 		.4byte	0x68
 201 00b4 00000000 		.4byte	.LFB63
 202 00b8 48000000 		.4byte	.LFE63-.LFB63
 203 00bc 01       		.uleb128 0x1
 204 00bd 9C       		.byte	0x9c
 205 00be 48010000 		.4byte	0x148
 206 00c2 07       		.uleb128 0x7
 207 00c3 04000000 		.4byte	.LBB2
 208 00c7 44000000 		.4byte	.LBE2-.LBB2
 209 00cb 08       		.uleb128 0x8
 210 00cc 6900     		.ascii	"i\000"
 211 00ce 01       		.byte	0x1
 212 00cf 1A       		.byte	0x1a
 213 00d0 68000000 		.4byte	0x68
 214 00d4 00000000 		.4byte	.LLST0
 215 00d8 09       		.uleb128 0x9
 216 00d9 0A000000 		.4byte	.LVL0
 217 00dd 59010000 		.4byte	0x159
 218 00e1 EB000000 		.4byte	0xeb
 219 00e5 0A       		.uleb128 0xa
 220 00e6 01       		.uleb128 0x1
 221 00e7 50       		.byte	0x50
 222 00e8 01       		.uleb128 0x1
 223 00e9 30       		.byte	0x30
 224 00ea 00       		.byte	0
 225 00eb 09       		.uleb128 0x9
 226 00ec 10000000 		.4byte	.LVL1
 227 00f0 6A010000 		.4byte	0x16a
 228 00f4 FE000000 		.4byte	0xfe
 229 00f8 0A       		.uleb128 0xa
 230 00f9 01       		.uleb128 0x1
 231 00fa 50       		.byte	0x50
 232 00fb 01       		.uleb128 0x1
 233 00fc 31       		.byte	0x31
 234 00fd 00       		.byte	0
 235 00fe 09       		.uleb128 0x9
 236 00ff 16000000 		.4byte	.LVL2
 237 0103 7B010000 		.4byte	0x17b
 238 0107 11010000 		.4byte	0x111
 239 010b 0A       		.uleb128 0xa
 240 010c 01       		.uleb128 0x1
 241 010d 50       		.byte	0x50
 242 010e 01       		.uleb128 0x1
 243 010f 31       		.byte	0x31
 244 0110 00       		.byte	0
 245 0111 09       		.uleb128 0x9
 246 0112 28000000 		.4byte	.LVL5
 247 0116 59010000 		.4byte	0x159
 248 011a 24010000 		.4byte	0x124
 249 011e 0A       		.uleb128 0xa
 250 011f 01       		.uleb128 0x1
 251 0120 50       		.byte	0x50
 252 0121 01       		.uleb128 0x1
ARM GAS  C:\Users\kelvi\AppData\Local\Temp\ccUnxnng.s 			page 6


 253 0122 31       		.byte	0x31
 254 0123 00       		.byte	0
 255 0124 09       		.uleb128 0x9
 256 0125 2E000000 		.4byte	.LVL6
 257 0129 6A010000 		.4byte	0x16a
 258 012d 37010000 		.4byte	0x137
 259 0131 0A       		.uleb128 0xa
 260 0132 01       		.uleb128 0x1
 261 0133 50       		.byte	0x50
 262 0134 01       		.uleb128 0x1
 263 0135 31       		.byte	0x31
 264 0136 00       		.byte	0
 265 0137 0B       		.uleb128 0xb
 266 0138 34000000 		.4byte	.LVL7
 267 013c 7B010000 		.4byte	0x17b
 268 0140 0A       		.uleb128 0xa
 269 0141 01       		.uleb128 0x1
 270 0142 50       		.byte	0x50
 271 0143 01       		.uleb128 0x1
 272 0144 31       		.byte	0x31
 273 0145 00       		.byte	0
 274 0146 00       		.byte	0
 275 0147 00       		.byte	0
 276 0148 0C       		.uleb128 0xc
 277 0149 93010000 		.4byte	.LASF22
 278 014d 07       		.byte	0x7
 279 014e 9606     		.2byte	0x696
 280 0150 54010000 		.4byte	0x154
 281 0154 0D       		.uleb128 0xd
 282 0155 76000000 		.4byte	0x76
 283 0159 0E       		.uleb128 0xe
 284 015a 1F010000 		.4byte	.LASF16
 285 015e 05       		.byte	0x5
 286 015f 26       		.byte	0x26
 287 0160 6A010000 		.4byte	0x16a
 288 0164 0F       		.uleb128 0xf
 289 0165 81000000 		.4byte	0x81
 290 0169 00       		.byte	0
 291 016a 0E       		.uleb128 0xe
 292 016b 21000000 		.4byte	.LASF17
 293 016f 06       		.byte	0x6
 294 0170 26       		.byte	0x26
 295 0171 7B010000 		.4byte	0x17b
 296 0175 0F       		.uleb128 0xf
 297 0176 81000000 		.4byte	0x81
 298 017a 00       		.byte	0
 299 017b 10       		.uleb128 0x10
 300 017c 46000000 		.4byte	.LASF23
 301 0180 08       		.byte	0x8
 302 0181 26       		.byte	0x26
 303 0182 0F       		.uleb128 0xf
 304 0183 81000000 		.4byte	0x81
 305 0187 00       		.byte	0
 306 0188 00       		.byte	0
 307              		.section	.debug_abbrev,"",%progbits
 308              	.Ldebug_abbrev0:
 309 0000 01       		.uleb128 0x1
ARM GAS  C:\Users\kelvi\AppData\Local\Temp\ccUnxnng.s 			page 7


 310 0001 11       		.uleb128 0x11
 311 0002 01       		.byte	0x1
 312 0003 25       		.uleb128 0x25
 313 0004 0E       		.uleb128 0xe
 314 0005 13       		.uleb128 0x13
 315 0006 0B       		.uleb128 0xb
 316 0007 03       		.uleb128 0x3
 317 0008 0E       		.uleb128 0xe
 318 0009 1B       		.uleb128 0x1b
 319 000a 0E       		.uleb128 0xe
 320 000b 55       		.uleb128 0x55
 321 000c 17       		.uleb128 0x17
 322 000d 11       		.uleb128 0x11
 323 000e 01       		.uleb128 0x1
 324 000f 10       		.uleb128 0x10
 325 0010 17       		.uleb128 0x17
 326 0011 00       		.byte	0
 327 0012 00       		.byte	0
 328 0013 02       		.uleb128 0x2
 329 0014 24       		.uleb128 0x24
 330 0015 00       		.byte	0
 331 0016 0B       		.uleb128 0xb
 332 0017 0B       		.uleb128 0xb
 333 0018 3E       		.uleb128 0x3e
 334 0019 0B       		.uleb128 0xb
 335 001a 03       		.uleb128 0x3
 336 001b 0E       		.uleb128 0xe
 337 001c 00       		.byte	0
 338 001d 00       		.byte	0
 339 001e 03       		.uleb128 0x3
 340 001f 16       		.uleb128 0x16
 341 0020 00       		.byte	0
 342 0021 03       		.uleb128 0x3
 343 0022 0E       		.uleb128 0xe
 344 0023 3A       		.uleb128 0x3a
 345 0024 0B       		.uleb128 0xb
 346 0025 3B       		.uleb128 0x3b
 347 0026 0B       		.uleb128 0xb
 348 0027 49       		.uleb128 0x49
 349 0028 13       		.uleb128 0x13
 350 0029 00       		.byte	0
 351 002a 00       		.byte	0
 352 002b 04       		.uleb128 0x4
 353 002c 24       		.uleb128 0x24
 354 002d 00       		.byte	0
 355 002e 0B       		.uleb128 0xb
 356 002f 0B       		.uleb128 0xb
 357 0030 3E       		.uleb128 0x3e
 358 0031 0B       		.uleb128 0xb
 359 0032 03       		.uleb128 0x3
 360 0033 08       		.uleb128 0x8
 361 0034 00       		.byte	0
 362 0035 00       		.byte	0
 363 0036 05       		.uleb128 0x5
 364 0037 16       		.uleb128 0x16
 365 0038 00       		.byte	0
 366 0039 03       		.uleb128 0x3
ARM GAS  C:\Users\kelvi\AppData\Local\Temp\ccUnxnng.s 			page 8


 367 003a 0E       		.uleb128 0xe
 368 003b 3A       		.uleb128 0x3a
 369 003c 0B       		.uleb128 0xb
 370 003d 3B       		.uleb128 0x3b
 371 003e 05       		.uleb128 0x5
 372 003f 49       		.uleb128 0x49
 373 0040 13       		.uleb128 0x13
 374 0041 00       		.byte	0
 375 0042 00       		.byte	0
 376 0043 06       		.uleb128 0x6
 377 0044 2E       		.uleb128 0x2e
 378 0045 01       		.byte	0x1
 379 0046 3F       		.uleb128 0x3f
 380 0047 19       		.uleb128 0x19
 381 0048 03       		.uleb128 0x3
 382 0049 0E       		.uleb128 0xe
 383 004a 3A       		.uleb128 0x3a
 384 004b 0B       		.uleb128 0xb
 385 004c 3B       		.uleb128 0x3b
 386 004d 0B       		.uleb128 0xb
 387 004e 27       		.uleb128 0x27
 388 004f 19       		.uleb128 0x19
 389 0050 49       		.uleb128 0x49
 390 0051 13       		.uleb128 0x13
 391 0052 11       		.uleb128 0x11
 392 0053 01       		.uleb128 0x1
 393 0054 12       		.uleb128 0x12
 394 0055 06       		.uleb128 0x6
 395 0056 40       		.uleb128 0x40
 396 0057 18       		.uleb128 0x18
 397 0058 9742     		.uleb128 0x2117
 398 005a 19       		.uleb128 0x19
 399 005b 01       		.uleb128 0x1
 400 005c 13       		.uleb128 0x13
 401 005d 00       		.byte	0
 402 005e 00       		.byte	0
 403 005f 07       		.uleb128 0x7
 404 0060 0B       		.uleb128 0xb
 405 0061 01       		.byte	0x1
 406 0062 11       		.uleb128 0x11
 407 0063 01       		.uleb128 0x1
 408 0064 12       		.uleb128 0x12
 409 0065 06       		.uleb128 0x6
 410 0066 00       		.byte	0
 411 0067 00       		.byte	0
 412 0068 08       		.uleb128 0x8
 413 0069 34       		.uleb128 0x34
 414 006a 00       		.byte	0
 415 006b 03       		.uleb128 0x3
 416 006c 08       		.uleb128 0x8
 417 006d 3A       		.uleb128 0x3a
 418 006e 0B       		.uleb128 0xb
 419 006f 3B       		.uleb128 0x3b
 420 0070 0B       		.uleb128 0xb
 421 0071 49       		.uleb128 0x49
 422 0072 13       		.uleb128 0x13
 423 0073 02       		.uleb128 0x2
ARM GAS  C:\Users\kelvi\AppData\Local\Temp\ccUnxnng.s 			page 9


 424 0074 17       		.uleb128 0x17
 425 0075 00       		.byte	0
 426 0076 00       		.byte	0
 427 0077 09       		.uleb128 0x9
 428 0078 898201   		.uleb128 0x4109
 429 007b 01       		.byte	0x1
 430 007c 11       		.uleb128 0x11
 431 007d 01       		.uleb128 0x1
 432 007e 31       		.uleb128 0x31
 433 007f 13       		.uleb128 0x13
 434 0080 01       		.uleb128 0x1
 435 0081 13       		.uleb128 0x13
 436 0082 00       		.byte	0
 437 0083 00       		.byte	0
 438 0084 0A       		.uleb128 0xa
 439 0085 8A8201   		.uleb128 0x410a
 440 0088 00       		.byte	0
 441 0089 02       		.uleb128 0x2
 442 008a 18       		.uleb128 0x18
 443 008b 9142     		.uleb128 0x2111
 444 008d 18       		.uleb128 0x18
 445 008e 00       		.byte	0
 446 008f 00       		.byte	0
 447 0090 0B       		.uleb128 0xb
 448 0091 898201   		.uleb128 0x4109
 449 0094 01       		.byte	0x1
 450 0095 11       		.uleb128 0x11
 451 0096 01       		.uleb128 0x1
 452 0097 31       		.uleb128 0x31
 453 0098 13       		.uleb128 0x13
 454 0099 00       		.byte	0
 455 009a 00       		.byte	0
 456 009b 0C       		.uleb128 0xc
 457 009c 34       		.uleb128 0x34
 458 009d 00       		.byte	0
 459 009e 03       		.uleb128 0x3
 460 009f 0E       		.uleb128 0xe
 461 00a0 3A       		.uleb128 0x3a
 462 00a1 0B       		.uleb128 0xb
 463 00a2 3B       		.uleb128 0x3b
 464 00a3 05       		.uleb128 0x5
 465 00a4 49       		.uleb128 0x49
 466 00a5 13       		.uleb128 0x13
 467 00a6 3F       		.uleb128 0x3f
 468 00a7 19       		.uleb128 0x19
 469 00a8 3C       		.uleb128 0x3c
 470 00a9 19       		.uleb128 0x19
 471 00aa 00       		.byte	0
 472 00ab 00       		.byte	0
 473 00ac 0D       		.uleb128 0xd
 474 00ad 35       		.uleb128 0x35
 475 00ae 00       		.byte	0
 476 00af 49       		.uleb128 0x49
 477 00b0 13       		.uleb128 0x13
 478 00b1 00       		.byte	0
 479 00b2 00       		.byte	0
 480 00b3 0E       		.uleb128 0xe
ARM GAS  C:\Users\kelvi\AppData\Local\Temp\ccUnxnng.s 			page 10


 481 00b4 2E       		.uleb128 0x2e
 482 00b5 01       		.byte	0x1
 483 00b6 3F       		.uleb128 0x3f
 484 00b7 19       		.uleb128 0x19
 485 00b8 03       		.uleb128 0x3
 486 00b9 0E       		.uleb128 0xe
 487 00ba 3A       		.uleb128 0x3a
 488 00bb 0B       		.uleb128 0xb
 489 00bc 3B       		.uleb128 0x3b
 490 00bd 0B       		.uleb128 0xb
 491 00be 27       		.uleb128 0x27
 492 00bf 19       		.uleb128 0x19
 493 00c0 3C       		.uleb128 0x3c
 494 00c1 19       		.uleb128 0x19
 495 00c2 01       		.uleb128 0x1
 496 00c3 13       		.uleb128 0x13
 497 00c4 00       		.byte	0
 498 00c5 00       		.byte	0
 499 00c6 0F       		.uleb128 0xf
 500 00c7 05       		.uleb128 0x5
 501 00c8 00       		.byte	0
 502 00c9 49       		.uleb128 0x49
 503 00ca 13       		.uleb128 0x13
 504 00cb 00       		.byte	0
 505 00cc 00       		.byte	0
 506 00cd 10       		.uleb128 0x10
 507 00ce 2E       		.uleb128 0x2e
 508 00cf 01       		.byte	0x1
 509 00d0 3F       		.uleb128 0x3f
 510 00d1 19       		.uleb128 0x19
 511 00d2 03       		.uleb128 0x3
 512 00d3 0E       		.uleb128 0xe
 513 00d4 3A       		.uleb128 0x3a
 514 00d5 0B       		.uleb128 0xb
 515 00d6 3B       		.uleb128 0x3b
 516 00d7 0B       		.uleb128 0xb
 517 00d8 27       		.uleb128 0x27
 518 00d9 19       		.uleb128 0x19
 519 00da 3C       		.uleb128 0x3c
 520 00db 19       		.uleb128 0x19
 521 00dc 00       		.byte	0
 522 00dd 00       		.byte	0
 523 00de 00       		.byte	0
 524              		.section	.debug_loc,"",%progbits
 525              	.Ldebug_loc0:
 526              	.LLST0:
 527 0000 16000000 		.4byte	.LVL2
 528 0004 1A000000 		.4byte	.LVL3
 529 0008 0200     		.2byte	0x2
 530 000a 30       		.byte	0x30
 531 000b 9F       		.byte	0x9f
 532 000c 1A000000 		.4byte	.LVL3
 533 0010 27000000 		.4byte	.LVL5-1
 534 0014 0100     		.2byte	0x1
 535 0016 53       		.byte	0x53
 536 0017 34000000 		.4byte	.LVL7
 537 001b 38000000 		.4byte	.LVL8
ARM GAS  C:\Users\kelvi\AppData\Local\Temp\ccUnxnng.s 			page 11


 538 001f 0200     		.2byte	0x2
 539 0021 30       		.byte	0x30
 540 0022 9F       		.byte	0x9f
 541 0023 38000000 		.4byte	.LVL8
 542 0027 48000000 		.4byte	.LFE63
 543 002b 0100     		.2byte	0x1
 544 002d 53       		.byte	0x53
 545 002e 00000000 		.4byte	0
 546 0032 00000000 		.4byte	0
 547              		.section	.debug_aranges,"",%progbits
 548 0000 1C000000 		.4byte	0x1c
 549 0004 0200     		.2byte	0x2
 550 0006 00000000 		.4byte	.Ldebug_info0
 551 000a 04       		.byte	0x4
 552 000b 00       		.byte	0
 553 000c 0000     		.2byte	0
 554 000e 0000     		.2byte	0
 555 0010 00000000 		.4byte	.LFB63
 556 0014 48000000 		.4byte	.LFE63-.LFB63
 557 0018 00000000 		.4byte	0
 558 001c 00000000 		.4byte	0
 559              		.section	.debug_ranges,"",%progbits
 560              	.Ldebug_ranges0:
 561 0000 00000000 		.4byte	.LFB63
 562 0004 48000000 		.4byte	.LFE63
 563 0008 00000000 		.4byte	0
 564 000c 00000000 		.4byte	0
 565              		.section	.debug_line,"",%progbits
 566              	.Ldebug_line0:
 567 0000 A7010000 		.section	.debug_str,"MS",%progbits,1
 567      02007101 
 567      00000201 
 567      FB0E0D00 
 567      01010101 
 568              	.LASF6:
 569 0000 6C6F6E67 		.ascii	"long long int\000"
 569      206C6F6E 
 569      6720696E 
 569      7400
 570              	.LASF3:
 571 000e 73686F72 		.ascii	"short unsigned int\000"
 571      7420756E 
 571      7369676E 
 571      65642069 
 571      6E7400
 572              	.LASF17:
 573 0021 50696E5F 		.ascii	"Pin_Green_Write\000"
 573      47726565 
 573      6E5F5772 
 573      69746500 
 574              	.LASF1:
 575 0031 756E7369 		.ascii	"unsigned char\000"
 575      676E6564 
 575      20636861 
 575      7200
 576              	.LASF19:
 577 003f 6D61696E 		.ascii	"main.c\000"
ARM GAS  C:\Users\kelvi\AppData\Local\Temp\ccUnxnng.s 			page 12


 577      2E6300
 578              	.LASF23:
 579 0046 50696E5F 		.ascii	"Pin_Blue_Write\000"
 579      426C7565 
 579      5F577269 
 579      746500
 580              	.LASF21:
 581 0055 6D61696E 		.ascii	"main\000"
 581      00
 582              	.LASF11:
 583 005a 75696E74 		.ascii	"uint8\000"
 583      3800
 584              	.LASF10:
 585 0060 696E7433 		.ascii	"int32_t\000"
 585      325F7400 
 586              	.LASF5:
 587 0068 6C6F6E67 		.ascii	"long unsigned int\000"
 587      20756E73 
 587      69676E65 
 587      6420696E 
 587      7400
 588              	.LASF7:
 589 007a 6C6F6E67 		.ascii	"long long unsigned int\000"
 589      206C6F6E 
 589      6720756E 
 589      7369676E 
 589      65642069 
 590              	.LASF18:
 591 0091 474E5520 		.ascii	"GNU C 4.9.3 20150303 (release) [ARM/embedded-4_9-br"
 591      4320342E 
 591      392E3320 
 591      32303135 
 591      30333033 
 592 00c4 616E6368 		.ascii	"anch revision 221220] -mcpu=cortex-m3 -mthumb -g -O"
 592      20726576 
 592      6973696F 
 592      6E203232 
 592      31323230 
 593 00f7 67202D66 		.ascii	"g -ffunction-sections -ffat-lto-objects\000"
 593      66756E63 
 593      74696F6E 
 593      2D736563 
 593      74696F6E 
 594              	.LASF16:
 595 011f 50696E5F 		.ascii	"Pin_Red_Write\000"
 595      5265645F 
 595      57726974 
 595      6500
 596              	.LASF20:
 597 012d 433A5C55 		.ascii	"C:\\Users\\kelvi\\OneDrive\\Documents\\school files"
 597      73657273 
 597      5C6B656C 
 597      76695C4F 
 597      6E654472 
 598 015b 5C737072 		.ascii	"\\spring 2017\\cs121\\lab1\\lab1.cydsn\000"
 598      696E6720 
 598      32303137 
ARM GAS  C:\Users\kelvi\AppData\Local\Temp\ccUnxnng.s 			page 13


 598      5C637331 
 598      32315C6C 
 599              	.LASF14:
 600 017e 63686172 		.ascii	"char\000"
 600      00
 601              	.LASF4:
 602 0183 6C6F6E67 		.ascii	"long int\000"
 602      20696E74 
 602      00
 603              	.LASF13:
 604 018c 646F7562 		.ascii	"double\000"
 604      6C6500
 605              	.LASF22:
 606 0193 49544D5F 		.ascii	"ITM_RxBuffer\000"
 606      52784275 
 606      66666572 
 606      00
 607              	.LASF0:
 608 01a0 7369676E 		.ascii	"signed char\000"
 608      65642063 
 608      68617200 
 609              	.LASF9:
 610 01ac 5F5F696E 		.ascii	"__int32_t\000"
 610      7433325F 
 610      7400
 611              	.LASF12:
 612 01b6 666C6F61 		.ascii	"float\000"
 612      7400
 613              	.LASF2:
 614 01bc 73686F72 		.ascii	"short int\000"
 614      7420696E 
 614      7400
 615              	.LASF8:
 616 01c6 756E7369 		.ascii	"unsigned int\000"
 616      676E6564 
 616      20696E74 
 616      00
 617              	.LASF15:
 618 01d3 73697A65 		.ascii	"sizetype\000"
 618      74797065 
 618      00
 619              		.ident	"GCC: (GNU Tools for ARM Embedded Processors) 4.9.3 20150303 (release) [ARM/embedded-4_9-br
