ARM GAS  C:\Users\kelvi\AppData\Local\Temp\ccJ7QZVf.s 			page 1


   1              		.syntax unified
   2              		.cpu cortex-m3
   3              		.fpu softvfp
   4              		.eabi_attribute 20, 1
   5              		.eabi_attribute 21, 1
   6              		.eabi_attribute 23, 3
   7              		.eabi_attribute 24, 1
   8              		.eabi_attribute 25, 1
   9              		.eabi_attribute 26, 1
  10              		.eabi_attribute 30, 1
  11              		.eabi_attribute 34, 1
  12              		.eabi_attribute 18, 4
  13              		.thumb
  14              		.file	"cyfitter_cfg.c"
  15              		.text
  16              	.Ltext0:
  17              		.cfi_sections	.debug_frame
  18              		.section	.text.CyClockStartupError,"ax",%progbits
  19              		.align	2
  20              		.thumb
  21              		.thumb_func
  22              		.type	CyClockStartupError, %function
  23              	CyClockStartupError:
  24              	.LFB3:
  25              		.file 1 "Generated_Source\\PSoC5\\cyfitter_cfg.c"
   1:Generated_Source\PSoC5/cyfitter_cfg.c **** /*******************************************************************************
   2:Generated_Source\PSoC5/cyfitter_cfg.c **** * File Name: cyfitter_cfg.c
   3:Generated_Source\PSoC5/cyfitter_cfg.c **** * 
   4:Generated_Source\PSoC5/cyfitter_cfg.c **** * PSoC Creator  4.0 Update 1
   5:Generated_Source\PSoC5/cyfitter_cfg.c **** *
   6:Generated_Source\PSoC5/cyfitter_cfg.c **** * Description:
   7:Generated_Source\PSoC5/cyfitter_cfg.c **** * This file contains device initialization code.
   8:Generated_Source\PSoC5/cyfitter_cfg.c **** * Except for the user defined sections in CyClockStartupError(), this file should not be modified.
   9:Generated_Source\PSoC5/cyfitter_cfg.c **** * This file is automatically generated by PSoC Creator.
  10:Generated_Source\PSoC5/cyfitter_cfg.c **** *
  11:Generated_Source\PSoC5/cyfitter_cfg.c **** ********************************************************************************
  12:Generated_Source\PSoC5/cyfitter_cfg.c **** * Copyright (c) 2007-2016 Cypress Semiconductor.  All rights reserved.
  13:Generated_Source\PSoC5/cyfitter_cfg.c **** * You may use this file only in accordance with the license, terms, conditions, 
  14:Generated_Source\PSoC5/cyfitter_cfg.c **** * disclaimers, and limitations in the end user license agreement accompanying 
  15:Generated_Source\PSoC5/cyfitter_cfg.c **** * the software package with which this file was provided.
  16:Generated_Source\PSoC5/cyfitter_cfg.c **** ********************************************************************************/
  17:Generated_Source\PSoC5/cyfitter_cfg.c **** 
  18:Generated_Source\PSoC5/cyfitter_cfg.c **** #include <string.h>
  19:Generated_Source\PSoC5/cyfitter_cfg.c **** #include "cytypes.h"
  20:Generated_Source\PSoC5/cyfitter_cfg.c **** #include "cydevice_trm.h"
  21:Generated_Source\PSoC5/cyfitter_cfg.c **** #include "cyfitter.h"
  22:Generated_Source\PSoC5/cyfitter_cfg.c **** #include "CyLib.h"
  23:Generated_Source\PSoC5/cyfitter_cfg.c **** #include "cyfitter_cfg.h"
  24:Generated_Source\PSoC5/cyfitter_cfg.c **** #include "cyapicallbacks.h"
  25:Generated_Source\PSoC5/cyfitter_cfg.c **** 
  26:Generated_Source\PSoC5/cyfitter_cfg.c **** #define CY_NEED_CYCLOCKSTARTUPERROR 1
  27:Generated_Source\PSoC5/cyfitter_cfg.c **** 
  28:Generated_Source\PSoC5/cyfitter_cfg.c **** 
  29:Generated_Source\PSoC5/cyfitter_cfg.c **** #if defined(__GNUC__) || defined(__ARMCC_VERSION)
  30:Generated_Source\PSoC5/cyfitter_cfg.c ****     #define CYPACKED 
  31:Generated_Source\PSoC5/cyfitter_cfg.c ****     #define CYPACKED_ATTR __attribute__ ((packed))
  32:Generated_Source\PSoC5/cyfitter_cfg.c ****     #define CYALIGNED __attribute__ ((aligned))
ARM GAS  C:\Users\kelvi\AppData\Local\Temp\ccJ7QZVf.s 			page 2


  33:Generated_Source\PSoC5/cyfitter_cfg.c ****     #define CY_CFG_UNUSED __attribute__ ((unused))
  34:Generated_Source\PSoC5/cyfitter_cfg.c ****     #ifndef CY_CFG_SECTION
  35:Generated_Source\PSoC5/cyfitter_cfg.c ****         #define CY_CFG_SECTION __attribute__ ((section(".psocinit")))
  36:Generated_Source\PSoC5/cyfitter_cfg.c ****     #endif
  37:Generated_Source\PSoC5/cyfitter_cfg.c ****     
  38:Generated_Source\PSoC5/cyfitter_cfg.c ****     #if defined(__ARMCC_VERSION)
  39:Generated_Source\PSoC5/cyfitter_cfg.c ****         #define CY_CFG_MEMORY_BARRIER() __memory_changed()
  40:Generated_Source\PSoC5/cyfitter_cfg.c ****     #else
  41:Generated_Source\PSoC5/cyfitter_cfg.c ****         #define CY_CFG_MEMORY_BARRIER() __sync_synchronize()
  42:Generated_Source\PSoC5/cyfitter_cfg.c ****     #endif
  43:Generated_Source\PSoC5/cyfitter_cfg.c ****     
  44:Generated_Source\PSoC5/cyfitter_cfg.c **** #elif defined(__ICCARM__)
  45:Generated_Source\PSoC5/cyfitter_cfg.c ****     #include <intrinsics.h>
  46:Generated_Source\PSoC5/cyfitter_cfg.c **** 
  47:Generated_Source\PSoC5/cyfitter_cfg.c ****     #define CYPACKED __packed
  48:Generated_Source\PSoC5/cyfitter_cfg.c ****     #define CYPACKED_ATTR 
  49:Generated_Source\PSoC5/cyfitter_cfg.c ****     #define CYALIGNED _Pragma("data_alignment=4")
  50:Generated_Source\PSoC5/cyfitter_cfg.c ****     #define CY_CFG_UNUSED _Pragma("diag_suppress=Pe177")
  51:Generated_Source\PSoC5/cyfitter_cfg.c ****     #define CY_CFG_SECTION _Pragma("location=\".psocinit\"")
  52:Generated_Source\PSoC5/cyfitter_cfg.c ****     
  53:Generated_Source\PSoC5/cyfitter_cfg.c ****     #define CY_CFG_MEMORY_BARRIER() __DMB()
  54:Generated_Source\PSoC5/cyfitter_cfg.c ****     
  55:Generated_Source\PSoC5/cyfitter_cfg.c **** #else
  56:Generated_Source\PSoC5/cyfitter_cfg.c ****     #error Unsupported toolchain
  57:Generated_Source\PSoC5/cyfitter_cfg.c **** #endif
  58:Generated_Source\PSoC5/cyfitter_cfg.c **** 
  59:Generated_Source\PSoC5/cyfitter_cfg.c **** 
  60:Generated_Source\PSoC5/cyfitter_cfg.c **** CY_CFG_UNUSED
  61:Generated_Source\PSoC5/cyfitter_cfg.c **** static void CYMEMZERO(void *s, size_t n);
  62:Generated_Source\PSoC5/cyfitter_cfg.c **** CY_CFG_UNUSED
  63:Generated_Source\PSoC5/cyfitter_cfg.c **** static void CYMEMZERO(void *s, size_t n)
  64:Generated_Source\PSoC5/cyfitter_cfg.c **** {
  65:Generated_Source\PSoC5/cyfitter_cfg.c **** 	(void)memset(s, 0, n);
  66:Generated_Source\PSoC5/cyfitter_cfg.c **** }
  67:Generated_Source\PSoC5/cyfitter_cfg.c **** CY_CFG_UNUSED
  68:Generated_Source\PSoC5/cyfitter_cfg.c **** static void CYCONFIGCPY(void *dest, const void *src, size_t n);
  69:Generated_Source\PSoC5/cyfitter_cfg.c **** CY_CFG_UNUSED
  70:Generated_Source\PSoC5/cyfitter_cfg.c **** static void CYCONFIGCPY(void *dest, const void *src, size_t n)
  71:Generated_Source\PSoC5/cyfitter_cfg.c **** {
  72:Generated_Source\PSoC5/cyfitter_cfg.c **** 	(void)memcpy(dest, src, n);
  73:Generated_Source\PSoC5/cyfitter_cfg.c **** }
  74:Generated_Source\PSoC5/cyfitter_cfg.c **** CY_CFG_UNUSED
  75:Generated_Source\PSoC5/cyfitter_cfg.c **** static void CYCONFIGCPYCODE(void *dest, const void *src, size_t n);
  76:Generated_Source\PSoC5/cyfitter_cfg.c **** CY_CFG_UNUSED
  77:Generated_Source\PSoC5/cyfitter_cfg.c **** static void CYCONFIGCPYCODE(void *dest, const void *src, size_t n)
  78:Generated_Source\PSoC5/cyfitter_cfg.c **** {
  79:Generated_Source\PSoC5/cyfitter_cfg.c **** 	(void)memcpy(dest, src, n);
  80:Generated_Source\PSoC5/cyfitter_cfg.c **** }
  81:Generated_Source\PSoC5/cyfitter_cfg.c **** 
  82:Generated_Source\PSoC5/cyfitter_cfg.c **** 
  83:Generated_Source\PSoC5/cyfitter_cfg.c **** 
  84:Generated_Source\PSoC5/cyfitter_cfg.c **** 
  85:Generated_Source\PSoC5/cyfitter_cfg.c **** /* Clock startup error codes                                                   */
  86:Generated_Source\PSoC5/cyfitter_cfg.c **** #define CYCLOCKSTART_NO_ERROR    0u
  87:Generated_Source\PSoC5/cyfitter_cfg.c **** #define CYCLOCKSTART_XTAL_ERROR  1u
  88:Generated_Source\PSoC5/cyfitter_cfg.c **** #define CYCLOCKSTART_32KHZ_ERROR 2u
  89:Generated_Source\PSoC5/cyfitter_cfg.c **** #define CYCLOCKSTART_PLL_ERROR   3u
ARM GAS  C:\Users\kelvi\AppData\Local\Temp\ccJ7QZVf.s 			page 3


  90:Generated_Source\PSoC5/cyfitter_cfg.c **** 
  91:Generated_Source\PSoC5/cyfitter_cfg.c **** 
  92:Generated_Source\PSoC5/cyfitter_cfg.c **** #ifdef CY_NEED_CYCLOCKSTARTUPERROR
  93:Generated_Source\PSoC5/cyfitter_cfg.c **** /*******************************************************************************
  94:Generated_Source\PSoC5/cyfitter_cfg.c **** * Function Name: CyClockStartupError
  95:Generated_Source\PSoC5/cyfitter_cfg.c **** ********************************************************************************
  96:Generated_Source\PSoC5/cyfitter_cfg.c **** * Summary:
  97:Generated_Source\PSoC5/cyfitter_cfg.c **** *  If an error is encountered during clock configuration (crystal startup error,
  98:Generated_Source\PSoC5/cyfitter_cfg.c **** *  PLL lock error, etc.), the system will end up here.  Unless reimplemented by
  99:Generated_Source\PSoC5/cyfitter_cfg.c **** *  the customer, this function will stop in an infinite loop.
 100:Generated_Source\PSoC5/cyfitter_cfg.c **** *
 101:Generated_Source\PSoC5/cyfitter_cfg.c **** * Parameters:
 102:Generated_Source\PSoC5/cyfitter_cfg.c **** *   void
 103:Generated_Source\PSoC5/cyfitter_cfg.c **** *
 104:Generated_Source\PSoC5/cyfitter_cfg.c **** * Return:
 105:Generated_Source\PSoC5/cyfitter_cfg.c **** *   void
 106:Generated_Source\PSoC5/cyfitter_cfg.c **** *
 107:Generated_Source\PSoC5/cyfitter_cfg.c **** *******************************************************************************/
 108:Generated_Source\PSoC5/cyfitter_cfg.c **** CY_CFG_UNUSED
 109:Generated_Source\PSoC5/cyfitter_cfg.c **** static void CyClockStartupError(uint8 errorCode);
 110:Generated_Source\PSoC5/cyfitter_cfg.c **** CY_CFG_UNUSED
 111:Generated_Source\PSoC5/cyfitter_cfg.c **** static void CyClockStartupError(uint8 errorCode)
 112:Generated_Source\PSoC5/cyfitter_cfg.c **** {
  26              		.loc 1 112 0
  27              		.cfi_startproc
  28              		@ Volatile: function does not return.
  29              		@ args = 0, pretend = 0, frame = 0
  30              		@ frame_needed = 0, uses_anonymous_args = 0
  31              		@ link register save eliminated.
  32              	.LVL0:
  33              	.L2:
 113:Generated_Source\PSoC5/cyfitter_cfg.c ****     /* To remove the compiler warning if errorCode not used.                */
 114:Generated_Source\PSoC5/cyfitter_cfg.c ****     errorCode = errorCode;
 115:Generated_Source\PSoC5/cyfitter_cfg.c **** 
 116:Generated_Source\PSoC5/cyfitter_cfg.c ****     /* If we have a clock startup error (bad MHz crystal, PLL lock, etc.),  */
 117:Generated_Source\PSoC5/cyfitter_cfg.c ****     /* we will end up here to allow the customer to implement something to  */
 118:Generated_Source\PSoC5/cyfitter_cfg.c ****     /* deal with the clock condition.                                       */
 119:Generated_Source\PSoC5/cyfitter_cfg.c **** 
 120:Generated_Source\PSoC5/cyfitter_cfg.c **** #ifdef CY_CFG_CLOCK_STARTUP_ERROR_CALLBACK
 121:Generated_Source\PSoC5/cyfitter_cfg.c **** 	CY_CFG_Clock_Startup_ErrorCallback();
 122:Generated_Source\PSoC5/cyfitter_cfg.c **** #else
 123:Generated_Source\PSoC5/cyfitter_cfg.c **** 	/*  If not using CY_CFG_CLOCK_STARTUP_ERROR_CALLBACK, place your clock startup code here. */
 124:Generated_Source\PSoC5/cyfitter_cfg.c ****     /* `#START CyClockStartupError` */
 125:Generated_Source\PSoC5/cyfitter_cfg.c **** 
 126:Generated_Source\PSoC5/cyfitter_cfg.c **** 
 127:Generated_Source\PSoC5/cyfitter_cfg.c **** 
 128:Generated_Source\PSoC5/cyfitter_cfg.c ****     /* `#END` */
 129:Generated_Source\PSoC5/cyfitter_cfg.c **** 
 130:Generated_Source\PSoC5/cyfitter_cfg.c ****     /* If nothing else, stop here since the clocks have not started         */
 131:Generated_Source\PSoC5/cyfitter_cfg.c ****     /* correctly.                                                           */
 132:Generated_Source\PSoC5/cyfitter_cfg.c ****     while(1) {}
  34              		.loc 1 132 0 discriminator 1
  35 0000 FEE7     		b	.L2
  36              		.cfi_endproc
  37              	.LFE3:
  38              		.size	CyClockStartupError, .-CyClockStartupError
  39 0002 00BF     		.section	.text.AnalogSetDefault,"ax",%progbits
ARM GAS  C:\Users\kelvi\AppData\Local\Temp\ccJ7QZVf.s 			page 4


  40              		.align	2
  41              		.thumb
  42              		.thumb_func
  43              		.type	AnalogSetDefault, %function
  44              	AnalogSetDefault:
  45              	.LFB5:
 133:Generated_Source\PSoC5/cyfitter_cfg.c **** #endif /* CY_CFG_CLOCK_STARTUP_ERROR_CALLBACK */ 
 134:Generated_Source\PSoC5/cyfitter_cfg.c **** }
 135:Generated_Source\PSoC5/cyfitter_cfg.c **** #endif
 136:Generated_Source\PSoC5/cyfitter_cfg.c **** 
 137:Generated_Source\PSoC5/cyfitter_cfg.c **** /* IOPINS0_1 Address: CYREG_PRT1_DM0 Size (bytes): 8 */
 138:Generated_Source\PSoC5/cyfitter_cfg.c **** #define BS_IOPINS0_1_VAL ((const uint8 CYFAR *)0x48000000u)
 139:Generated_Source\PSoC5/cyfitter_cfg.c **** 
 140:Generated_Source\PSoC5/cyfitter_cfg.c **** 
 141:Generated_Source\PSoC5/cyfitter_cfg.c **** /*******************************************************************************
 142:Generated_Source\PSoC5/cyfitter_cfg.c **** * Function Name: ClockSetup
 143:Generated_Source\PSoC5/cyfitter_cfg.c **** ********************************************************************************
 144:Generated_Source\PSoC5/cyfitter_cfg.c **** *
 145:Generated_Source\PSoC5/cyfitter_cfg.c **** * Summary:
 146:Generated_Source\PSoC5/cyfitter_cfg.c **** *  Performs the initialization of all of the clocks in the device based on the
 147:Generated_Source\PSoC5/cyfitter_cfg.c **** *  settings in the Clock tab of the DWR.  This includes enabling the requested
 148:Generated_Source\PSoC5/cyfitter_cfg.c **** *  clocks and setting the necessary dividers to produce the desired frequency. 
 149:Generated_Source\PSoC5/cyfitter_cfg.c **** *
 150:Generated_Source\PSoC5/cyfitter_cfg.c **** * Parameters:
 151:Generated_Source\PSoC5/cyfitter_cfg.c **** *  void
 152:Generated_Source\PSoC5/cyfitter_cfg.c **** *
 153:Generated_Source\PSoC5/cyfitter_cfg.c **** * Return:
 154:Generated_Source\PSoC5/cyfitter_cfg.c **** *  void
 155:Generated_Source\PSoC5/cyfitter_cfg.c **** *
 156:Generated_Source\PSoC5/cyfitter_cfg.c **** *******************************************************************************/
 157:Generated_Source\PSoC5/cyfitter_cfg.c **** static void ClockSetup(void);
 158:Generated_Source\PSoC5/cyfitter_cfg.c **** static void ClockSetup(void)
 159:Generated_Source\PSoC5/cyfitter_cfg.c **** {
 160:Generated_Source\PSoC5/cyfitter_cfg.c **** 	uint32 timeout;
 161:Generated_Source\PSoC5/cyfitter_cfg.c **** 	uint8 pllLock;
 162:Generated_Source\PSoC5/cyfitter_cfg.c **** 
 163:Generated_Source\PSoC5/cyfitter_cfg.c **** 
 164:Generated_Source\PSoC5/cyfitter_cfg.c **** 	/* Configure ILO based on settings from Clock DWR */
 165:Generated_Source\PSoC5/cyfitter_cfg.c **** 	CY_SET_XTND_REG8((void CYFAR *)(CYREG_SLOWCLK_ILO_CR0), 0x02u);
 166:Generated_Source\PSoC5/cyfitter_cfg.c **** 	CY_SET_XTND_REG8((void CYFAR *)(CYREG_CLKDIST_CR), 0x08u);
 167:Generated_Source\PSoC5/cyfitter_cfg.c **** 
 168:Generated_Source\PSoC5/cyfitter_cfg.c **** 	/* Configure IMO based on settings from Clock DWR */
 169:Generated_Source\PSoC5/cyfitter_cfg.c **** 	CY_SET_XTND_REG8((void CYFAR *)(CYREG_FASTCLK_IMO_CR), 0x03u);
 170:Generated_Source\PSoC5/cyfitter_cfg.c **** 	CY_SET_XTND_REG8((void CYFAR *)(CYREG_IMO_TR1), (CY_GET_XTND_REG8((void CYFAR *)CYREG_FLSHID_CUST_
 171:Generated_Source\PSoC5/cyfitter_cfg.c **** 
 172:Generated_Source\PSoC5/cyfitter_cfg.c **** 	/* Configure PLL based on settings from Clock DWR */
 173:Generated_Source\PSoC5/cyfitter_cfg.c **** 	CY_SET_XTND_REG16((void CYFAR *)(CYREG_FASTCLK_PLL_P), 0x0008u);
 174:Generated_Source\PSoC5/cyfitter_cfg.c **** 	CY_SET_XTND_REG16((void CYFAR *)(CYREG_FASTCLK_PLL_CFG0), 0x1251u);
 175:Generated_Source\PSoC5/cyfitter_cfg.c **** 	/* Wait up to 250us for the PLL to lock */
 176:Generated_Source\PSoC5/cyfitter_cfg.c **** 	pllLock = 0u;
 177:Generated_Source\PSoC5/cyfitter_cfg.c **** 	for (timeout = 250u / 10u; (timeout > 0u) && (pllLock != 0x03u); timeout--)
 178:Generated_Source\PSoC5/cyfitter_cfg.c **** 	{ 
 179:Generated_Source\PSoC5/cyfitter_cfg.c **** 		pllLock = 0x03u & ((uint8)((uint8)pllLock << 1) | ((CY_GET_XTND_REG8((void CYFAR *)CYREG_FASTCLK_
 180:Generated_Source\PSoC5/cyfitter_cfg.c **** 		CyDelayCycles(10u * 48u); /* Delay 10us based on 48MHz clock */
 181:Generated_Source\PSoC5/cyfitter_cfg.c **** 	}
 182:Generated_Source\PSoC5/cyfitter_cfg.c **** 	/* If we ran out of time the PLL didn't lock so go to the error function */
 183:Generated_Source\PSoC5/cyfitter_cfg.c **** 	if (timeout == 0u)
ARM GAS  C:\Users\kelvi\AppData\Local\Temp\ccJ7QZVf.s 			page 5


 184:Generated_Source\PSoC5/cyfitter_cfg.c **** 	{
 185:Generated_Source\PSoC5/cyfitter_cfg.c **** 		CyClockStartupError(CYCLOCKSTART_PLL_ERROR);
 186:Generated_Source\PSoC5/cyfitter_cfg.c **** 	}
 187:Generated_Source\PSoC5/cyfitter_cfg.c **** 
 188:Generated_Source\PSoC5/cyfitter_cfg.c **** 	/* Configure Bus/Master Clock based on settings from Clock DWR */
 189:Generated_Source\PSoC5/cyfitter_cfg.c **** 	CY_SET_XTND_REG16((void CYFAR *)(CYREG_CLKDIST_MSTR0), 0x0100u);
 190:Generated_Source\PSoC5/cyfitter_cfg.c **** 	CY_SET_XTND_REG8((void CYFAR *)(CYREG_CLKDIST_MSTR0), 0x07u);
 191:Generated_Source\PSoC5/cyfitter_cfg.c **** 	CY_SET_XTND_REG8((void CYFAR *)(CYREG_CLKDIST_BCFG0), 0x00u);
 192:Generated_Source\PSoC5/cyfitter_cfg.c **** 	CY_SET_XTND_REG8((void CYFAR *)(CYREG_CLKDIST_BCFG2), 0x48u);
 193:Generated_Source\PSoC5/cyfitter_cfg.c **** 	CY_SET_XTND_REG8((void CYFAR *)(CYREG_CLKDIST_MSTR0), 0x00u);
 194:Generated_Source\PSoC5/cyfitter_cfg.c **** 	CY_SET_XTND_REG8((void CYFAR *)(CYREG_CLKDIST_LD), 0x02u);
 195:Generated_Source\PSoC5/cyfitter_cfg.c **** }
 196:Generated_Source\PSoC5/cyfitter_cfg.c **** 
 197:Generated_Source\PSoC5/cyfitter_cfg.c **** 
 198:Generated_Source\PSoC5/cyfitter_cfg.c **** /* Analog API Functions */
 199:Generated_Source\PSoC5/cyfitter_cfg.c **** 
 200:Generated_Source\PSoC5/cyfitter_cfg.c **** 
 201:Generated_Source\PSoC5/cyfitter_cfg.c **** /*******************************************************************************
 202:Generated_Source\PSoC5/cyfitter_cfg.c **** * Function Name: AnalogSetDefault
 203:Generated_Source\PSoC5/cyfitter_cfg.c **** ********************************************************************************
 204:Generated_Source\PSoC5/cyfitter_cfg.c **** *
 205:Generated_Source\PSoC5/cyfitter_cfg.c **** * Summary:
 206:Generated_Source\PSoC5/cyfitter_cfg.c **** *  Sets up the analog portions of the chip to default values based on chip
 207:Generated_Source\PSoC5/cyfitter_cfg.c **** *  configuration options from the project.
 208:Generated_Source\PSoC5/cyfitter_cfg.c **** *
 209:Generated_Source\PSoC5/cyfitter_cfg.c **** * Parameters:
 210:Generated_Source\PSoC5/cyfitter_cfg.c **** *  void
 211:Generated_Source\PSoC5/cyfitter_cfg.c **** *
 212:Generated_Source\PSoC5/cyfitter_cfg.c **** * Return:
 213:Generated_Source\PSoC5/cyfitter_cfg.c **** *  void
 214:Generated_Source\PSoC5/cyfitter_cfg.c **** *
 215:Generated_Source\PSoC5/cyfitter_cfg.c **** *******************************************************************************/
 216:Generated_Source\PSoC5/cyfitter_cfg.c **** static void AnalogSetDefault(void);
 217:Generated_Source\PSoC5/cyfitter_cfg.c **** static void AnalogSetDefault(void)
 218:Generated_Source\PSoC5/cyfitter_cfg.c **** {
  46              		.loc 1 218 0
  47              		.cfi_startproc
  48              		@ args = 0, pretend = 0, frame = 0
  49              		@ frame_needed = 0, uses_anonymous_args = 0
  50              		@ link register save eliminated.
 219:Generated_Source\PSoC5/cyfitter_cfg.c **** 	uint8 bg_xover_inl_trim = CY_GET_XTND_REG8((void CYFAR *)(CYREG_FLSHID_MFG_CFG_BG_XOVER_INL_TRIM +
  51              		.loc 1 219 0
  52 0000 064B     		ldr	r3, .L4
  53 0002 1B78     		ldrb	r3, [r3]	@ zero_extendqisi2
  54 0004 DBB2     		uxtb	r3, r3
  55              	.LVL1:
 220:Generated_Source\PSoC5/cyfitter_cfg.c **** 	CY_SET_XTND_REG8((void CYFAR *)(CYREG_BG_DFT0), (bg_xover_inl_trim & 0x07u));
  56              		.loc 1 220 0
  57 0006 03F00701 		and	r1, r3, #7
  58 000a 054A     		ldr	r2, .L4+4
  59 000c 1170     		strb	r1, [r2]
 221:Generated_Source\PSoC5/cyfitter_cfg.c **** 	CY_SET_XTND_REG8((void CYFAR *)(CYREG_BG_DFT1), ((bg_xover_inl_trim >> 4) & 0x0Fu));
  60              		.loc 1 221 0
  61 000e 1B09     		lsrs	r3, r3, #4
  62              	.LVL2:
  63 0010 0132     		adds	r2, r2, #1
  64 0012 1370     		strb	r3, [r2]
ARM GAS  C:\Users\kelvi\AppData\Local\Temp\ccJ7QZVf.s 			page 6


 222:Generated_Source\PSoC5/cyfitter_cfg.c **** 	CY_SET_XTND_REG8((void CYFAR *)CYREG_PUMP_CR0, 0x44u);
  65              		.loc 1 222 0
  66 0014 4422     		movs	r2, #68
  67 0016 034B     		ldr	r3, .L4+8
  68 0018 1A70     		strb	r2, [r3]
  69 001a 7047     		bx	lr
  70              	.L5:
  71              		.align	2
  72              	.L4:
  73 001c CF010049 		.word	1224737231
  74 0020 6E580040 		.word	1073764462
  75 0024 76580040 		.word	1073764470
  76              		.cfi_endproc
  77              	.LFE5:
  78              		.size	AnalogSetDefault, .-AnalogSetDefault
  79              		.section	.text.CYMEMZERO,"ax",%progbits
  80              		.align	2
  81              		.thumb
  82              		.thumb_func
  83              		.type	CYMEMZERO, %function
  84              	CYMEMZERO:
  85              	.LFB0:
  64:Generated_Source\PSoC5/cyfitter_cfg.c **** 	(void)memset(s, 0, n);
  86              		.loc 1 64 0
  87              		.cfi_startproc
  88              		@ args = 0, pretend = 0, frame = 0
  89              		@ frame_needed = 0, uses_anonymous_args = 0
  90              	.LVL3:
  91 0000 08B5     		push	{r3, lr}
  92              		.cfi_def_cfa_offset 8
  93              		.cfi_offset 3, -8
  94              		.cfi_offset 14, -4
  95 0002 0A46     		mov	r2, r1
  65:Generated_Source\PSoC5/cyfitter_cfg.c **** }
  96              		.loc 1 65 0
  97 0004 0021     		movs	r1, #0
  98              	.LVL4:
  99 0006 FFF7FEFF 		bl	memset
 100              	.LVL5:
 101 000a 08BD     		pop	{r3, pc}
 102              		.cfi_endproc
 103              	.LFE0:
 104              		.size	CYMEMZERO, .-CYMEMZERO
 105              		.section	.text.ClockSetup,"ax",%progbits
 106              		.align	2
 107              		.thumb
 108              		.thumb_func
 109              		.type	ClockSetup, %function
 110              	ClockSetup:
 111              	.LFB4:
 159:Generated_Source\PSoC5/cyfitter_cfg.c **** 	uint32 timeout;
 112              		.loc 1 159 0
 113              		.cfi_startproc
 114              		@ args = 0, pretend = 0, frame = 0
 115              		@ frame_needed = 0, uses_anonymous_args = 0
 116 0000 38B5     		push	{r3, r4, r5, lr}
 117              		.cfi_def_cfa_offset 16
ARM GAS  C:\Users\kelvi\AppData\Local\Temp\ccJ7QZVf.s 			page 7


 118              		.cfi_offset 3, -16
 119              		.cfi_offset 4, -12
 120              		.cfi_offset 5, -8
 121              		.cfi_offset 14, -4
 165:Generated_Source\PSoC5/cyfitter_cfg.c **** 	CY_SET_XTND_REG8((void CYFAR *)(CYREG_CLKDIST_CR), 0x08u);
 122              		.loc 1 165 0
 123 0002 0222     		movs	r2, #2
 124 0004 1E4B     		ldr	r3, .L14
 125 0006 1A70     		strb	r2, [r3]
 166:Generated_Source\PSoC5/cyfitter_cfg.c **** 
 126              		.loc 1 166 0
 127 0008 0822     		movs	r2, #8
 128 000a 4FF04023 		mov	r3, #1073758208
 129 000e 1A70     		strb	r2, [r3]
 169:Generated_Source\PSoC5/cyfitter_cfg.c **** 	CY_SET_XTND_REG8((void CYFAR *)(CYREG_IMO_TR1), (CY_GET_XTND_REG8((void CYFAR *)CYREG_FLSHID_CUST_
 130              		.loc 1 169 0
 131 0010 0321     		movs	r1, #3
 132 0012 03F50073 		add	r3, r3, #512
 133 0016 1970     		strb	r1, [r3]
 170:Generated_Source\PSoC5/cyfitter_cfg.c **** 
 134              		.loc 1 170 0
 135 0018 1A4B     		ldr	r3, .L14+4
 136 001a 1B78     		ldrb	r3, [r3]	@ zero_extendqisi2
 137 001c DBB2     		uxtb	r3, r3
 138 001e 1A49     		ldr	r1, .L14+8
 139 0020 0B70     		strb	r3, [r1]
 173:Generated_Source\PSoC5/cyfitter_cfg.c **** 	CY_SET_XTND_REG16((void CYFAR *)(CYREG_FASTCLK_PLL_CFG0), 0x1251u);
 140              		.loc 1 173 0
 141 0022 1A4B     		ldr	r3, .L14+12
 142 0024 1A80     		strh	r2, [r3]	@ movhi
 174:Generated_Source\PSoC5/cyfitter_cfg.c **** 	/* Wait up to 250us for the PLL to lock */
 143              		.loc 1 174 0
 144 0026 41F25122 		movw	r2, #4689
 145 002a 023B     		subs	r3, r3, #2
 146 002c 1A80     		strh	r2, [r3]	@ movhi
 147              	.LVL6:
 176:Generated_Source\PSoC5/cyfitter_cfg.c **** 	for (timeout = 250u / 10u; (timeout > 0u) && (pllLock != 0x03u); timeout--)
 148              		.loc 1 176 0
 149 002e 0024     		movs	r4, #0
 177:Generated_Source\PSoC5/cyfitter_cfg.c **** 	{ 
 150              		.loc 1 177 0
 151 0030 1925     		movs	r5, #25
 152 0032 0CE0     		b	.L9
 153              	.LVL7:
 154              	.L11:
 179:Generated_Source\PSoC5/cyfitter_cfg.c **** 		CyDelayCycles(10u * 48u); /* Delay 10us based on 48MHz clock */
 155              		.loc 1 179 0 discriminator 4
 156 0034 164B     		ldr	r3, .L14+16
 157 0036 1B78     		ldrb	r3, [r3]	@ zero_extendqisi2
 158 0038 03F00103 		and	r3, r3, #1
 159 003c 43EA4404 		orr	r4, r3, r4, lsl #1
 160              	.LVL8:
 161 0040 04F00304 		and	r4, r4, #3
 162              	.LVL9:
 180:Generated_Source\PSoC5/cyfitter_cfg.c **** 	}
 163              		.loc 1 180 0 discriminator 4
 164 0044 4FF4F070 		mov	r0, #480
ARM GAS  C:\Users\kelvi\AppData\Local\Temp\ccJ7QZVf.s 			page 8


 165 0048 FFF7FEFF 		bl	CyDelayCycles
 166              	.LVL10:
 177:Generated_Source\PSoC5/cyfitter_cfg.c **** 	{ 
 167              		.loc 1 177 0 discriminator 4
 168 004c 013D     		subs	r5, r5, #1
 169              	.LVL11:
 170              	.L9:
 177:Generated_Source\PSoC5/cyfitter_cfg.c **** 	{ 
 171              		.loc 1 177 0 is_stmt 0 discriminator 1
 172 004e 0DB1     		cbz	r5, .L10
 177:Generated_Source\PSoC5/cyfitter_cfg.c **** 	{ 
 173              		.loc 1 177 0 discriminator 3
 174 0050 032C     		cmp	r4, #3
 175 0052 EFD1     		bne	.L11
 176              	.L10:
 183:Generated_Source\PSoC5/cyfitter_cfg.c **** 	{
 177              		.loc 1 183 0 is_stmt 1
 178 0054 15B9     		cbnz	r5, .L12
 185:Generated_Source\PSoC5/cyfitter_cfg.c **** 	}
 179              		.loc 1 185 0
 180 0056 0320     		movs	r0, #3
 181 0058 FFF7FEFF 		bl	CyClockStartupError
 182              	.LVL12:
 183              	.L12:
 189:Generated_Source\PSoC5/cyfitter_cfg.c **** 	CY_SET_XTND_REG8((void CYFAR *)(CYREG_CLKDIST_MSTR0), 0x07u);
 184              		.loc 1 189 0
 185 005c 0D4B     		ldr	r3, .L14+20
 186 005e 4FF48072 		mov	r2, #256
 187 0062 1A80     		strh	r2, [r3]	@ movhi
 190:Generated_Source\PSoC5/cyfitter_cfg.c **** 	CY_SET_XTND_REG8((void CYFAR *)(CYREG_CLKDIST_BCFG0), 0x00u);
 188              		.loc 1 190 0
 189 0064 0722     		movs	r2, #7
 190 0066 1A70     		strb	r2, [r3]
 191:Generated_Source\PSoC5/cyfitter_cfg.c **** 	CY_SET_XTND_REG8((void CYFAR *)(CYREG_CLKDIST_BCFG2), 0x48u);
 191              		.loc 1 191 0
 192 0068 0022     		movs	r2, #0
 193 006a 0B49     		ldr	r1, .L14+24
 194 006c 0A70     		strb	r2, [r1]
 192:Generated_Source\PSoC5/cyfitter_cfg.c **** 	CY_SET_XTND_REG8((void CYFAR *)(CYREG_CLKDIST_MSTR0), 0x00u);
 195              		.loc 1 192 0
 196 006e 4820     		movs	r0, #72
 197 0070 0231     		adds	r1, r1, #2
 198 0072 0870     		strb	r0, [r1]
 193:Generated_Source\PSoC5/cyfitter_cfg.c **** 	CY_SET_XTND_REG8((void CYFAR *)(CYREG_CLKDIST_LD), 0x02u);
 199              		.loc 1 193 0
 200 0074 1A70     		strb	r2, [r3]
 194:Generated_Source\PSoC5/cyfitter_cfg.c **** }
 201              		.loc 1 194 0
 202 0076 0222     		movs	r2, #2
 203 0078 033B     		subs	r3, r3, #3
 204 007a 1A70     		strb	r2, [r3]
 205 007c 38BD     		pop	{r3, r4, r5, pc}
 206              	.LVL13:
 207              	.L15:
 208 007e 00BF     		.align	2
 209              	.L14:
 210 0080 00430040 		.word	1073758976
ARM GAS  C:\Users\kelvi\AppData\Local\Temp\ccJ7QZVf.s 			page 9


 211 0084 08010049 		.word	1224737032
 212 0088 A1460040 		.word	1073759905
 213 008c 22420040 		.word	1073758754
 214 0090 25420040 		.word	1073758757
 215 0094 04400040 		.word	1073758212
 216 0098 06400040 		.word	1073758214
 217              		.cfi_endproc
 218              	.LFE4:
 219              		.size	ClockSetup, .-ClockSetup
 220              		.section	.text.CYCONFIGCPY,"ax",%progbits
 221              		.align	2
 222              		.thumb
 223              		.thumb_func
 224              		.type	CYCONFIGCPY, %function
 225              	CYCONFIGCPY:
 226              	.LFB1:
  71:Generated_Source\PSoC5/cyfitter_cfg.c **** 	(void)memcpy(dest, src, n);
 227              		.loc 1 71 0
 228              		.cfi_startproc
 229              		@ args = 0, pretend = 0, frame = 0
 230              		@ frame_needed = 0, uses_anonymous_args = 0
 231              	.LVL14:
 232 0000 08B5     		push	{r3, lr}
 233              		.cfi_def_cfa_offset 8
 234              		.cfi_offset 3, -8
 235              		.cfi_offset 14, -4
  72:Generated_Source\PSoC5/cyfitter_cfg.c **** }
 236              		.loc 1 72 0
 237 0002 FFF7FEFF 		bl	memcpy
 238              	.LVL15:
 239 0006 08BD     		pop	{r3, pc}
 240              		.cfi_endproc
 241              	.LFE1:
 242              		.size	CYCONFIGCPY, .-CYCONFIGCPY
 243              		.section	.text.SetAnalogRoutingPumps,"ax",%progbits
 244              		.align	2
 245              		.global	SetAnalogRoutingPumps
 246              		.thumb
 247              		.thumb_func
 248              		.type	SetAnalogRoutingPumps, %function
 249              	SetAnalogRoutingPumps:
 250              	.LFB6:
 223:Generated_Source\PSoC5/cyfitter_cfg.c **** }
 224:Generated_Source\PSoC5/cyfitter_cfg.c **** 
 225:Generated_Source\PSoC5/cyfitter_cfg.c **** 
 226:Generated_Source\PSoC5/cyfitter_cfg.c **** /*******************************************************************************
 227:Generated_Source\PSoC5/cyfitter_cfg.c **** * Function Name: SetAnalogRoutingPumps
 228:Generated_Source\PSoC5/cyfitter_cfg.c **** ********************************************************************************
 229:Generated_Source\PSoC5/cyfitter_cfg.c **** *
 230:Generated_Source\PSoC5/cyfitter_cfg.c **** * Summary:
 231:Generated_Source\PSoC5/cyfitter_cfg.c **** * Enables or disables the analog pumps feeding analog routing switches.
 232:Generated_Source\PSoC5/cyfitter_cfg.c **** * Intended to be called at startup, based on the Vdda system configuration;
 233:Generated_Source\PSoC5/cyfitter_cfg.c **** * may be called during operation when the user informs us that the Vdda voltage
 234:Generated_Source\PSoC5/cyfitter_cfg.c **** * crossed the pump threshold.
 235:Generated_Source\PSoC5/cyfitter_cfg.c **** *
 236:Generated_Source\PSoC5/cyfitter_cfg.c **** * Parameters:
 237:Generated_Source\PSoC5/cyfitter_cfg.c **** *  enabled - 1 to enable the pumps, 0 to disable the pumps
ARM GAS  C:\Users\kelvi\AppData\Local\Temp\ccJ7QZVf.s 			page 10


 238:Generated_Source\PSoC5/cyfitter_cfg.c **** *
 239:Generated_Source\PSoC5/cyfitter_cfg.c **** * Return:
 240:Generated_Source\PSoC5/cyfitter_cfg.c **** *  void
 241:Generated_Source\PSoC5/cyfitter_cfg.c **** *
 242:Generated_Source\PSoC5/cyfitter_cfg.c **** *******************************************************************************/
 243:Generated_Source\PSoC5/cyfitter_cfg.c **** void SetAnalogRoutingPumps(uint8 enabled)
 244:Generated_Source\PSoC5/cyfitter_cfg.c **** {
 251              		.loc 1 244 0
 252              		.cfi_startproc
 253              		@ args = 0, pretend = 0, frame = 0
 254              		@ frame_needed = 0, uses_anonymous_args = 0
 255              		@ link register save eliminated.
 256              	.LVL16:
 245:Generated_Source\PSoC5/cyfitter_cfg.c **** 	uint8 regValue = CY_GET_XTND_REG8((void CYFAR *)CYREG_PUMP_CR0);
 257              		.loc 1 245 0
 258 0000 024A     		ldr	r2, .L19
 259 0002 1378     		ldrb	r3, [r2]	@ zero_extendqisi2
 260 0004 DBB2     		uxtb	r3, r3
 261              	.LVL17:
 246:Generated_Source\PSoC5/cyfitter_cfg.c **** 	if (enabled != 0u)
 247:Generated_Source\PSoC5/cyfitter_cfg.c **** 	{
 248:Generated_Source\PSoC5/cyfitter_cfg.c **** 		regValue |= 0x00u;
 249:Generated_Source\PSoC5/cyfitter_cfg.c **** 	}
 250:Generated_Source\PSoC5/cyfitter_cfg.c **** 	else
 251:Generated_Source\PSoC5/cyfitter_cfg.c **** 	{
 252:Generated_Source\PSoC5/cyfitter_cfg.c **** 		regValue &= (uint8)~0x00u;
 253:Generated_Source\PSoC5/cyfitter_cfg.c **** 	}
 254:Generated_Source\PSoC5/cyfitter_cfg.c **** 	CY_SET_XTND_REG8((void CYFAR *)CYREG_PUMP_CR0, regValue);
 262              		.loc 1 254 0
 263 0006 1370     		strb	r3, [r2]
 264 0008 7047     		bx	lr
 265              	.L20:
 266 000a 00BF     		.align	2
 267              	.L19:
 268 000c 76580040 		.word	1073764470
 269              		.cfi_endproc
 270              	.LFE6:
 271              		.size	SetAnalogRoutingPumps, .-SetAnalogRoutingPumps
 272              		.section	.text.cyfitter_cfg,"ax",%progbits
 273              		.align	2
 274              		.global	cyfitter_cfg
 275              		.thumb
 276              		.thumb_func
 277              		.type	cyfitter_cfg, %function
 278              	cyfitter_cfg:
 279              	.LFB7:
 255:Generated_Source\PSoC5/cyfitter_cfg.c **** }
 256:Generated_Source\PSoC5/cyfitter_cfg.c **** 
 257:Generated_Source\PSoC5/cyfitter_cfg.c **** #define CY_AMUX_UNUSED CYREG_BOOST_SR
 258:Generated_Source\PSoC5/cyfitter_cfg.c **** 
 259:Generated_Source\PSoC5/cyfitter_cfg.c **** 
 260:Generated_Source\PSoC5/cyfitter_cfg.c **** /*******************************************************************************
 261:Generated_Source\PSoC5/cyfitter_cfg.c **** * Function Name: cyfitter_cfg
 262:Generated_Source\PSoC5/cyfitter_cfg.c **** ********************************************************************************
 263:Generated_Source\PSoC5/cyfitter_cfg.c **** * Summary:
 264:Generated_Source\PSoC5/cyfitter_cfg.c **** *  This function is called by the start-up code for the selected device. It
 265:Generated_Source\PSoC5/cyfitter_cfg.c **** *  performs all of the necessary device configuration based on the design
ARM GAS  C:\Users\kelvi\AppData\Local\Temp\ccJ7QZVf.s 			page 11


 266:Generated_Source\PSoC5/cyfitter_cfg.c **** *  settings.  This includes settings from the Design Wide Resources (DWR) such
 267:Generated_Source\PSoC5/cyfitter_cfg.c **** *  as Clocks and Pins as well as any component configuration that is necessary.
 268:Generated_Source\PSoC5/cyfitter_cfg.c **** *
 269:Generated_Source\PSoC5/cyfitter_cfg.c **** * Parameters:  
 270:Generated_Source\PSoC5/cyfitter_cfg.c **** *   void
 271:Generated_Source\PSoC5/cyfitter_cfg.c **** *
 272:Generated_Source\PSoC5/cyfitter_cfg.c **** * Return:
 273:Generated_Source\PSoC5/cyfitter_cfg.c **** *   void
 274:Generated_Source\PSoC5/cyfitter_cfg.c **** *
 275:Generated_Source\PSoC5/cyfitter_cfg.c **** *******************************************************************************/
 276:Generated_Source\PSoC5/cyfitter_cfg.c **** 
 277:Generated_Source\PSoC5/cyfitter_cfg.c **** void cyfitter_cfg(void)
 278:Generated_Source\PSoC5/cyfitter_cfg.c **** {
 280              		.loc 1 278 0
 281              		.cfi_startproc
 282              		@ args = 0, pretend = 0, frame = 0
 283              		@ frame_needed = 0, uses_anonymous_args = 0
 284 0000 38B5     		push	{r3, r4, r5, lr}
 285              		.cfi_def_cfa_offset 16
 286              		.cfi_offset 3, -16
 287              		.cfi_offset 4, -12
 288              		.cfi_offset 5, -8
 289              		.cfi_offset 14, -4
 279:Generated_Source\PSoC5/cyfitter_cfg.c **** #ifdef CYGlobalIntDisable
 280:Generated_Source\PSoC5/cyfitter_cfg.c **** 	/* Disable interrupts by default. Let user enable if/when they want. */
 281:Generated_Source\PSoC5/cyfitter_cfg.c **** 	CYGlobalIntDisable
 290              		.loc 1 281 0
 291              	@ 281 "Generated_Source\PSoC5\cyfitter_cfg.c" 1
 292 0002 72B6     		CPSID   i
 293              	@ 0 "" 2
 282:Generated_Source\PSoC5/cyfitter_cfg.c **** #endif
 283:Generated_Source\PSoC5/cyfitter_cfg.c **** 
 284:Generated_Source\PSoC5/cyfitter_cfg.c **** 	/* Enable/Disable Debug functionality based on settings from System DWR */
 285:Generated_Source\PSoC5/cyfitter_cfg.c **** 	CY_SET_XTND_REG8((void CYFAR *)CYREG_MLOGIC_DEBUG, (CY_GET_XTND_REG8((void CYFAR *)CYREG_MLOGIC_DE
 294              		.loc 1 285 0
 295              		.thumb
 296 0004 244A     		ldr	r2, .L25
 297 0006 1378     		ldrb	r3, [r2]	@ zero_extendqisi2
 298 0008 43F00403 		orr	r3, r3, #4
 299 000c 1370     		strb	r3, [r2]
 300              	.LVL18:
 301              	.LBB2:
 286:Generated_Source\PSoC5/cyfitter_cfg.c **** 
 287:Generated_Source\PSoC5/cyfitter_cfg.c **** 	{
 288:Generated_Source\PSoC5/cyfitter_cfg.c **** 
 289:Generated_Source\PSoC5/cyfitter_cfg.c **** 		CYPACKED typedef struct {
 290:Generated_Source\PSoC5/cyfitter_cfg.c **** 			void CYFAR *address;
 291:Generated_Source\PSoC5/cyfitter_cfg.c **** 			uint16 size;
 292:Generated_Source\PSoC5/cyfitter_cfg.c **** 		} CYPACKED_ATTR cfg_memset_t;
 293:Generated_Source\PSoC5/cyfitter_cfg.c **** 
 294:Generated_Source\PSoC5/cyfitter_cfg.c **** 		static const cfg_memset_t CYCODE cfg_memset_list [] = {
 295:Generated_Source\PSoC5/cyfitter_cfg.c **** 			/* address, size */
 296:Generated_Source\PSoC5/cyfitter_cfg.c **** 			{(void CYFAR *)(CYREG_PRT0_DR), 16u},
 297:Generated_Source\PSoC5/cyfitter_cfg.c **** 			{(void CYFAR *)(CYREG_PRT2_DR), 80u},
 298:Generated_Source\PSoC5/cyfitter_cfg.c **** 			{(void CYFAR *)(CYREG_PRT12_DR), 16u},
 299:Generated_Source\PSoC5/cyfitter_cfg.c **** 			{(void CYFAR *)(CYREG_PRT15_DR), 16u},
 300:Generated_Source\PSoC5/cyfitter_cfg.c **** 			{(void CYFAR *)(CYDEV_UCFG_B0_P0_U0_BASE), 4096u},
ARM GAS  C:\Users\kelvi\AppData\Local\Temp\ccJ7QZVf.s 			page 12


 301:Generated_Source\PSoC5/cyfitter_cfg.c **** 			{(void CYFAR *)(CYDEV_UCFG_B1_P2_U0_BASE), 2048u},
 302:Generated_Source\PSoC5/cyfitter_cfg.c **** 			{(void CYFAR *)(CYDEV_UCFG_DSI0_BASE), 2560u},
 303:Generated_Source\PSoC5/cyfitter_cfg.c **** 			{(void CYFAR *)(CYDEV_UCFG_DSI12_BASE), 512u},
 304:Generated_Source\PSoC5/cyfitter_cfg.c **** 			{(void CYFAR *)(CYREG_BCTL0_MDCLK_EN), 32u},
 305:Generated_Source\PSoC5/cyfitter_cfg.c **** 		};
 306:Generated_Source\PSoC5/cyfitter_cfg.c **** 
 307:Generated_Source\PSoC5/cyfitter_cfg.c **** 		uint8 CYDATA i;
 308:Generated_Source\PSoC5/cyfitter_cfg.c **** 
 309:Generated_Source\PSoC5/cyfitter_cfg.c **** 		/* Zero out critical memory blocks before beginning configuration */
 310:Generated_Source\PSoC5/cyfitter_cfg.c **** 		for (i = 0u; i < (sizeof(cfg_memset_list)/sizeof(cfg_memset_list[0])); i++)
 302              		.loc 1 310 0
 303 000e 0024     		movs	r4, #0
 304 0010 0CE0     		b	.L22
 305              	.LVL19:
 306              	.L23:
 307              	.LBB3:
 311:Generated_Source\PSoC5/cyfitter_cfg.c **** 		{
 312:Generated_Source\PSoC5/cyfitter_cfg.c **** 			const cfg_memset_t CYCODE * CYDATA ms = &cfg_memset_list[i];
 313:Generated_Source\PSoC5/cyfitter_cfg.c **** 			CYMEMZERO(ms->address, (size_t)(uint32)(ms->size));
 308              		.loc 1 313 0 discriminator 3
 309 0012 2249     		ldr	r1, .L25+4
 310 0014 6300     		lsls	r3, r4, #1
 311 0016 1A19     		adds	r2, r3, r4
 312 0018 5200     		lsls	r2, r2, #1
 313 001a 0A44     		add	r2, r2, r1
 314 001c 2344     		add	r3, r3, r4
 315 001e 5B00     		lsls	r3, r3, #1
 316 0020 C858     		ldr	r0, [r1, r3]	@ unaligned
 317 0022 9188     		ldrh	r1, [r2, #4]
 318 0024 FFF7FEFF 		bl	CYMEMZERO
 319              	.LVL20:
 320              	.LBE3:
 310:Generated_Source\PSoC5/cyfitter_cfg.c **** 		{
 321              		.loc 1 310 0 discriminator 3
 322 0028 0134     		adds	r4, r4, #1
 323              	.LVL21:
 324 002a E4B2     		uxtb	r4, r4
 325              	.LVL22:
 326              	.L22:
 310:Generated_Source\PSoC5/cyfitter_cfg.c **** 		{
 327              		.loc 1 310 0 is_stmt 0 discriminator 1
 328 002c 082C     		cmp	r4, #8
 329 002e F0D9     		bls	.L23
 314:Generated_Source\PSoC5/cyfitter_cfg.c **** 		}
 315:Generated_Source\PSoC5/cyfitter_cfg.c **** 
 316:Generated_Source\PSoC5/cyfitter_cfg.c **** 		/* Enable digital routing */
 317:Generated_Source\PSoC5/cyfitter_cfg.c **** 		CY_SET_XTND_REG8((void CYFAR *)CYREG_BCTL0_BANK_CTL, CY_GET_XTND_REG8((void CYFAR *)CYREG_BCTL0_B
 330              		.loc 1 317 0 is_stmt 1
 331 0030 1B4A     		ldr	r2, .L25+8
 332 0032 1378     		ldrb	r3, [r2]	@ zero_extendqisi2
 333 0034 43F00203 		orr	r3, r3, #2
 334 0038 1370     		strb	r3, [r2]
 318:Generated_Source\PSoC5/cyfitter_cfg.c **** 		CY_SET_XTND_REG8((void CYFAR *)CYREG_BCTL1_BANK_CTL, CY_GET_XTND_REG8((void CYFAR *)CYREG_BCTL1_B
 335              		.loc 1 318 0
 336 003a 1032     		adds	r2, r2, #16
 337 003c 1378     		ldrb	r3, [r2]	@ zero_extendqisi2
 338 003e 43F00203 		orr	r3, r3, #2
ARM GAS  C:\Users\kelvi\AppData\Local\Temp\ccJ7QZVf.s 			page 13


 339 0042 1370     		strb	r3, [r2]
 319:Generated_Source\PSoC5/cyfitter_cfg.c **** 
 320:Generated_Source\PSoC5/cyfitter_cfg.c **** 		/* Enable UDB array */
 321:Generated_Source\PSoC5/cyfitter_cfg.c **** 		CY_SET_XTND_REG8((void CYFAR *)CYREG_PM_ACT_CFG0, CY_GET_XTND_REG8((void CYFAR *)CYREG_PM_ACT_CFG
 340              		.loc 1 321 0
 341 0044 174C     		ldr	r4, .L25+12
 342              	.LVL23:
 343 0046 2378     		ldrb	r3, [r4]	@ zero_extendqisi2
 344 0048 43F04003 		orr	r3, r3, #64
 345 004c 2370     		strb	r3, [r4]
 322:Generated_Source\PSoC5/cyfitter_cfg.c **** 		CY_SET_XTND_REG8((void CYFAR *)CYREG_PM_AVAIL_CR2, CY_GET_XTND_REG8((void CYFAR *)CYREG_PM_AVAIL_
 346              		.loc 1 322 0
 347 004e A2F58632 		sub	r2, r2, #68608
 348 0052 513A     		subs	r2, r2, #81
 349 0054 1378     		ldrb	r3, [r2]	@ zero_extendqisi2
 350 0056 43F01003 		orr	r3, r3, #16
 351 005a 1370     		strb	r3, [r2]
 352              	.LBE2:
 323:Generated_Source\PSoC5/cyfitter_cfg.c **** 	}
 324:Generated_Source\PSoC5/cyfitter_cfg.c **** 
 325:Generated_Source\PSoC5/cyfitter_cfg.c **** 
 326:Generated_Source\PSoC5/cyfitter_cfg.c **** 	/* Perform second pass device configuration. These items must be configured in specific order afte
 327:Generated_Source\PSoC5/cyfitter_cfg.c **** 	CYCONFIGCPY((void CYFAR *)(CYREG_PRT1_DM0), (const void CYFAR *)(BS_IOPINS0_1_VAL), 8u);
 353              		.loc 1 327 0
 354 005c 1248     		ldr	r0, .L25+16
 355 005e 4FF09041 		mov	r1, #1207959552
 356 0062 0822     		movs	r2, #8
 357 0064 FFF7FEFF 		bl	CYCONFIGCPY
 358              	.LVL24:
 328:Generated_Source\PSoC5/cyfitter_cfg.c **** 	/* Switch Boost to the precision bandgap reference from its internal reference */
 329:Generated_Source\PSoC5/cyfitter_cfg.c **** 	CY_SET_REG8((void CYXDATA *)CYREG_BOOST_CR2, (CY_GET_REG8((void CYXDATA *)CYREG_BOOST_CR2) | 0x08u
 359              		.loc 1 329 0
 360 0068 104A     		ldr	r2, .L25+20
 361 006a 1378     		ldrb	r3, [r2]	@ zero_extendqisi2
 362 006c 43F00803 		orr	r3, r3, #8
 363 0070 1370     		strb	r3, [r2]
 330:Generated_Source\PSoC5/cyfitter_cfg.c **** 
 331:Generated_Source\PSoC5/cyfitter_cfg.c **** 	/* Set Flash Cycles based on max possible frequency in case a glitch occurs during ClockSetup(). *
 332:Generated_Source\PSoC5/cyfitter_cfg.c **** 	CY_SET_XTND_REG8((void CYFAR *)(CYREG_CACHE_CC_CTL), (((CYDEV_INSTRUCT_CACHE_ENABLED) != 0) ? 0x61
 364              		.loc 1 332 0
 365 0072 0F4D     		ldr	r5, .L25+24
 366 0074 6123     		movs	r3, #97
 367 0076 2B70     		strb	r3, [r5]
 333:Generated_Source\PSoC5/cyfitter_cfg.c **** 	/* Setup clocks based on selections from Clock DWR */
 334:Generated_Source\PSoC5/cyfitter_cfg.c **** 	ClockSetup();
 368              		.loc 1 334 0
 369 0078 FFF7FEFF 		bl	ClockSetup
 370              	.LVL25:
 335:Generated_Source\PSoC5/cyfitter_cfg.c **** 	/* Set Flash Cycles based on newly configured 24.00MHz Bus Clock. */
 336:Generated_Source\PSoC5/cyfitter_cfg.c **** 	CY_SET_XTND_REG8((void CYFAR *)(CYREG_CACHE_CC_CTL), (((CYDEV_INSTRUCT_CACHE_ENABLED) != 0) ? 0x81
 371              		.loc 1 336 0
 372 007c 8123     		movs	r3, #129
 373 007e 2B70     		strb	r3, [r5]
 337:Generated_Source\PSoC5/cyfitter_cfg.c **** 	CY_SET_XTND_REG8((void CYFAR *)(CYREG_PANTHER_WAITPIPE), 0x01u);
 374              		.loc 1 337 0
 375 0080 0122     		movs	r2, #1
 376 0082 0C4B     		ldr	r3, .L25+28
ARM GAS  C:\Users\kelvi\AppData\Local\Temp\ccJ7QZVf.s 			page 14


 377 0084 1A70     		strb	r2, [r3]
 338:Generated_Source\PSoC5/cyfitter_cfg.c **** 
 339:Generated_Source\PSoC5/cyfitter_cfg.c **** 	/* Perform basic analog initialization to defaults */
 340:Generated_Source\PSoC5/cyfitter_cfg.c **** 	AnalogSetDefault();
 378              		.loc 1 340 0
 379 0086 FFF7FEFF 		bl	AnalogSetDefault
 380              	.LVL26:
 341:Generated_Source\PSoC5/cyfitter_cfg.c **** 
 342:Generated_Source\PSoC5/cyfitter_cfg.c **** 	/* Configure alternate active mode */
 343:Generated_Source\PSoC5/cyfitter_cfg.c **** 	CYCONFIGCPY((void CYFAR *)CYDEV_PM_STBY_BASE, (const void CYFAR *)CYDEV_PM_ACT_BASE, 14u);
 381              		.loc 1 343 0
 382 008a 0B48     		ldr	r0, .L25+32
 383 008c 2146     		mov	r1, r4
 384 008e 0E22     		movs	r2, #14
 385 0090 FFF7FEFF 		bl	CYCONFIGCPY
 386              	.LVL27:
 387 0094 38BD     		pop	{r3, r4, r5, pc}
 388              	.L26:
 389 0096 00BF     		.align	2
 390              	.L25:
 391 0098 E8460040 		.word	1073759976
 392 009c 00000000 		.word	.LANCHOR0
 393 00a0 03500140 		.word	1073827843
 394 00a4 A0430040 		.word	1073759136
 395 00a8 12510040 		.word	1073762578
 396 00ac 22430040 		.word	1073759010
 397 00b0 00480040 		.word	1073760256
 398 00b4 04000840 		.word	1074266116
 399 00b8 B0430040 		.word	1073759152
 400              		.cfi_endproc
 401              	.LFE7:
 402              		.size	cyfitter_cfg, .-cyfitter_cfg
 403              		.section	.rodata
 404              		.align	2
 405              		.set	.LANCHOR0,. + 0
 406              		.type	cfg_memset_list.4859, %object
 407              		.size	cfg_memset_list.4859, 54
 408              	cfg_memset_list.4859:
 409 0000 00510040 		.word	1073762560
 410 0004 1000     		.short	16
 411 0006 20510040 		.4byte	1073762592
 412 000a 5000     		.short	80
 413 000c C0510040 		.word	1073762752
 414 0010 1000     		.short	16
 415 0012 F0510040 		.4byte	1073762800
 416 0016 1000     		.short	16
 417 0018 00000140 		.word	1073807360
 418 001c 0010     		.short	4096
 419 001e 00140140 		.4byte	1073812480
 420 0022 0008     		.short	2048
 421 0024 00400140 		.word	1073823744
 422 0028 000A     		.short	2560
 423 002a 004C0140 		.4byte	1073826816
 424 002e 0002     		.short	512
 425 0030 00500140 		.word	1073827840
 426 0034 2000     		.short	32
 427 0036 0000     		.text
ARM GAS  C:\Users\kelvi\AppData\Local\Temp\ccJ7QZVf.s 			page 15


 428              	.Letext0:
 429              		.file 2 "c:\\program files (x86)\\cypress\\psoc creator\\4.0\\psoc creator\\import\\gnu\\arm\\4.9.
 430              		.file 3 "Generated_Source\\PSoC5\\cytypes.h"
 431              		.file 4 "Generated_Source\\PSoC5\\CyLib.h"
 432              		.section	.debug_info,"",%progbits
 433              	.Ldebug_info0:
 434 0000 AC030000 		.4byte	0x3ac
 435 0004 0400     		.2byte	0x4
 436 0006 00000000 		.4byte	.Ldebug_abbrev0
 437 000a 04       		.byte	0x4
 438 000b 01       		.uleb128 0x1
 439 000c 6D010000 		.4byte	.LASF39
 440 0010 01       		.byte	0x1
 441 0011 4B020000 		.4byte	.LASF40
 442 0015 AB000000 		.4byte	.LASF41
 443 0019 00000000 		.4byte	.Ldebug_ranges0+0
 444 001d 00000000 		.4byte	0
 445 0021 00000000 		.4byte	.Ldebug_line0
 446 0025 02       		.uleb128 0x2
 447 0026 04       		.byte	0x4
 448 0027 05       		.byte	0x5
 449 0028 696E7400 		.ascii	"int\000"
 450 002c 03       		.uleb128 0x3
 451 002d 14000000 		.4byte	.LASF11
 452 0031 02       		.byte	0x2
 453 0032 D4       		.byte	0xd4
 454 0033 37000000 		.4byte	0x37
 455 0037 04       		.uleb128 0x4
 456 0038 04       		.byte	0x4
 457 0039 07       		.byte	0x7
 458 003a FB010000 		.4byte	.LASF0
 459 003e 04       		.uleb128 0x4
 460 003f 01       		.byte	0x1
 461 0040 06       		.byte	0x6
 462 0041 AA020000 		.4byte	.LASF1
 463 0045 04       		.uleb128 0x4
 464 0046 01       		.byte	0x1
 465 0047 08       		.byte	0x8
 466 0048 2C010000 		.4byte	.LASF2
 467 004c 04       		.uleb128 0x4
 468 004d 02       		.byte	0x2
 469 004e 05       		.byte	0x5
 470 004f 78020000 		.4byte	.LASF3
 471 0053 04       		.uleb128 0x4
 472 0054 02       		.byte	0x2
 473 0055 07       		.byte	0x7
 474 0056 4F000000 		.4byte	.LASF4
 475 005a 04       		.uleb128 0x4
 476 005b 04       		.byte	0x4
 477 005c 05       		.byte	0x5
 478 005d 8A020000 		.4byte	.LASF5
 479 0061 04       		.uleb128 0x4
 480 0062 04       		.byte	0x4
 481 0063 07       		.byte	0x7
 482 0064 93000000 		.4byte	.LASF6
 483 0068 04       		.uleb128 0x4
 484 0069 08       		.byte	0x8
ARM GAS  C:\Users\kelvi\AppData\Local\Temp\ccJ7QZVf.s 			page 16


 485 006a 05       		.byte	0x5
 486 006b 3D020000 		.4byte	.LASF7
 487 006f 04       		.uleb128 0x4
 488 0070 08       		.byte	0x8
 489 0071 07       		.byte	0x7
 490 0072 10020000 		.4byte	.LASF8
 491 0076 04       		.uleb128 0x4
 492 0077 04       		.byte	0x4
 493 0078 07       		.byte	0x7
 494 0079 34020000 		.4byte	.LASF9
 495 007d 05       		.uleb128 0x5
 496 007e 04       		.byte	0x4
 497 007f 04       		.uleb128 0x4
 498 0080 01       		.byte	0x1
 499 0081 08       		.byte	0x8
 500 0082 93020000 		.4byte	.LASF10
 501 0086 06       		.uleb128 0x6
 502 0087 A5000000 		.4byte	.LASF12
 503 008b 03       		.byte	0x3
 504 008c 9201     		.2byte	0x192
 505 008e 45000000 		.4byte	0x45
 506 0092 06       		.uleb128 0x6
 507 0093 55010000 		.4byte	.LASF13
 508 0097 03       		.byte	0x3
 509 0098 9301     		.2byte	0x193
 510 009a 53000000 		.4byte	0x53
 511 009e 06       		.uleb128 0x6
 512 009f 66010000 		.4byte	.LASF14
 513 00a3 03       		.byte	0x3
 514 00a4 9401     		.2byte	0x194
 515 00a6 61000000 		.4byte	0x61
 516 00aa 04       		.uleb128 0x4
 517 00ab 04       		.byte	0x4
 518 00ac 04       		.byte	0x4
 519 00ad 6A000000 		.4byte	.LASF15
 520 00b1 04       		.uleb128 0x4
 521 00b2 08       		.byte	0x8
 522 00b3 04       		.byte	0x4
 523 00b4 41010000 		.4byte	.LASF16
 524 00b8 06       		.uleb128 0x6
 525 00b9 8E000000 		.4byte	.LASF17
 526 00bd 03       		.byte	0x3
 527 00be 3C02     		.2byte	0x23c
 528 00c0 C4000000 		.4byte	0xc4
 529 00c4 07       		.uleb128 0x7
 530 00c5 86000000 		.4byte	0x86
 531 00c9 06       		.uleb128 0x6
 532 00ca 00000000 		.4byte	.LASF18
 533 00ce 03       		.byte	0x3
 534 00cf 3D02     		.2byte	0x23d
 535 00d1 D5000000 		.4byte	0xd5
 536 00d5 07       		.uleb128 0x7
 537 00d6 92000000 		.4byte	0x92
 538 00da 08       		.uleb128 0x8
 539 00db 70000000 		.4byte	.LASF19
 540 00df 01       		.byte	0x1
 541 00e0 6F       		.byte	0x6f
ARM GAS  C:\Users\kelvi\AppData\Local\Temp\ccJ7QZVf.s 			page 17


 542 00e1 00000000 		.4byte	.LFB3
 543 00e5 02000000 		.4byte	.LFE3-.LFB3
 544 00e9 01       		.uleb128 0x1
 545 00ea 9C       		.byte	0x9c
 546 00eb FD000000 		.4byte	0xfd
 547 00ef 09       		.uleb128 0x9
 548 00f0 5C010000 		.4byte	.LASF22
 549 00f4 01       		.byte	0x1
 550 00f5 6F       		.byte	0x6f
 551 00f6 86000000 		.4byte	0x86
 552 00fa 01       		.uleb128 0x1
 553 00fb 50       		.byte	0x50
 554 00fc 00       		.byte	0
 555 00fd 08       		.uleb128 0x8
 556 00fe 1B000000 		.4byte	.LASF20
 557 0102 01       		.byte	0x1
 558 0103 D9       		.byte	0xd9
 559 0104 00000000 		.4byte	.LFB5
 560 0108 28000000 		.4byte	.LFE5-.LFB5
 561 010c 01       		.uleb128 0x1
 562 010d 9C       		.byte	0x9c
 563 010e 22010000 		.4byte	0x122
 564 0112 0A       		.uleb128 0xa
 565 0113 98020000 		.4byte	.LASF24
 566 0117 01       		.byte	0x1
 567 0118 DB       		.byte	0xdb
 568 0119 86000000 		.4byte	0x86
 569 011d 00000000 		.4byte	.LLST0
 570 0121 00       		.byte	0
 571 0122 08       		.uleb128 0x8
 572 0123 0C010000 		.4byte	.LASF21
 573 0127 01       		.byte	0x1
 574 0128 3F       		.byte	0x3f
 575 0129 00000000 		.4byte	.LFB0
 576 012d 0C000000 		.4byte	.LFE0-.LFB0
 577 0131 01       		.uleb128 0x1
 578 0132 9C       		.byte	0x9c
 579 0133 6F010000 		.4byte	0x16f
 580 0137 0B       		.uleb128 0xb
 581 0138 7300     		.ascii	"s\000"
 582 013a 01       		.byte	0x1
 583 013b 3F       		.byte	0x3f
 584 013c 7D000000 		.4byte	0x7d
 585 0140 13000000 		.4byte	.LLST1
 586 0144 0B       		.uleb128 0xb
 587 0145 6E00     		.ascii	"n\000"
 588 0147 01       		.byte	0x1
 589 0148 3F       		.byte	0x3f
 590 0149 2C000000 		.4byte	0x2c
 591 014d 34000000 		.4byte	.LLST2
 592 0151 0C       		.uleb128 0xc
 593 0152 0A000000 		.4byte	.LVL5
 594 0156 68030000 		.4byte	0x368
 595 015a 0D       		.uleb128 0xd
 596 015b 01       		.uleb128 0x1
 597 015c 52       		.byte	0x52
 598 015d 03       		.uleb128 0x3
ARM GAS  C:\Users\kelvi\AppData\Local\Temp\ccJ7QZVf.s 			page 18


 599 015e F3       		.byte	0xf3
 600 015f 01       		.uleb128 0x1
 601 0160 51       		.byte	0x51
 602 0161 0D       		.uleb128 0xd
 603 0162 01       		.uleb128 0x1
 604 0163 51       		.byte	0x51
 605 0164 01       		.uleb128 0x1
 606 0165 30       		.byte	0x30
 607 0166 0D       		.uleb128 0xd
 608 0167 01       		.uleb128 0x1
 609 0168 50       		.byte	0x50
 610 0169 03       		.uleb128 0x3
 611 016a F3       		.byte	0xf3
 612 016b 01       		.uleb128 0x1
 613 016c 50       		.byte	0x50
 614 016d 00       		.byte	0
 615 016e 00       		.byte	0
 616 016f 08       		.uleb128 0x8
 617 0170 44000000 		.4byte	.LASF23
 618 0174 01       		.byte	0x1
 619 0175 9E       		.byte	0x9e
 620 0176 00000000 		.4byte	.LFB4
 621 017a 9C000000 		.4byte	.LFE4-.LFB4
 622 017e 01       		.uleb128 0x1
 623 017f 9C       		.byte	0x9c
 624 0180 C7010000 		.4byte	0x1c7
 625 0184 0A       		.uleb128 0xa
 626 0185 2C000000 		.4byte	.LASF25
 627 0189 01       		.byte	0x1
 628 018a A0       		.byte	0xa0
 629 018b 9E000000 		.4byte	0x9e
 630 018f 60000000 		.4byte	.LLST3
 631 0193 0A       		.uleb128 0xa
 632 0194 62000000 		.4byte	.LASF26
 633 0198 01       		.byte	0x1
 634 0199 A1       		.byte	0xa1
 635 019a 86000000 		.4byte	0x86
 636 019e 7F000000 		.4byte	.LLST4
 637 01a2 0E       		.uleb128 0xe
 638 01a3 4C000000 		.4byte	.LVL10
 639 01a7 85030000 		.4byte	0x385
 640 01ab B7010000 		.4byte	0x1b7
 641 01af 0D       		.uleb128 0xd
 642 01b0 01       		.uleb128 0x1
 643 01b1 50       		.byte	0x50
 644 01b2 03       		.uleb128 0x3
 645 01b3 0A       		.byte	0xa
 646 01b4 E001     		.2byte	0x1e0
 647 01b6 00       		.byte	0
 648 01b7 0C       		.uleb128 0xc
 649 01b8 5C000000 		.4byte	.LVL12
 650 01bc DA000000 		.4byte	0xda
 651 01c0 0D       		.uleb128 0xd
 652 01c1 01       		.uleb128 0x1
 653 01c2 50       		.byte	0x50
 654 01c3 01       		.uleb128 0x1
 655 01c4 33       		.byte	0x33
ARM GAS  C:\Users\kelvi\AppData\Local\Temp\ccJ7QZVf.s 			page 19


 656 01c5 00       		.byte	0
 657 01c6 00       		.byte	0
 658 01c7 08       		.uleb128 0x8
 659 01c8 BF020000 		.4byte	.LASF27
 660 01cc 01       		.byte	0x1
 661 01cd 46       		.byte	0x46
 662 01ce 00000000 		.4byte	.LFB1
 663 01d2 08000000 		.4byte	.LFE1-.LFB1
 664 01d6 01       		.uleb128 0x1
 665 01d7 9C       		.byte	0x9c
 666 01d8 27020000 		.4byte	0x227
 667 01dc 0F       		.uleb128 0xf
 668 01dd 84000000 		.4byte	.LASF28
 669 01e1 01       		.byte	0x1
 670 01e2 46       		.byte	0x46
 671 01e3 7D000000 		.4byte	0x7d
 672 01e7 A9000000 		.4byte	.LLST5
 673 01eb 0B       		.uleb128 0xb
 674 01ec 73726300 		.ascii	"src\000"
 675 01f0 01       		.byte	0x1
 676 01f1 46       		.byte	0x46
 677 01f2 27020000 		.4byte	0x227
 678 01f6 CA000000 		.4byte	.LLST6
 679 01fa 0B       		.uleb128 0xb
 680 01fb 6E00     		.ascii	"n\000"
 681 01fd 01       		.byte	0x1
 682 01fe 46       		.byte	0x46
 683 01ff 2C000000 		.4byte	0x2c
 684 0203 EB000000 		.4byte	.LLST7
 685 0207 0C       		.uleb128 0xc
 686 0208 06000000 		.4byte	.LVL15
 687 020c 96030000 		.4byte	0x396
 688 0210 0D       		.uleb128 0xd
 689 0211 01       		.uleb128 0x1
 690 0212 52       		.byte	0x52
 691 0213 03       		.uleb128 0x3
 692 0214 F3       		.byte	0xf3
 693 0215 01       		.uleb128 0x1
 694 0216 52       		.byte	0x52
 695 0217 0D       		.uleb128 0xd
 696 0218 01       		.uleb128 0x1
 697 0219 51       		.byte	0x51
 698 021a 03       		.uleb128 0x3
 699 021b F3       		.byte	0xf3
 700 021c 01       		.uleb128 0x1
 701 021d 51       		.byte	0x51
 702 021e 0D       		.uleb128 0xd
 703 021f 01       		.uleb128 0x1
 704 0220 50       		.byte	0x50
 705 0221 03       		.uleb128 0x3
 706 0222 F3       		.byte	0xf3
 707 0223 01       		.uleb128 0x1
 708 0224 50       		.byte	0x50
 709 0225 00       		.byte	0
 710 0226 00       		.byte	0
 711 0227 10       		.uleb128 0x10
 712 0228 04       		.byte	0x4
ARM GAS  C:\Users\kelvi\AppData\Local\Temp\ccJ7QZVf.s 			page 20


 713 0229 2D020000 		.4byte	0x22d
 714 022d 11       		.uleb128 0x11
 715 022e 12       		.uleb128 0x12
 716 022f 16010000 		.4byte	.LASF31
 717 0233 01       		.byte	0x1
 718 0234 F3       		.byte	0xf3
 719 0235 00000000 		.4byte	.LFB6
 720 0239 10000000 		.4byte	.LFE6-.LFB6
 721 023d 01       		.uleb128 0x1
 722 023e 9C       		.byte	0x9c
 723 023f 5E020000 		.4byte	0x25e
 724 0243 09       		.uleb128 0x9
 725 0244 82020000 		.4byte	.LASF29
 726 0248 01       		.byte	0x1
 727 0249 F3       		.byte	0xf3
 728 024a 86000000 		.4byte	0x86
 729 024e 01       		.uleb128 0x1
 730 024f 50       		.byte	0x50
 731 0250 13       		.uleb128 0x13
 732 0251 B6020000 		.4byte	.LASF30
 733 0255 01       		.byte	0x1
 734 0256 F5       		.byte	0xf5
 735 0257 86000000 		.4byte	0x86
 736 025b 01       		.uleb128 0x1
 737 025c 53       		.byte	0x53
 738 025d 00       		.byte	0
 739 025e 14       		.uleb128 0x14
 740 025f 48010000 		.4byte	.LASF32
 741 0263 01       		.byte	0x1
 742 0264 1501     		.2byte	0x115
 743 0266 00000000 		.4byte	.LFB7
 744 026a BC000000 		.4byte	.LFE7-.LFB7
 745 026e 01       		.uleb128 0x1
 746 026f 9C       		.byte	0x9c
 747 0270 68030000 		.4byte	0x368
 748 0274 15       		.uleb128 0x15
 749 0275 0E000000 		.4byte	.LBB2
 750 0279 4E000000 		.4byte	.LBE2-.LBB2
 751 027d 14030000 		.4byte	0x314
 752 0281 16       		.uleb128 0x16
 753 0282 06       		.byte	0x6
 754 0283 01       		.byte	0x1
 755 0284 2101     		.2byte	0x121
 756 0286 A5020000 		.4byte	0x2a5
 757 028a 17       		.uleb128 0x17
 758 028b 08020000 		.4byte	.LASF33
 759 028f 01       		.byte	0x1
 760 0290 2201     		.2byte	0x122
 761 0292 7D000000 		.4byte	0x7d
 762 0296 00       		.byte	0
 763 0297 17       		.uleb128 0x17
 764 0298 89000000 		.4byte	.LASF34
 765 029c 01       		.byte	0x1
 766 029d 2301     		.2byte	0x123
 767 029f 92000000 		.4byte	0x92
 768 02a3 04       		.byte	0x4
 769 02a4 00       		.byte	0
ARM GAS  C:\Users\kelvi\AppData\Local\Temp\ccJ7QZVf.s 			page 21


 770 02a5 06       		.uleb128 0x6
 771 02a6 27020000 		.4byte	.LASF35
 772 02aa 01       		.byte	0x1
 773 02ab 2401     		.2byte	0x124
 774 02ad 81020000 		.4byte	0x281
 775 02b1 18       		.uleb128 0x18
 776 02b2 A5020000 		.4byte	0x2a5
 777 02b6 C1020000 		.4byte	0x2c1
 778 02ba 19       		.uleb128 0x19
 779 02bb 76000000 		.4byte	0x76
 780 02bf 08       		.byte	0x8
 781 02c0 00       		.byte	0
 782 02c1 1A       		.uleb128 0x1a
 783 02c2 34000000 		.4byte	.LASF36
 784 02c6 01       		.byte	0x1
 785 02c7 2601     		.2byte	0x126
 786 02c9 D3020000 		.4byte	0x2d3
 787 02cd 05       		.uleb128 0x5
 788 02ce 03       		.byte	0x3
 789 02cf 00000000 		.4byte	cfg_memset_list.4859
 790 02d3 1B       		.uleb128 0x1b
 791 02d4 B1020000 		.4byte	0x2b1
 792 02d8 1C       		.uleb128 0x1c
 793 02d9 6900     		.ascii	"i\000"
 794 02db 01       		.byte	0x1
 795 02dc 3301     		.2byte	0x133
 796 02de 86000000 		.4byte	0x86
 797 02e2 0C010000 		.4byte	.LLST8
 798 02e6 1D       		.uleb128 0x1d
 799 02e7 12000000 		.4byte	.LBB3
 800 02eb 16000000 		.4byte	.LBE3-.LBB3
 801 02ef 1C       		.uleb128 0x1c
 802 02f0 6D7300   		.ascii	"ms\000"
 803 02f3 01       		.byte	0x1
 804 02f4 3801     		.2byte	0x138
 805 02f6 FE020000 		.4byte	0x2fe
 806 02fa 36010000 		.4byte	.LLST9
 807 02fe 10       		.uleb128 0x10
 808 02ff 04       		.byte	0x4
 809 0300 04030000 		.4byte	0x304
 810 0304 1B       		.uleb128 0x1b
 811 0305 A5020000 		.4byte	0x2a5
 812 0309 1E       		.uleb128 0x1e
 813 030a 28000000 		.4byte	.LVL20
 814 030e 22010000 		.4byte	0x122
 815 0312 00       		.byte	0
 816 0313 00       		.byte	0
 817 0314 0E       		.uleb128 0xe
 818 0315 68000000 		.4byte	.LVL24
 819 0319 C7010000 		.4byte	0x1c7
 820 031d 37030000 		.4byte	0x337
 821 0321 0D       		.uleb128 0xd
 822 0322 01       		.uleb128 0x1
 823 0323 52       		.byte	0x52
 824 0324 01       		.uleb128 0x1
 825 0325 38       		.byte	0x38
 826 0326 0D       		.uleb128 0xd
ARM GAS  C:\Users\kelvi\AppData\Local\Temp\ccJ7QZVf.s 			page 22


 827 0327 01       		.uleb128 0x1
 828 0328 51       		.byte	0x51
 829 0329 03       		.uleb128 0x3
 830 032a 42       		.byte	0x42
 831 032b 4A       		.byte	0x4a
 832 032c 24       		.byte	0x24
 833 032d 0D       		.uleb128 0xd
 834 032e 01       		.uleb128 0x1
 835 032f 50       		.byte	0x50
 836 0330 05       		.uleb128 0x5
 837 0331 0C       		.byte	0xc
 838 0332 12510040 		.4byte	0x40005112
 839 0336 00       		.byte	0
 840 0337 1E       		.uleb128 0x1e
 841 0338 7C000000 		.4byte	.LVL25
 842 033c 6F010000 		.4byte	0x16f
 843 0340 1E       		.uleb128 0x1e
 844 0341 8A000000 		.4byte	.LVL26
 845 0345 FD000000 		.4byte	0xfd
 846 0349 0C       		.uleb128 0xc
 847 034a 94000000 		.4byte	.LVL27
 848 034e C7010000 		.4byte	0x1c7
 849 0352 0D       		.uleb128 0xd
 850 0353 01       		.uleb128 0x1
 851 0354 52       		.byte	0x52
 852 0355 01       		.uleb128 0x1
 853 0356 3E       		.byte	0x3e
 854 0357 0D       		.uleb128 0xd
 855 0358 01       		.uleb128 0x1
 856 0359 51       		.byte	0x51
 857 035a 02       		.uleb128 0x2
 858 035b 74       		.byte	0x74
 859 035c 00       		.sleb128 0
 860 035d 0D       		.uleb128 0xd
 861 035e 01       		.uleb128 0x1
 862 035f 50       		.byte	0x50
 863 0360 05       		.uleb128 0x5
 864 0361 0C       		.byte	0xc
 865 0362 B0430040 		.4byte	0x400043b0
 866 0366 00       		.byte	0
 867 0367 00       		.byte	0
 868 0368 1F       		.uleb128 0x1f
 869 0369 3A010000 		.4byte	.LASF37
 870 036d 7D000000 		.4byte	0x7d
 871 0371 85030000 		.4byte	0x385
 872 0375 20       		.uleb128 0x20
 873 0376 7D000000 		.4byte	0x7d
 874 037a 20       		.uleb128 0x20
 875 037b 25000000 		.4byte	0x25
 876 037f 20       		.uleb128 0x20
 877 0380 76000000 		.4byte	0x76
 878 0384 00       		.byte	0
 879 0385 21       		.uleb128 0x21
 880 0386 06000000 		.4byte	.LASF38
 881 038a 04       		.byte	0x4
 882 038b 79       		.byte	0x79
 883 038c 96030000 		.4byte	0x396
ARM GAS  C:\Users\kelvi\AppData\Local\Temp\ccJ7QZVf.s 			page 23


 884 0390 20       		.uleb128 0x20
 885 0391 9E000000 		.4byte	0x9e
 886 0395 00       		.byte	0
 887 0396 22       		.uleb128 0x22
 888 0397 71020000 		.4byte	.LASF42
 889 039b 7D000000 		.4byte	0x7d
 890 039f 20       		.uleb128 0x20
 891 03a0 7D000000 		.4byte	0x7d
 892 03a4 20       		.uleb128 0x20
 893 03a5 27020000 		.4byte	0x227
 894 03a9 20       		.uleb128 0x20
 895 03aa 76000000 		.4byte	0x76
 896 03ae 00       		.byte	0
 897 03af 00       		.byte	0
 898              		.section	.debug_abbrev,"",%progbits
 899              	.Ldebug_abbrev0:
 900 0000 01       		.uleb128 0x1
 901 0001 11       		.uleb128 0x11
 902 0002 01       		.byte	0x1
 903 0003 25       		.uleb128 0x25
 904 0004 0E       		.uleb128 0xe
 905 0005 13       		.uleb128 0x13
 906 0006 0B       		.uleb128 0xb
 907 0007 03       		.uleb128 0x3
 908 0008 0E       		.uleb128 0xe
 909 0009 1B       		.uleb128 0x1b
 910 000a 0E       		.uleb128 0xe
 911 000b 55       		.uleb128 0x55
 912 000c 17       		.uleb128 0x17
 913 000d 11       		.uleb128 0x11
 914 000e 01       		.uleb128 0x1
 915 000f 10       		.uleb128 0x10
 916 0010 17       		.uleb128 0x17
 917 0011 00       		.byte	0
 918 0012 00       		.byte	0
 919 0013 02       		.uleb128 0x2
 920 0014 24       		.uleb128 0x24
 921 0015 00       		.byte	0
 922 0016 0B       		.uleb128 0xb
 923 0017 0B       		.uleb128 0xb
 924 0018 3E       		.uleb128 0x3e
 925 0019 0B       		.uleb128 0xb
 926 001a 03       		.uleb128 0x3
 927 001b 08       		.uleb128 0x8
 928 001c 00       		.byte	0
 929 001d 00       		.byte	0
 930 001e 03       		.uleb128 0x3
 931 001f 16       		.uleb128 0x16
 932 0020 00       		.byte	0
 933 0021 03       		.uleb128 0x3
 934 0022 0E       		.uleb128 0xe
 935 0023 3A       		.uleb128 0x3a
 936 0024 0B       		.uleb128 0xb
 937 0025 3B       		.uleb128 0x3b
 938 0026 0B       		.uleb128 0xb
 939 0027 49       		.uleb128 0x49
 940 0028 13       		.uleb128 0x13
ARM GAS  C:\Users\kelvi\AppData\Local\Temp\ccJ7QZVf.s 			page 24


 941 0029 00       		.byte	0
 942 002a 00       		.byte	0
 943 002b 04       		.uleb128 0x4
 944 002c 24       		.uleb128 0x24
 945 002d 00       		.byte	0
 946 002e 0B       		.uleb128 0xb
 947 002f 0B       		.uleb128 0xb
 948 0030 3E       		.uleb128 0x3e
 949 0031 0B       		.uleb128 0xb
 950 0032 03       		.uleb128 0x3
 951 0033 0E       		.uleb128 0xe
 952 0034 00       		.byte	0
 953 0035 00       		.byte	0
 954 0036 05       		.uleb128 0x5
 955 0037 0F       		.uleb128 0xf
 956 0038 00       		.byte	0
 957 0039 0B       		.uleb128 0xb
 958 003a 0B       		.uleb128 0xb
 959 003b 00       		.byte	0
 960 003c 00       		.byte	0
 961 003d 06       		.uleb128 0x6
 962 003e 16       		.uleb128 0x16
 963 003f 00       		.byte	0
 964 0040 03       		.uleb128 0x3
 965 0041 0E       		.uleb128 0xe
 966 0042 3A       		.uleb128 0x3a
 967 0043 0B       		.uleb128 0xb
 968 0044 3B       		.uleb128 0x3b
 969 0045 05       		.uleb128 0x5
 970 0046 49       		.uleb128 0x49
 971 0047 13       		.uleb128 0x13
 972 0048 00       		.byte	0
 973 0049 00       		.byte	0
 974 004a 07       		.uleb128 0x7
 975 004b 35       		.uleb128 0x35
 976 004c 00       		.byte	0
 977 004d 49       		.uleb128 0x49
 978 004e 13       		.uleb128 0x13
 979 004f 00       		.byte	0
 980 0050 00       		.byte	0
 981 0051 08       		.uleb128 0x8
 982 0052 2E       		.uleb128 0x2e
 983 0053 01       		.byte	0x1
 984 0054 03       		.uleb128 0x3
 985 0055 0E       		.uleb128 0xe
 986 0056 3A       		.uleb128 0x3a
 987 0057 0B       		.uleb128 0xb
 988 0058 3B       		.uleb128 0x3b
 989 0059 0B       		.uleb128 0xb
 990 005a 27       		.uleb128 0x27
 991 005b 19       		.uleb128 0x19
 992 005c 11       		.uleb128 0x11
 993 005d 01       		.uleb128 0x1
 994 005e 12       		.uleb128 0x12
 995 005f 06       		.uleb128 0x6
 996 0060 40       		.uleb128 0x40
 997 0061 18       		.uleb128 0x18
ARM GAS  C:\Users\kelvi\AppData\Local\Temp\ccJ7QZVf.s 			page 25


 998 0062 9742     		.uleb128 0x2117
 999 0064 19       		.uleb128 0x19
 1000 0065 01       		.uleb128 0x1
 1001 0066 13       		.uleb128 0x13
 1002 0067 00       		.byte	0
 1003 0068 00       		.byte	0
 1004 0069 09       		.uleb128 0x9
 1005 006a 05       		.uleb128 0x5
 1006 006b 00       		.byte	0
 1007 006c 03       		.uleb128 0x3
 1008 006d 0E       		.uleb128 0xe
 1009 006e 3A       		.uleb128 0x3a
 1010 006f 0B       		.uleb128 0xb
 1011 0070 3B       		.uleb128 0x3b
 1012 0071 0B       		.uleb128 0xb
 1013 0072 49       		.uleb128 0x49
 1014 0073 13       		.uleb128 0x13
 1015 0074 02       		.uleb128 0x2
 1016 0075 18       		.uleb128 0x18
 1017 0076 00       		.byte	0
 1018 0077 00       		.byte	0
 1019 0078 0A       		.uleb128 0xa
 1020 0079 34       		.uleb128 0x34
 1021 007a 00       		.byte	0
 1022 007b 03       		.uleb128 0x3
 1023 007c 0E       		.uleb128 0xe
 1024 007d 3A       		.uleb128 0x3a
 1025 007e 0B       		.uleb128 0xb
 1026 007f 3B       		.uleb128 0x3b
 1027 0080 0B       		.uleb128 0xb
 1028 0081 49       		.uleb128 0x49
 1029 0082 13       		.uleb128 0x13
 1030 0083 02       		.uleb128 0x2
 1031 0084 17       		.uleb128 0x17
 1032 0085 00       		.byte	0
 1033 0086 00       		.byte	0
 1034 0087 0B       		.uleb128 0xb
 1035 0088 05       		.uleb128 0x5
 1036 0089 00       		.byte	0
 1037 008a 03       		.uleb128 0x3
 1038 008b 08       		.uleb128 0x8
 1039 008c 3A       		.uleb128 0x3a
 1040 008d 0B       		.uleb128 0xb
 1041 008e 3B       		.uleb128 0x3b
 1042 008f 0B       		.uleb128 0xb
 1043 0090 49       		.uleb128 0x49
 1044 0091 13       		.uleb128 0x13
 1045 0092 02       		.uleb128 0x2
 1046 0093 17       		.uleb128 0x17
 1047 0094 00       		.byte	0
 1048 0095 00       		.byte	0
 1049 0096 0C       		.uleb128 0xc
 1050 0097 898201   		.uleb128 0x4109
 1051 009a 01       		.byte	0x1
 1052 009b 11       		.uleb128 0x11
 1053 009c 01       		.uleb128 0x1
 1054 009d 31       		.uleb128 0x31
ARM GAS  C:\Users\kelvi\AppData\Local\Temp\ccJ7QZVf.s 			page 26


 1055 009e 13       		.uleb128 0x13
 1056 009f 00       		.byte	0
 1057 00a0 00       		.byte	0
 1058 00a1 0D       		.uleb128 0xd
 1059 00a2 8A8201   		.uleb128 0x410a
 1060 00a5 00       		.byte	0
 1061 00a6 02       		.uleb128 0x2
 1062 00a7 18       		.uleb128 0x18
 1063 00a8 9142     		.uleb128 0x2111
 1064 00aa 18       		.uleb128 0x18
 1065 00ab 00       		.byte	0
 1066 00ac 00       		.byte	0
 1067 00ad 0E       		.uleb128 0xe
 1068 00ae 898201   		.uleb128 0x4109
 1069 00b1 01       		.byte	0x1
 1070 00b2 11       		.uleb128 0x11
 1071 00b3 01       		.uleb128 0x1
 1072 00b4 31       		.uleb128 0x31
 1073 00b5 13       		.uleb128 0x13
 1074 00b6 01       		.uleb128 0x1
 1075 00b7 13       		.uleb128 0x13
 1076 00b8 00       		.byte	0
 1077 00b9 00       		.byte	0
 1078 00ba 0F       		.uleb128 0xf
 1079 00bb 05       		.uleb128 0x5
 1080 00bc 00       		.byte	0
 1081 00bd 03       		.uleb128 0x3
 1082 00be 0E       		.uleb128 0xe
 1083 00bf 3A       		.uleb128 0x3a
 1084 00c0 0B       		.uleb128 0xb
 1085 00c1 3B       		.uleb128 0x3b
 1086 00c2 0B       		.uleb128 0xb
 1087 00c3 49       		.uleb128 0x49
 1088 00c4 13       		.uleb128 0x13
 1089 00c5 02       		.uleb128 0x2
 1090 00c6 17       		.uleb128 0x17
 1091 00c7 00       		.byte	0
 1092 00c8 00       		.byte	0
 1093 00c9 10       		.uleb128 0x10
 1094 00ca 0F       		.uleb128 0xf
 1095 00cb 00       		.byte	0
 1096 00cc 0B       		.uleb128 0xb
 1097 00cd 0B       		.uleb128 0xb
 1098 00ce 49       		.uleb128 0x49
 1099 00cf 13       		.uleb128 0x13
 1100 00d0 00       		.byte	0
 1101 00d1 00       		.byte	0
 1102 00d2 11       		.uleb128 0x11
 1103 00d3 26       		.uleb128 0x26
 1104 00d4 00       		.byte	0
 1105 00d5 00       		.byte	0
 1106 00d6 00       		.byte	0
 1107 00d7 12       		.uleb128 0x12
 1108 00d8 2E       		.uleb128 0x2e
 1109 00d9 01       		.byte	0x1
 1110 00da 3F       		.uleb128 0x3f
 1111 00db 19       		.uleb128 0x19
ARM GAS  C:\Users\kelvi\AppData\Local\Temp\ccJ7QZVf.s 			page 27


 1112 00dc 03       		.uleb128 0x3
 1113 00dd 0E       		.uleb128 0xe
 1114 00de 3A       		.uleb128 0x3a
 1115 00df 0B       		.uleb128 0xb
 1116 00e0 3B       		.uleb128 0x3b
 1117 00e1 0B       		.uleb128 0xb
 1118 00e2 27       		.uleb128 0x27
 1119 00e3 19       		.uleb128 0x19
 1120 00e4 11       		.uleb128 0x11
 1121 00e5 01       		.uleb128 0x1
 1122 00e6 12       		.uleb128 0x12
 1123 00e7 06       		.uleb128 0x6
 1124 00e8 40       		.uleb128 0x40
 1125 00e9 18       		.uleb128 0x18
 1126 00ea 9742     		.uleb128 0x2117
 1127 00ec 19       		.uleb128 0x19
 1128 00ed 01       		.uleb128 0x1
 1129 00ee 13       		.uleb128 0x13
 1130 00ef 00       		.byte	0
 1131 00f0 00       		.byte	0
 1132 00f1 13       		.uleb128 0x13
 1133 00f2 34       		.uleb128 0x34
 1134 00f3 00       		.byte	0
 1135 00f4 03       		.uleb128 0x3
 1136 00f5 0E       		.uleb128 0xe
 1137 00f6 3A       		.uleb128 0x3a
 1138 00f7 0B       		.uleb128 0xb
 1139 00f8 3B       		.uleb128 0x3b
 1140 00f9 0B       		.uleb128 0xb
 1141 00fa 49       		.uleb128 0x49
 1142 00fb 13       		.uleb128 0x13
 1143 00fc 02       		.uleb128 0x2
 1144 00fd 18       		.uleb128 0x18
 1145 00fe 00       		.byte	0
 1146 00ff 00       		.byte	0
 1147 0100 14       		.uleb128 0x14
 1148 0101 2E       		.uleb128 0x2e
 1149 0102 01       		.byte	0x1
 1150 0103 3F       		.uleb128 0x3f
 1151 0104 19       		.uleb128 0x19
 1152 0105 03       		.uleb128 0x3
 1153 0106 0E       		.uleb128 0xe
 1154 0107 3A       		.uleb128 0x3a
 1155 0108 0B       		.uleb128 0xb
 1156 0109 3B       		.uleb128 0x3b
 1157 010a 05       		.uleb128 0x5
 1158 010b 27       		.uleb128 0x27
 1159 010c 19       		.uleb128 0x19
 1160 010d 11       		.uleb128 0x11
 1161 010e 01       		.uleb128 0x1
 1162 010f 12       		.uleb128 0x12
 1163 0110 06       		.uleb128 0x6
 1164 0111 40       		.uleb128 0x40
 1165 0112 18       		.uleb128 0x18
 1166 0113 9742     		.uleb128 0x2117
 1167 0115 19       		.uleb128 0x19
 1168 0116 01       		.uleb128 0x1
ARM GAS  C:\Users\kelvi\AppData\Local\Temp\ccJ7QZVf.s 			page 28


 1169 0117 13       		.uleb128 0x13
 1170 0118 00       		.byte	0
 1171 0119 00       		.byte	0
 1172 011a 15       		.uleb128 0x15
 1173 011b 0B       		.uleb128 0xb
 1174 011c 01       		.byte	0x1
 1175 011d 11       		.uleb128 0x11
 1176 011e 01       		.uleb128 0x1
 1177 011f 12       		.uleb128 0x12
 1178 0120 06       		.uleb128 0x6
 1179 0121 01       		.uleb128 0x1
 1180 0122 13       		.uleb128 0x13
 1181 0123 00       		.byte	0
 1182 0124 00       		.byte	0
 1183 0125 16       		.uleb128 0x16
 1184 0126 13       		.uleb128 0x13
 1185 0127 01       		.byte	0x1
 1186 0128 0B       		.uleb128 0xb
 1187 0129 0B       		.uleb128 0xb
 1188 012a 3A       		.uleb128 0x3a
 1189 012b 0B       		.uleb128 0xb
 1190 012c 3B       		.uleb128 0x3b
 1191 012d 05       		.uleb128 0x5
 1192 012e 01       		.uleb128 0x1
 1193 012f 13       		.uleb128 0x13
 1194 0130 00       		.byte	0
 1195 0131 00       		.byte	0
 1196 0132 17       		.uleb128 0x17
 1197 0133 0D       		.uleb128 0xd
 1198 0134 00       		.byte	0
 1199 0135 03       		.uleb128 0x3
 1200 0136 0E       		.uleb128 0xe
 1201 0137 3A       		.uleb128 0x3a
 1202 0138 0B       		.uleb128 0xb
 1203 0139 3B       		.uleb128 0x3b
 1204 013a 05       		.uleb128 0x5
 1205 013b 49       		.uleb128 0x49
 1206 013c 13       		.uleb128 0x13
 1207 013d 38       		.uleb128 0x38
 1208 013e 0B       		.uleb128 0xb
 1209 013f 00       		.byte	0
 1210 0140 00       		.byte	0
 1211 0141 18       		.uleb128 0x18
 1212 0142 01       		.uleb128 0x1
 1213 0143 01       		.byte	0x1
 1214 0144 49       		.uleb128 0x49
 1215 0145 13       		.uleb128 0x13
 1216 0146 01       		.uleb128 0x1
 1217 0147 13       		.uleb128 0x13
 1218 0148 00       		.byte	0
 1219 0149 00       		.byte	0
 1220 014a 19       		.uleb128 0x19
 1221 014b 21       		.uleb128 0x21
 1222 014c 00       		.byte	0
 1223 014d 49       		.uleb128 0x49
 1224 014e 13       		.uleb128 0x13
 1225 014f 2F       		.uleb128 0x2f
ARM GAS  C:\Users\kelvi\AppData\Local\Temp\ccJ7QZVf.s 			page 29


 1226 0150 0B       		.uleb128 0xb
 1227 0151 00       		.byte	0
 1228 0152 00       		.byte	0
 1229 0153 1A       		.uleb128 0x1a
 1230 0154 34       		.uleb128 0x34
 1231 0155 00       		.byte	0
 1232 0156 03       		.uleb128 0x3
 1233 0157 0E       		.uleb128 0xe
 1234 0158 3A       		.uleb128 0x3a
 1235 0159 0B       		.uleb128 0xb
 1236 015a 3B       		.uleb128 0x3b
 1237 015b 05       		.uleb128 0x5
 1238 015c 49       		.uleb128 0x49
 1239 015d 13       		.uleb128 0x13
 1240 015e 02       		.uleb128 0x2
 1241 015f 18       		.uleb128 0x18
 1242 0160 00       		.byte	0
 1243 0161 00       		.byte	0
 1244 0162 1B       		.uleb128 0x1b
 1245 0163 26       		.uleb128 0x26
 1246 0164 00       		.byte	0
 1247 0165 49       		.uleb128 0x49
 1248 0166 13       		.uleb128 0x13
 1249 0167 00       		.byte	0
 1250 0168 00       		.byte	0
 1251 0169 1C       		.uleb128 0x1c
 1252 016a 34       		.uleb128 0x34
 1253 016b 00       		.byte	0
 1254 016c 03       		.uleb128 0x3
 1255 016d 08       		.uleb128 0x8
 1256 016e 3A       		.uleb128 0x3a
 1257 016f 0B       		.uleb128 0xb
 1258 0170 3B       		.uleb128 0x3b
 1259 0171 05       		.uleb128 0x5
 1260 0172 49       		.uleb128 0x49
 1261 0173 13       		.uleb128 0x13
 1262 0174 02       		.uleb128 0x2
 1263 0175 17       		.uleb128 0x17
 1264 0176 00       		.byte	0
 1265 0177 00       		.byte	0
 1266 0178 1D       		.uleb128 0x1d
 1267 0179 0B       		.uleb128 0xb
 1268 017a 01       		.byte	0x1
 1269 017b 11       		.uleb128 0x11
 1270 017c 01       		.uleb128 0x1
 1271 017d 12       		.uleb128 0x12
 1272 017e 06       		.uleb128 0x6
 1273 017f 00       		.byte	0
 1274 0180 00       		.byte	0
 1275 0181 1E       		.uleb128 0x1e
 1276 0182 898201   		.uleb128 0x4109
 1277 0185 00       		.byte	0
 1278 0186 11       		.uleb128 0x11
 1279 0187 01       		.uleb128 0x1
 1280 0188 31       		.uleb128 0x31
 1281 0189 13       		.uleb128 0x13
 1282 018a 00       		.byte	0
ARM GAS  C:\Users\kelvi\AppData\Local\Temp\ccJ7QZVf.s 			page 30


 1283 018b 00       		.byte	0
 1284 018c 1F       		.uleb128 0x1f
 1285 018d 2E       		.uleb128 0x2e
 1286 018e 01       		.byte	0x1
 1287 018f 3F       		.uleb128 0x3f
 1288 0190 19       		.uleb128 0x19
 1289 0191 03       		.uleb128 0x3
 1290 0192 0E       		.uleb128 0xe
 1291 0193 27       		.uleb128 0x27
 1292 0194 19       		.uleb128 0x19
 1293 0195 49       		.uleb128 0x49
 1294 0196 13       		.uleb128 0x13
 1295 0197 34       		.uleb128 0x34
 1296 0198 19       		.uleb128 0x19
 1297 0199 3C       		.uleb128 0x3c
 1298 019a 19       		.uleb128 0x19
 1299 019b 01       		.uleb128 0x1
 1300 019c 13       		.uleb128 0x13
 1301 019d 00       		.byte	0
 1302 019e 00       		.byte	0
 1303 019f 20       		.uleb128 0x20
 1304 01a0 05       		.uleb128 0x5
 1305 01a1 00       		.byte	0
 1306 01a2 49       		.uleb128 0x49
 1307 01a3 13       		.uleb128 0x13
 1308 01a4 00       		.byte	0
 1309 01a5 00       		.byte	0
 1310 01a6 21       		.uleb128 0x21
 1311 01a7 2E       		.uleb128 0x2e
 1312 01a8 01       		.byte	0x1
 1313 01a9 3F       		.uleb128 0x3f
 1314 01aa 19       		.uleb128 0x19
 1315 01ab 03       		.uleb128 0x3
 1316 01ac 0E       		.uleb128 0xe
 1317 01ad 3A       		.uleb128 0x3a
 1318 01ae 0B       		.uleb128 0xb
 1319 01af 3B       		.uleb128 0x3b
 1320 01b0 0B       		.uleb128 0xb
 1321 01b1 27       		.uleb128 0x27
 1322 01b2 19       		.uleb128 0x19
 1323 01b3 3C       		.uleb128 0x3c
 1324 01b4 19       		.uleb128 0x19
 1325 01b5 01       		.uleb128 0x1
 1326 01b6 13       		.uleb128 0x13
 1327 01b7 00       		.byte	0
 1328 01b8 00       		.byte	0
 1329 01b9 22       		.uleb128 0x22
 1330 01ba 2E       		.uleb128 0x2e
 1331 01bb 01       		.byte	0x1
 1332 01bc 3F       		.uleb128 0x3f
 1333 01bd 19       		.uleb128 0x19
 1334 01be 03       		.uleb128 0x3
 1335 01bf 0E       		.uleb128 0xe
 1336 01c0 27       		.uleb128 0x27
 1337 01c1 19       		.uleb128 0x19
 1338 01c2 49       		.uleb128 0x49
 1339 01c3 13       		.uleb128 0x13
ARM GAS  C:\Users\kelvi\AppData\Local\Temp\ccJ7QZVf.s 			page 31


 1340 01c4 34       		.uleb128 0x34
 1341 01c5 19       		.uleb128 0x19
 1342 01c6 3C       		.uleb128 0x3c
 1343 01c7 19       		.uleb128 0x19
 1344 01c8 00       		.byte	0
 1345 01c9 00       		.byte	0
 1346 01ca 00       		.byte	0
 1347              		.section	.debug_loc,"",%progbits
 1348              	.Ldebug_loc0:
 1349              	.LLST0:
 1350 0000 06000000 		.4byte	.LVL1
 1351 0004 10000000 		.4byte	.LVL2
 1352 0008 0100     		.2byte	0x1
 1353 000a 53       		.byte	0x53
 1354 000b 00000000 		.4byte	0
 1355 000f 00000000 		.4byte	0
 1356              	.LLST1:
 1357 0013 00000000 		.4byte	.LVL3
 1358 0017 09000000 		.4byte	.LVL5-1
 1359 001b 0100     		.2byte	0x1
 1360 001d 50       		.byte	0x50
 1361 001e 09000000 		.4byte	.LVL5-1
 1362 0022 0C000000 		.4byte	.LFE0
 1363 0026 0400     		.2byte	0x4
 1364 0028 F3       		.byte	0xf3
 1365 0029 01       		.uleb128 0x1
 1366 002a 50       		.byte	0x50
 1367 002b 9F       		.byte	0x9f
 1368 002c 00000000 		.4byte	0
 1369 0030 00000000 		.4byte	0
 1370              	.LLST2:
 1371 0034 00000000 		.4byte	.LVL3
 1372 0038 06000000 		.4byte	.LVL4
 1373 003c 0100     		.2byte	0x1
 1374 003e 51       		.byte	0x51
 1375 003f 06000000 		.4byte	.LVL4
 1376 0043 09000000 		.4byte	.LVL5-1
 1377 0047 0100     		.2byte	0x1
 1378 0049 52       		.byte	0x52
 1379 004a 09000000 		.4byte	.LVL5-1
 1380 004e 0C000000 		.4byte	.LFE0
 1381 0052 0400     		.2byte	0x4
 1382 0054 F3       		.byte	0xf3
 1383 0055 01       		.uleb128 0x1
 1384 0056 51       		.byte	0x51
 1385 0057 9F       		.byte	0x9f
 1386 0058 00000000 		.4byte	0
 1387 005c 00000000 		.4byte	0
 1388              	.LLST3:
 1389 0060 2E000000 		.4byte	.LVL6
 1390 0064 34000000 		.4byte	.LVL7
 1391 0068 0200     		.2byte	0x2
 1392 006a 49       		.byte	0x49
 1393 006b 9F       		.byte	0x9f
 1394 006c 34000000 		.4byte	.LVL7
 1395 0070 7E000000 		.4byte	.LVL13
 1396 0074 0100     		.2byte	0x1
ARM GAS  C:\Users\kelvi\AppData\Local\Temp\ccJ7QZVf.s 			page 32


 1397 0076 55       		.byte	0x55
 1398 0077 00000000 		.4byte	0
 1399 007b 00000000 		.4byte	0
 1400              	.LLST4:
 1401 007f 2E000000 		.4byte	.LVL6
 1402 0083 34000000 		.4byte	.LVL7
 1403 0087 0200     		.2byte	0x2
 1404 0089 30       		.byte	0x30
 1405 008a 9F       		.byte	0x9f
 1406 008b 34000000 		.4byte	.LVL7
 1407 008f 40000000 		.4byte	.LVL8
 1408 0093 0100     		.2byte	0x1
 1409 0095 54       		.byte	0x54
 1410 0096 44000000 		.4byte	.LVL9
 1411 009a 7E000000 		.4byte	.LVL13
 1412 009e 0100     		.2byte	0x1
 1413 00a0 54       		.byte	0x54
 1414 00a1 00000000 		.4byte	0
 1415 00a5 00000000 		.4byte	0
 1416              	.LLST5:
 1417 00a9 00000000 		.4byte	.LVL14
 1418 00ad 05000000 		.4byte	.LVL15-1
 1419 00b1 0100     		.2byte	0x1
 1420 00b3 50       		.byte	0x50
 1421 00b4 05000000 		.4byte	.LVL15-1
 1422 00b8 08000000 		.4byte	.LFE1
 1423 00bc 0400     		.2byte	0x4
 1424 00be F3       		.byte	0xf3
 1425 00bf 01       		.uleb128 0x1
 1426 00c0 50       		.byte	0x50
 1427 00c1 9F       		.byte	0x9f
 1428 00c2 00000000 		.4byte	0
 1429 00c6 00000000 		.4byte	0
 1430              	.LLST6:
 1431 00ca 00000000 		.4byte	.LVL14
 1432 00ce 05000000 		.4byte	.LVL15-1
 1433 00d2 0100     		.2byte	0x1
 1434 00d4 51       		.byte	0x51
 1435 00d5 05000000 		.4byte	.LVL15-1
 1436 00d9 08000000 		.4byte	.LFE1
 1437 00dd 0400     		.2byte	0x4
 1438 00df F3       		.byte	0xf3
 1439 00e0 01       		.uleb128 0x1
 1440 00e1 51       		.byte	0x51
 1441 00e2 9F       		.byte	0x9f
 1442 00e3 00000000 		.4byte	0
 1443 00e7 00000000 		.4byte	0
 1444              	.LLST7:
 1445 00eb 00000000 		.4byte	.LVL14
 1446 00ef 05000000 		.4byte	.LVL15-1
 1447 00f3 0100     		.2byte	0x1
 1448 00f5 52       		.byte	0x52
 1449 00f6 05000000 		.4byte	.LVL15-1
 1450 00fa 08000000 		.4byte	.LFE1
 1451 00fe 0400     		.2byte	0x4
 1452 0100 F3       		.byte	0xf3
 1453 0101 01       		.uleb128 0x1
ARM GAS  C:\Users\kelvi\AppData\Local\Temp\ccJ7QZVf.s 			page 33


 1454 0102 52       		.byte	0x52
 1455 0103 9F       		.byte	0x9f
 1456 0104 00000000 		.4byte	0
 1457 0108 00000000 		.4byte	0
 1458              	.LLST8:
 1459 010c 0E000000 		.4byte	.LVL18
 1460 0110 12000000 		.4byte	.LVL19
 1461 0114 0200     		.2byte	0x2
 1462 0116 30       		.byte	0x30
 1463 0117 9F       		.byte	0x9f
 1464 0118 12000000 		.4byte	.LVL19
 1465 011c 2A000000 		.4byte	.LVL21
 1466 0120 0100     		.2byte	0x1
 1467 0122 54       		.byte	0x54
 1468 0123 2C000000 		.4byte	.LVL22
 1469 0127 46000000 		.4byte	.LVL23
 1470 012b 0100     		.2byte	0x1
 1471 012d 54       		.byte	0x54
 1472 012e 00000000 		.4byte	0
 1473 0132 00000000 		.4byte	0
 1474              	.LLST9:
 1475 0136 12000000 		.4byte	.LVL19
 1476 013a 2A000000 		.4byte	.LVL21
 1477 013e 0B00     		.2byte	0xb
 1478 0140 74       		.byte	0x74
 1479 0141 00       		.sleb128 0
 1480 0142 36       		.byte	0x36
 1481 0143 1E       		.byte	0x1e
 1482 0144 03       		.byte	0x3
 1483 0145 00000000 		.4byte	cfg_memset_list.4859
 1484 0149 22       		.byte	0x22
 1485 014a 9F       		.byte	0x9f
 1486 014b 2A000000 		.4byte	.LVL21
 1487 014f 2C000000 		.4byte	.LVL22
 1488 0153 0B00     		.2byte	0xb
 1489 0155 74       		.byte	0x74
 1490 0156 7F       		.sleb128 -1
 1491 0157 36       		.byte	0x36
 1492 0158 1E       		.byte	0x1e
 1493 0159 03       		.byte	0x3
 1494 015a 00000000 		.4byte	cfg_memset_list.4859
 1495 015e 22       		.byte	0x22
 1496 015f 9F       		.byte	0x9f
 1497 0160 00000000 		.4byte	0
 1498 0164 00000000 		.4byte	0
 1499              		.section	.debug_aranges,"",%progbits
 1500 0000 4C000000 		.4byte	0x4c
 1501 0004 0200     		.2byte	0x2
 1502 0006 00000000 		.4byte	.Ldebug_info0
 1503 000a 04       		.byte	0x4
 1504 000b 00       		.byte	0
 1505 000c 0000     		.2byte	0
 1506 000e 0000     		.2byte	0
 1507 0010 00000000 		.4byte	.LFB3
 1508 0014 02000000 		.4byte	.LFE3-.LFB3
 1509 0018 00000000 		.4byte	.LFB5
 1510 001c 28000000 		.4byte	.LFE5-.LFB5
ARM GAS  C:\Users\kelvi\AppData\Local\Temp\ccJ7QZVf.s 			page 34


 1511 0020 00000000 		.4byte	.LFB0
 1512 0024 0C000000 		.4byte	.LFE0-.LFB0
 1513 0028 00000000 		.4byte	.LFB4
 1514 002c 9C000000 		.4byte	.LFE4-.LFB4
 1515 0030 00000000 		.4byte	.LFB1
 1516 0034 08000000 		.4byte	.LFE1-.LFB1
 1517 0038 00000000 		.4byte	.LFB6
 1518 003c 10000000 		.4byte	.LFE6-.LFB6
 1519 0040 00000000 		.4byte	.LFB7
 1520 0044 BC000000 		.4byte	.LFE7-.LFB7
 1521 0048 00000000 		.4byte	0
 1522 004c 00000000 		.4byte	0
 1523              		.section	.debug_ranges,"",%progbits
 1524              	.Ldebug_ranges0:
 1525 0000 00000000 		.4byte	.LFB3
 1526 0004 02000000 		.4byte	.LFE3
 1527 0008 00000000 		.4byte	.LFB5
 1528 000c 28000000 		.4byte	.LFE5
 1529 0010 00000000 		.4byte	.LFB0
 1530 0014 0C000000 		.4byte	.LFE0
 1531 0018 00000000 		.4byte	.LFB4
 1532 001c 9C000000 		.4byte	.LFE4
 1533 0020 00000000 		.4byte	.LFB1
 1534 0024 08000000 		.4byte	.LFE1
 1535 0028 00000000 		.4byte	.LFB6
 1536 002c 10000000 		.4byte	.LFE6
 1537 0030 00000000 		.4byte	.LFB7
 1538 0034 BC000000 		.4byte	.LFE7
 1539 0038 00000000 		.4byte	0
 1540 003c 00000000 		.4byte	0
 1541              		.section	.debug_line,"",%progbits
 1542              	.Ldebug_line0:
 1543 0000 A9010000 		.section	.debug_str,"MS",%progbits,1
 1543      0200D600 
 1543      00000201 
 1543      FB0E0D00 
 1543      01010101 
 1544              	.LASF18:
 1545 0000 72656731 		.ascii	"reg16\000"
 1545      3600
 1546              	.LASF38:
 1547 0006 43794465 		.ascii	"CyDelayCycles\000"
 1547      6C617943 
 1547      79636C65 
 1547      7300
 1548              	.LASF11:
 1549 0014 73697A65 		.ascii	"size_t\000"
 1549      5F7400
 1550              	.LASF20:
 1551 001b 416E616C 		.ascii	"AnalogSetDefault\000"
 1551      6F675365 
 1551      74446566 
 1551      61756C74 
 1551      00
 1552              	.LASF25:
 1553 002c 74696D65 		.ascii	"timeout\000"
 1553      6F757400 
ARM GAS  C:\Users\kelvi\AppData\Local\Temp\ccJ7QZVf.s 			page 35


 1554              	.LASF36:
 1555 0034 6366675F 		.ascii	"cfg_memset_list\000"
 1555      6D656D73 
 1555      65745F6C 
 1555      69737400 
 1556              	.LASF23:
 1557 0044 436C6F63 		.ascii	"ClockSetup\000"
 1557      6B536574 
 1557      757000
 1558              	.LASF4:
 1559 004f 73686F72 		.ascii	"short unsigned int\000"
 1559      7420756E 
 1559      7369676E 
 1559      65642069 
 1559      6E7400
 1560              	.LASF26:
 1561 0062 706C6C4C 		.ascii	"pllLock\000"
 1561      6F636B00 
 1562              	.LASF15:
 1563 006a 666C6F61 		.ascii	"float\000"
 1563      7400
 1564              	.LASF19:
 1565 0070 4379436C 		.ascii	"CyClockStartupError\000"
 1565      6F636B53 
 1565      74617274 
 1565      75704572 
 1565      726F7200 
 1566              	.LASF28:
 1567 0084 64657374 		.ascii	"dest\000"
 1567      00
 1568              	.LASF34:
 1569 0089 73697A65 		.ascii	"size\000"
 1569      00
 1570              	.LASF17:
 1571 008e 72656738 		.ascii	"reg8\000"
 1571      00
 1572              	.LASF6:
 1573 0093 6C6F6E67 		.ascii	"long unsigned int\000"
 1573      20756E73 
 1573      69676E65 
 1573      6420696E 
 1573      7400
 1574              	.LASF12:
 1575 00a5 75696E74 		.ascii	"uint8\000"
 1575      3800
 1576              	.LASF41:
 1577 00ab 433A5C55 		.ascii	"C:\\Users\\kelvi\\OneDrive\\Documents\\school files"
 1577      73657273 
 1577      5C6B656C 
 1577      76695C4F 
 1577      6E654472 
 1578 00d9 5C737072 		.ascii	"\\spring 2017\\cs121\\lab1\\lab1.cydsn\\component.c"
 1578      696E6720 
 1578      32303137 
 1578      5C637331 
 1578      32315C6C 
 1579 0107 7964736E 		.ascii	"ydsn\000"
ARM GAS  C:\Users\kelvi\AppData\Local\Temp\ccJ7QZVf.s 			page 36


 1579      00
 1580              	.LASF21:
 1581 010c 43594D45 		.ascii	"CYMEMZERO\000"
 1581      4D5A4552 
 1581      4F00
 1582              	.LASF31:
 1583 0116 53657441 		.ascii	"SetAnalogRoutingPumps\000"
 1583      6E616C6F 
 1583      67526F75 
 1583      74696E67 
 1583      50756D70 
 1584              	.LASF2:
 1585 012c 756E7369 		.ascii	"unsigned char\000"
 1585      676E6564 
 1585      20636861 
 1585      7200
 1586              	.LASF37:
 1587 013a 6D656D73 		.ascii	"memset\000"
 1587      657400
 1588              	.LASF16:
 1589 0141 646F7562 		.ascii	"double\000"
 1589      6C6500
 1590              	.LASF32:
 1591 0148 63796669 		.ascii	"cyfitter_cfg\000"
 1591      74746572 
 1591      5F636667 
 1591      00
 1592              	.LASF13:
 1593 0155 75696E74 		.ascii	"uint16\000"
 1593      313600
 1594              	.LASF22:
 1595 015c 6572726F 		.ascii	"errorCode\000"
 1595      72436F64 
 1595      6500
 1596              	.LASF14:
 1597 0166 75696E74 		.ascii	"uint32\000"
 1597      333200
 1598              	.LASF39:
 1599 016d 474E5520 		.ascii	"GNU C 4.9.3 20150303 (release) [ARM/embedded-4_9-br"
 1599      4320342E 
 1599      392E3320 
 1599      32303135 
 1599      30333033 
 1600 01a0 616E6368 		.ascii	"anch revision 221220] -mcpu=cortex-m3 -mthumb -g -O"
 1600      20726576 
 1600      6973696F 
 1600      6E203232 
 1600      31323230 
 1601 01d3 67202D66 		.ascii	"g -ffunction-sections -ffat-lto-objects\000"
 1601      66756E63 
 1601      74696F6E 
 1601      2D736563 
 1601      74696F6E 
 1602              	.LASF0:
 1603 01fb 756E7369 		.ascii	"unsigned int\000"
 1603      676E6564 
 1603      20696E74 
ARM GAS  C:\Users\kelvi\AppData\Local\Temp\ccJ7QZVf.s 			page 37


 1603      00
 1604              	.LASF33:
 1605 0208 61646472 		.ascii	"address\000"
 1605      65737300 
 1606              	.LASF8:
 1607 0210 6C6F6E67 		.ascii	"long long unsigned int\000"
 1607      206C6F6E 
 1607      6720756E 
 1607      7369676E 
 1607      65642069 
 1608              	.LASF35:
 1609 0227 6366675F 		.ascii	"cfg_memset_t\000"
 1609      6D656D73 
 1609      65745F74 
 1609      00
 1610              	.LASF9:
 1611 0234 73697A65 		.ascii	"sizetype\000"
 1611      74797065 
 1611      00
 1612              	.LASF7:
 1613 023d 6C6F6E67 		.ascii	"long long int\000"
 1613      206C6F6E 
 1613      6720696E 
 1613      7400
 1614              	.LASF40:
 1615 024b 47656E65 		.ascii	"Generated_Source\\PSoC5\\cyfitter_cfg.c\000"
 1615      72617465 
 1615      645F536F 
 1615      75726365 
 1615      5C50536F 
 1616              	.LASF42:
 1617 0271 6D656D63 		.ascii	"memcpy\000"
 1617      707900
 1618              	.LASF3:
 1619 0278 73686F72 		.ascii	"short int\000"
 1619      7420696E 
 1619      7400
 1620              	.LASF29:
 1621 0282 656E6162 		.ascii	"enabled\000"
 1621      6C656400 
 1622              	.LASF5:
 1623 028a 6C6F6E67 		.ascii	"long int\000"
 1623      20696E74 
 1623      00
 1624              	.LASF10:
 1625 0293 63686172 		.ascii	"char\000"
 1625      00
 1626              	.LASF24:
 1627 0298 62675F78 		.ascii	"bg_xover_inl_trim\000"
 1627      6F766572 
 1627      5F696E6C 
 1627      5F747269 
 1627      6D00
 1628              	.LASF1:
 1629 02aa 7369676E 		.ascii	"signed char\000"
 1629      65642063 
 1629      68617200 
ARM GAS  C:\Users\kelvi\AppData\Local\Temp\ccJ7QZVf.s 			page 38


 1630              	.LASF30:
 1631 02b6 72656756 		.ascii	"regValue\000"
 1631      616C7565 
 1631      00
 1632              	.LASF27:
 1633 02bf 4359434F 		.ascii	"CYCONFIGCPY\000"
 1633      4E464947 
 1633      43505900 
 1634              		.ident	"GCC: (GNU Tools for ARM Embedded Processors) 4.9.3 20150303 (release) [ARM/embedded-4_9-br
