ARM GAS  C:\Users\kelvi\AppData\Local\Temp\ccdThfSN.s 			page 1


   1              		.syntax unified
   2              		.cpu cortex-m3
   3              		.fpu softvfp
   4              		.eabi_attribute 20, 1
   5              		.eabi_attribute 21, 1
   6              		.eabi_attribute 23, 3
   7              		.eabi_attribute 24, 1
   8              		.eabi_attribute 25, 1
   9              		.eabi_attribute 26, 1
  10              		.eabi_attribute 30, 1
  11              		.eabi_attribute 34, 1
  12              		.eabi_attribute 18, 4
  13              		.thumb
  14              		.file	"main.c"
  15              		.text
  16              	.Ltext0:
  17              		.cfi_sections	.debug_frame
  18              		.section	.text.main,"ax",%progbits
  19              		.align	2
  20              		.global	main
  21              		.thumb
  22              		.thumb_func
  23              		.type	main, %function
  24              	main:
  25              	.LFB63:
  26              		.file 1 "main.c"
   1:main.c        **** /* ========================================
   2:main.c        ****  *
   3:main.c        ****  * Copyright YOUR COMPANY, THE YEAR
   4:main.c        ****  * All Rights Reserved
   5:main.c        ****  * UNPUBLISHED, LICENSED SOFTWARE.
   6:main.c        ****  *
   7:main.c        ****  * CONFIDENTIAL AND PROPRIETARY INFORMATION
   8:main.c        ****  * WHICH IS THE PROPERTY OF your company.
   9:main.c        ****  *
  10:main.c        ****  * ========================================
  11:main.c        **** */
  12:main.c        **** #include "project.h"
  13:main.c        **** 
  14:main.c        **** int main(void)
  15:main.c        **** {
  27              		.loc 1 15 0
  28              		.cfi_startproc
  29              		@ args = 0, pretend = 0, frame = 0
  30              		@ frame_needed = 0, uses_anonymous_args = 0
  31 0000 10B5     		push	{r4, lr}
  32              		.cfi_def_cfa_offset 8
  33              		.cfi_offset 4, -8
  34              		.cfi_offset 14, -4
  16:main.c        ****    
  17:main.c        **** 
  18:main.c        ****     /* Place your initialization/startup code here (e.g. MyInst_Start()) */
  19:main.c        ****     myPWM_Start();
  35              		.loc 1 19 0
  36 0002 FFF7FEFF 		bl	myPWM_Start
  37              	.LVL0:
  20:main.c        ****     myPWM_Enable();
ARM GAS  C:\Users\kelvi\AppData\Local\Temp\ccdThfSN.s 			page 2


  38              		.loc 1 20 0
  39 0006 FFF7FEFF 		bl	myPWM_Enable
  40              	.LVL1:
  21:main.c        ****    
  22:main.c        ****     
  23:main.c        ****     myADC_Start();
  41              		.loc 1 23 0
  42 000a FFF7FEFF 		bl	myADC_Start
  43              	.LVL2:
  24:main.c        ****     
  25:main.c        ****     myTimer_Start();
  44              		.loc 1 25 0
  45 000e FFF7FEFF 		bl	myTimer_Start
  46              	.LVL3:
  26:main.c        ****     myTimer_Enable();
  47              		.loc 1 26 0
  48 0012 FFF7FEFF 		bl	myTimer_Enable
  49              	.LVL4:
  27:main.c        ****     
  28:main.c        ****     myCounter_Start();
  50              		.loc 1 28 0
  51 0016 FFF7FEFF 		bl	myCounter_Start
  52              	.LVL5:
  29:main.c        ****     myCounter_Enable();
  53              		.loc 1 29 0
  54 001a FFF7FEFF 		bl	myCounter_Enable
  55              	.LVL6:
  30:main.c        ****     
  31:main.c        ****     myInterrupt_Start();
  56              		.loc 1 31 0
  57 001e FFF7FEFF 		bl	myInterrupt_Start
  58              	.LVL7:
  32:main.c        ****     myInterrupt_Enable();
  59              		.loc 1 32 0
  60 0022 FFF7FEFF 		bl	myInterrupt_Enable
  61              	.LVL8:
  33:main.c        ****     
  34:main.c        ****     myVDAC_Start();
  62              		.loc 1 34 0
  63 0026 FFF7FEFF 		bl	myVDAC_Start
  64              	.LVL9:
  35:main.c        ****     myVDAC_Enable();
  65              		.loc 1 35 0
  66 002a FFF7FEFF 		bl	myVDAC_Enable
  67              	.LVL10:
  36:main.c        ****     
  37:main.c        ****     CyGlobalIntEnable; /* Enable global interrupts. */
  68              		.loc 1 37 0
  69              	@ 37 "main.c" 1
  70 002e 62B6     		CPSIE   i
  71              	@ 0 "" 2
  72              		.thumb
  73              	.L2:
  74              	.LBB2:
  38:main.c        ****     
  39:main.c        ****     for(;;)
  40:main.c        ****     {
ARM GAS  C:\Users\kelvi\AppData\Local\Temp\ccdThfSN.s 			page 3


  41:main.c        ****         uint16_t varAdc = myADC_Read32() / 65;
  75              		.loc 1 41 0 discriminator 1
  76 0030 FFF7FEFF 		bl	myADC_Read32
  77              	.LVL11:
  78 0034 064C     		ldr	r4, .L4
  79 0036 84FB0034 		smull	r3, r4, r4, r0
  80 003a C017     		asrs	r0, r0, #31
  81 003c C0EB6414 		rsb	r4, r0, r4, asr #5
  82 0040 A4B2     		uxth	r4, r4
  83              	.LVL12:
  42:main.c        ****         /* Place your application code here. */
  43:main.c        ****         myPWM_WritePeriod( varAdc);
  84              		.loc 1 43 0 discriminator 1
  85 0042 2046     		mov	r0, r4
  86 0044 FFF7FEFF 		bl	myPWM_WritePeriod
  87              	.LVL13:
  44:main.c        ****         myPWM_WriteCompare( varAdc / 2);
  88              		.loc 1 44 0 discriminator 1
  89 0048 6008     		lsrs	r0, r4, #1
  90 004a FFF7FEFF 		bl	myPWM_WriteCompare
  91              	.LVL14:
  92              	.LBE2:
  45:main.c        ****         
  46:main.c        ****     }
  93              		.loc 1 46 0 discriminator 1
  94 004e EFE7     		b	.L2
  95              	.L5:
  96              		.align	2
  97              	.L4:
  98 0050 7FE0077E 		.word	2114445439
  99              		.cfi_endproc
 100              	.LFE63:
 101              		.size	main, .-main
 102              		.text
 103              	.Letext0:
 104              		.file 2 "c:\\program files (x86)\\cypress\\psoc creator\\4.0\\psoc creator\\import\\gnu\\arm\\4.9.
 105              		.file 3 "c:\\program files (x86)\\cypress\\psoc creator\\4.0\\psoc creator\\import\\gnu\\arm\\4.9.
 106              		.file 4 "Generated_Source\\PSoC5/cytypes.h"
 107              		.file 5 "Generated_Source\\PSoC5/myPWM.h"
 108              		.file 6 "Generated_Source\\PSoC5/myADC.h"
 109              		.file 7 "Generated_Source\\PSoC5/myTimer.h"
 110              		.file 8 "Generated_Source\\PSoC5/myCounter.h"
 111              		.file 9 "Generated_Source\\PSoC5/myInterrupt.h"
 112              		.file 10 "Generated_Source\\PSoC5/myVDAC.h"
 113              		.file 11 "Generated_Source\\PSoC5/core_cm3.h"
 114              		.section	.debug_info,"",%progbits
 115              	.Ldebug_info0:
 116 0000 1A020000 		.4byte	0x21a
 117 0004 0400     		.2byte	0x4
 118 0006 00000000 		.4byte	.Ldebug_abbrev0
 119 000a 04       		.byte	0x4
 120 000b 01       		.uleb128 0x1
 121 000c 2C010000 		.4byte	.LASF32
 122 0010 01       		.byte	0x1
 123 0011 58020000 		.4byte	.LASF33
 124 0015 DE010000 		.4byte	.LASF34
 125 0019 00000000 		.4byte	.Ldebug_ranges0+0
ARM GAS  C:\Users\kelvi\AppData\Local\Temp\ccdThfSN.s 			page 4


 126 001d 00000000 		.4byte	0
 127 0021 00000000 		.4byte	.Ldebug_line0
 128 0025 02       		.uleb128 0x2
 129 0026 01       		.byte	0x1
 130 0027 06       		.byte	0x6
 131 0028 94020000 		.4byte	.LASF0
 132 002c 02       		.uleb128 0x2
 133 002d 01       		.byte	0x1
 134 002e 08       		.byte	0x8
 135 002f 85000000 		.4byte	.LASF1
 136 0033 02       		.uleb128 0x2
 137 0034 02       		.byte	0x2
 138 0035 05       		.byte	0x5
 139 0036 78020000 		.4byte	.LASF2
 140 003a 03       		.uleb128 0x3
 141 003b E1000000 		.4byte	.LASF4
 142 003f 02       		.byte	0x2
 143 0040 2B       		.byte	0x2b
 144 0041 45000000 		.4byte	0x45
 145 0045 02       		.uleb128 0x2
 146 0046 02       		.byte	0x2
 147 0047 07       		.byte	0x7
 148 0048 36000000 		.4byte	.LASF3
 149 004c 03       		.uleb128 0x3
 150 004d 2C000000 		.4byte	.LASF5
 151 0051 02       		.byte	0x2
 152 0052 3F       		.byte	0x3f
 153 0053 57000000 		.4byte	0x57
 154 0057 02       		.uleb128 0x2
 155 0058 04       		.byte	0x4
 156 0059 05       		.byte	0x5
 157 005a 8B020000 		.4byte	.LASF6
 158 005e 02       		.uleb128 0x2
 159 005f 04       		.byte	0x4
 160 0060 07       		.byte	0x7
 161 0061 EC000000 		.4byte	.LASF7
 162 0065 02       		.uleb128 0x2
 163 0066 08       		.byte	0x8
 164 0067 05       		.byte	0x5
 165 0068 4A020000 		.4byte	.LASF8
 166 006c 02       		.uleb128 0x2
 167 006d 08       		.byte	0x8
 168 006e 07       		.byte	0x7
 169 006f C7010000 		.4byte	.LASF9
 170 0073 04       		.uleb128 0x4
 171 0074 04       		.byte	0x4
 172 0075 05       		.byte	0x5
 173 0076 696E7400 		.ascii	"int\000"
 174 007a 02       		.uleb128 0x2
 175 007b 04       		.byte	0x4
 176 007c 07       		.byte	0x7
 177 007d BA010000 		.4byte	.LASF10
 178 0081 03       		.uleb128 0x3
 179 0082 82020000 		.4byte	.LASF11
 180 0086 03       		.byte	0x3
 181 0087 21       		.byte	0x21
 182 0088 3A000000 		.4byte	0x3a
ARM GAS  C:\Users\kelvi\AppData\Local\Temp\ccdThfSN.s 			page 5


 183 008c 03       		.uleb128 0x3
 184 008d 70020000 		.4byte	.LASF12
 185 0091 03       		.byte	0x3
 186 0092 2C       		.byte	0x2c
 187 0093 4C000000 		.4byte	0x4c
 188 0097 05       		.uleb128 0x5
 189 0098 15010000 		.4byte	.LASF13
 190 009c 04       		.byte	0x4
 191 009d 9301     		.2byte	0x193
 192 009f 45000000 		.4byte	0x45
 193 00a3 05       		.uleb128 0x5
 194 00a4 3B020000 		.4byte	.LASF14
 195 00a8 04       		.byte	0x4
 196 00a9 9701     		.2byte	0x197
 197 00ab 57000000 		.4byte	0x57
 198 00af 02       		.uleb128 0x2
 199 00b0 04       		.byte	0x4
 200 00b1 04       		.byte	0x4
 201 00b2 7F000000 		.4byte	.LASF15
 202 00b6 02       		.uleb128 0x2
 203 00b7 08       		.byte	0x8
 204 00b8 04       		.byte	0x4
 205 00b9 49000000 		.4byte	.LASF16
 206 00bd 02       		.uleb128 0x2
 207 00be 01       		.byte	0x1
 208 00bf 08       		.byte	0x8
 209 00c0 5F020000 		.4byte	.LASF17
 210 00c4 02       		.uleb128 0x2
 211 00c5 04       		.byte	0x4
 212 00c6 07       		.byte	0x7
 213 00c7 41020000 		.4byte	.LASF18
 214 00cb 06       		.uleb128 0x6
 215 00cc 10010000 		.4byte	.LASF35
 216 00d0 01       		.byte	0x1
 217 00d1 0E       		.byte	0xe
 218 00d2 73000000 		.4byte	0x73
 219 00d6 00000000 		.4byte	.LFB63
 220 00da 54000000 		.4byte	.LFE63-.LFB63
 221 00de 01       		.uleb128 0x1
 222 00df 9C       		.byte	0x9c
 223 00e0 92010000 		.4byte	0x192
 224 00e4 07       		.uleb128 0x7
 225 00e5 30000000 		.4byte	.LBB2
 226 00e9 1E000000 		.4byte	.LBE2-.LBB2
 227 00ed 2E010000 		.4byte	0x12e
 228 00f1 08       		.uleb128 0x8
 229 00f2 A6000000 		.4byte	.LASF36
 230 00f6 01       		.byte	0x1
 231 00f7 29       		.byte	0x29
 232 00f8 81000000 		.4byte	0x81
 233 00fc 01       		.uleb128 0x1
 234 00fd 54       		.byte	0x54
 235 00fe 09       		.uleb128 0x9
 236 00ff 34000000 		.4byte	.LVL11
 237 0103 A3010000 		.4byte	0x1a3
 238 0107 0A       		.uleb128 0xa
 239 0108 48000000 		.4byte	.LVL13
ARM GAS  C:\Users\kelvi\AppData\Local\Temp\ccdThfSN.s 			page 6


 240 010c AE010000 		.4byte	0x1ae
 241 0110 1B010000 		.4byte	0x11b
 242 0114 0B       		.uleb128 0xb
 243 0115 01       		.uleb128 0x1
 244 0116 50       		.byte	0x50
 245 0117 02       		.uleb128 0x2
 246 0118 74       		.byte	0x74
 247 0119 00       		.sleb128 0
 248 011a 00       		.byte	0
 249 011b 0C       		.uleb128 0xc
 250 011c 4E000000 		.4byte	.LVL14
 251 0120 BF010000 		.4byte	0x1bf
 252 0124 0B       		.uleb128 0xb
 253 0125 01       		.uleb128 0x1
 254 0126 50       		.byte	0x50
 255 0127 04       		.uleb128 0x4
 256 0128 74       		.byte	0x74
 257 0129 00       		.sleb128 0
 258 012a 31       		.byte	0x31
 259 012b 25       		.byte	0x25
 260 012c 00       		.byte	0
 261 012d 00       		.byte	0
 262 012e 09       		.uleb128 0x9
 263 012f 06000000 		.4byte	.LVL0
 264 0133 D0010000 		.4byte	0x1d0
 265 0137 09       		.uleb128 0x9
 266 0138 0A000000 		.4byte	.LVL1
 267 013c D7010000 		.4byte	0x1d7
 268 0140 09       		.uleb128 0x9
 269 0141 0E000000 		.4byte	.LVL2
 270 0145 DE010000 		.4byte	0x1de
 271 0149 09       		.uleb128 0x9
 272 014a 12000000 		.4byte	.LVL3
 273 014e E5010000 		.4byte	0x1e5
 274 0152 09       		.uleb128 0x9
 275 0153 16000000 		.4byte	.LVL4
 276 0157 EC010000 		.4byte	0x1ec
 277 015b 09       		.uleb128 0x9
 278 015c 1A000000 		.4byte	.LVL5
 279 0160 F3010000 		.4byte	0x1f3
 280 0164 09       		.uleb128 0x9
 281 0165 1E000000 		.4byte	.LVL6
 282 0169 FA010000 		.4byte	0x1fa
 283 016d 09       		.uleb128 0x9
 284 016e 22000000 		.4byte	.LVL7
 285 0172 01020000 		.4byte	0x201
 286 0176 09       		.uleb128 0x9
 287 0177 26000000 		.4byte	.LVL8
 288 017b 08020000 		.4byte	0x208
 289 017f 09       		.uleb128 0x9
 290 0180 2A000000 		.4byte	.LVL9
 291 0184 0F020000 		.4byte	0x20f
 292 0188 09       		.uleb128 0x9
 293 0189 2E000000 		.4byte	.LVL10
 294 018d 16020000 		.4byte	0x216
 295 0191 00       		.byte	0
 296 0192 0D       		.uleb128 0xd
ARM GAS  C:\Users\kelvi\AppData\Local\Temp\ccdThfSN.s 			page 7


 297 0193 D4000000 		.4byte	.LASF37
 298 0197 0B       		.byte	0xb
 299 0198 9606     		.2byte	0x696
 300 019a 9E010000 		.4byte	0x19e
 301 019e 0E       		.uleb128 0xe
 302 019f 8C000000 		.4byte	0x8c
 303 01a3 0F       		.uleb128 0xf
 304 01a4 BB000000 		.4byte	.LASF38
 305 01a8 06       		.byte	0x6
 306 01a9 56       		.byte	0x56
 307 01aa A3000000 		.4byte	0xa3
 308 01ae 10       		.uleb128 0x10
 309 01af A0020000 		.4byte	.LASF19
 310 01b3 05       		.byte	0x5
 311 01b4 BE       		.byte	0xbe
 312 01b5 BF010000 		.4byte	0x1bf
 313 01b9 11       		.uleb128 0x11
 314 01ba 97000000 		.4byte	0x97
 315 01be 00       		.byte	0
 316 01bf 10       		.uleb128 0x10
 317 01c0 93000000 		.4byte	.LASF20
 318 01c4 05       		.byte	0x5
 319 01c5 C3       		.byte	0xc3
 320 01c6 D0010000 		.4byte	0x1d0
 321 01ca 11       		.uleb128 0x11
 322 01cb 97000000 		.4byte	0x97
 323 01cf 00       		.byte	0
 324 01d0 12       		.uleb128 0x12
 325 01d1 C8000000 		.4byte	.LASF21
 326 01d5 05       		.byte	0x5
 327 01d6 92       		.byte	0x92
 328 01d7 12       		.uleb128 0x12
 329 01d8 63000000 		.4byte	.LASF22
 330 01dc 05       		.byte	0x5
 331 01dd DB       		.byte	0xdb
 332 01de 12       		.uleb128 0x12
 333 01df 64020000 		.4byte	.LASF23
 334 01e3 06       		.byte	0x6
 335 01e4 3A       		.byte	0x3a
 336 01e5 12       		.uleb128 0x12
 337 01e6 AD000000 		.4byte	.LASF24
 338 01ea 07       		.byte	0x7
 339 01eb 5A       		.byte	0x5a
 340 01ec 12       		.uleb128 0x12
 341 01ed 70000000 		.4byte	.LASF25
 342 01f1 07       		.byte	0x7
 343 01f2 8B       		.byte	0x8b
 344 01f3 12       		.uleb128 0x12
 345 01f4 1C010000 		.4byte	.LASF26
 346 01f8 08       		.byte	0x8
 347 01f9 4F       		.byte	0x4f
 348 01fa 12       		.uleb128 0x12
 349 01fb 1B000000 		.4byte	.LASF27
 350 01ff 08       		.byte	0x8
 351 0200 71       		.byte	0x71
 352 0201 12       		.uleb128 0x12
 353 0202 FE000000 		.4byte	.LASF28
ARM GAS  C:\Users\kelvi\AppData\Local\Temp\ccdThfSN.s 			page 8


 354 0206 09       		.byte	0x9
 355 0207 17       		.byte	0x17
 356 0208 12       		.uleb128 0x12
 357 0209 50000000 		.4byte	.LASF29
 358 020d 09       		.byte	0x9
 359 020e 23       		.byte	0x23
 360 020f 12       		.uleb128 0x12
 361 0210 00000000 		.4byte	.LASF30
 362 0214 0A       		.byte	0xa
 363 0215 33       		.byte	0x33
 364 0216 12       		.uleb128 0x12
 365 0217 0D000000 		.4byte	.LASF31
 366 021b 0A       		.byte	0xa
 367 021c 3A       		.byte	0x3a
 368 021d 00       		.byte	0
 369              		.section	.debug_abbrev,"",%progbits
 370              	.Ldebug_abbrev0:
 371 0000 01       		.uleb128 0x1
 372 0001 11       		.uleb128 0x11
 373 0002 01       		.byte	0x1
 374 0003 25       		.uleb128 0x25
 375 0004 0E       		.uleb128 0xe
 376 0005 13       		.uleb128 0x13
 377 0006 0B       		.uleb128 0xb
 378 0007 03       		.uleb128 0x3
 379 0008 0E       		.uleb128 0xe
 380 0009 1B       		.uleb128 0x1b
 381 000a 0E       		.uleb128 0xe
 382 000b 55       		.uleb128 0x55
 383 000c 17       		.uleb128 0x17
 384 000d 11       		.uleb128 0x11
 385 000e 01       		.uleb128 0x1
 386 000f 10       		.uleb128 0x10
 387 0010 17       		.uleb128 0x17
 388 0011 00       		.byte	0
 389 0012 00       		.byte	0
 390 0013 02       		.uleb128 0x2
 391 0014 24       		.uleb128 0x24
 392 0015 00       		.byte	0
 393 0016 0B       		.uleb128 0xb
 394 0017 0B       		.uleb128 0xb
 395 0018 3E       		.uleb128 0x3e
 396 0019 0B       		.uleb128 0xb
 397 001a 03       		.uleb128 0x3
 398 001b 0E       		.uleb128 0xe
 399 001c 00       		.byte	0
 400 001d 00       		.byte	0
 401 001e 03       		.uleb128 0x3
 402 001f 16       		.uleb128 0x16
 403 0020 00       		.byte	0
 404 0021 03       		.uleb128 0x3
 405 0022 0E       		.uleb128 0xe
 406 0023 3A       		.uleb128 0x3a
 407 0024 0B       		.uleb128 0xb
 408 0025 3B       		.uleb128 0x3b
 409 0026 0B       		.uleb128 0xb
 410 0027 49       		.uleb128 0x49
ARM GAS  C:\Users\kelvi\AppData\Local\Temp\ccdThfSN.s 			page 9


 411 0028 13       		.uleb128 0x13
 412 0029 00       		.byte	0
 413 002a 00       		.byte	0
 414 002b 04       		.uleb128 0x4
 415 002c 24       		.uleb128 0x24
 416 002d 00       		.byte	0
 417 002e 0B       		.uleb128 0xb
 418 002f 0B       		.uleb128 0xb
 419 0030 3E       		.uleb128 0x3e
 420 0031 0B       		.uleb128 0xb
 421 0032 03       		.uleb128 0x3
 422 0033 08       		.uleb128 0x8
 423 0034 00       		.byte	0
 424 0035 00       		.byte	0
 425 0036 05       		.uleb128 0x5
 426 0037 16       		.uleb128 0x16
 427 0038 00       		.byte	0
 428 0039 03       		.uleb128 0x3
 429 003a 0E       		.uleb128 0xe
 430 003b 3A       		.uleb128 0x3a
 431 003c 0B       		.uleb128 0xb
 432 003d 3B       		.uleb128 0x3b
 433 003e 05       		.uleb128 0x5
 434 003f 49       		.uleb128 0x49
 435 0040 13       		.uleb128 0x13
 436 0041 00       		.byte	0
 437 0042 00       		.byte	0
 438 0043 06       		.uleb128 0x6
 439 0044 2E       		.uleb128 0x2e
 440 0045 01       		.byte	0x1
 441 0046 3F       		.uleb128 0x3f
 442 0047 19       		.uleb128 0x19
 443 0048 03       		.uleb128 0x3
 444 0049 0E       		.uleb128 0xe
 445 004a 3A       		.uleb128 0x3a
 446 004b 0B       		.uleb128 0xb
 447 004c 3B       		.uleb128 0x3b
 448 004d 0B       		.uleb128 0xb
 449 004e 27       		.uleb128 0x27
 450 004f 19       		.uleb128 0x19
 451 0050 49       		.uleb128 0x49
 452 0051 13       		.uleb128 0x13
 453 0052 11       		.uleb128 0x11
 454 0053 01       		.uleb128 0x1
 455 0054 12       		.uleb128 0x12
 456 0055 06       		.uleb128 0x6
 457 0056 40       		.uleb128 0x40
 458 0057 18       		.uleb128 0x18
 459 0058 9742     		.uleb128 0x2117
 460 005a 19       		.uleb128 0x19
 461 005b 01       		.uleb128 0x1
 462 005c 13       		.uleb128 0x13
 463 005d 00       		.byte	0
 464 005e 00       		.byte	0
 465 005f 07       		.uleb128 0x7
 466 0060 0B       		.uleb128 0xb
 467 0061 01       		.byte	0x1
ARM GAS  C:\Users\kelvi\AppData\Local\Temp\ccdThfSN.s 			page 10


 468 0062 11       		.uleb128 0x11
 469 0063 01       		.uleb128 0x1
 470 0064 12       		.uleb128 0x12
 471 0065 06       		.uleb128 0x6
 472 0066 01       		.uleb128 0x1
 473 0067 13       		.uleb128 0x13
 474 0068 00       		.byte	0
 475 0069 00       		.byte	0
 476 006a 08       		.uleb128 0x8
 477 006b 34       		.uleb128 0x34
 478 006c 00       		.byte	0
 479 006d 03       		.uleb128 0x3
 480 006e 0E       		.uleb128 0xe
 481 006f 3A       		.uleb128 0x3a
 482 0070 0B       		.uleb128 0xb
 483 0071 3B       		.uleb128 0x3b
 484 0072 0B       		.uleb128 0xb
 485 0073 49       		.uleb128 0x49
 486 0074 13       		.uleb128 0x13
 487 0075 02       		.uleb128 0x2
 488 0076 18       		.uleb128 0x18
 489 0077 00       		.byte	0
 490 0078 00       		.byte	0
 491 0079 09       		.uleb128 0x9
 492 007a 898201   		.uleb128 0x4109
 493 007d 00       		.byte	0
 494 007e 11       		.uleb128 0x11
 495 007f 01       		.uleb128 0x1
 496 0080 31       		.uleb128 0x31
 497 0081 13       		.uleb128 0x13
 498 0082 00       		.byte	0
 499 0083 00       		.byte	0
 500 0084 0A       		.uleb128 0xa
 501 0085 898201   		.uleb128 0x4109
 502 0088 01       		.byte	0x1
 503 0089 11       		.uleb128 0x11
 504 008a 01       		.uleb128 0x1
 505 008b 31       		.uleb128 0x31
 506 008c 13       		.uleb128 0x13
 507 008d 01       		.uleb128 0x1
 508 008e 13       		.uleb128 0x13
 509 008f 00       		.byte	0
 510 0090 00       		.byte	0
 511 0091 0B       		.uleb128 0xb
 512 0092 8A8201   		.uleb128 0x410a
 513 0095 00       		.byte	0
 514 0096 02       		.uleb128 0x2
 515 0097 18       		.uleb128 0x18
 516 0098 9142     		.uleb128 0x2111
 517 009a 18       		.uleb128 0x18
 518 009b 00       		.byte	0
 519 009c 00       		.byte	0
 520 009d 0C       		.uleb128 0xc
 521 009e 898201   		.uleb128 0x4109
 522 00a1 01       		.byte	0x1
 523 00a2 11       		.uleb128 0x11
 524 00a3 01       		.uleb128 0x1
ARM GAS  C:\Users\kelvi\AppData\Local\Temp\ccdThfSN.s 			page 11


 525 00a4 31       		.uleb128 0x31
 526 00a5 13       		.uleb128 0x13
 527 00a6 00       		.byte	0
 528 00a7 00       		.byte	0
 529 00a8 0D       		.uleb128 0xd
 530 00a9 34       		.uleb128 0x34
 531 00aa 00       		.byte	0
 532 00ab 03       		.uleb128 0x3
 533 00ac 0E       		.uleb128 0xe
 534 00ad 3A       		.uleb128 0x3a
 535 00ae 0B       		.uleb128 0xb
 536 00af 3B       		.uleb128 0x3b
 537 00b0 05       		.uleb128 0x5
 538 00b1 49       		.uleb128 0x49
 539 00b2 13       		.uleb128 0x13
 540 00b3 3F       		.uleb128 0x3f
 541 00b4 19       		.uleb128 0x19
 542 00b5 3C       		.uleb128 0x3c
 543 00b6 19       		.uleb128 0x19
 544 00b7 00       		.byte	0
 545 00b8 00       		.byte	0
 546 00b9 0E       		.uleb128 0xe
 547 00ba 35       		.uleb128 0x35
 548 00bb 00       		.byte	0
 549 00bc 49       		.uleb128 0x49
 550 00bd 13       		.uleb128 0x13
 551 00be 00       		.byte	0
 552 00bf 00       		.byte	0
 553 00c0 0F       		.uleb128 0xf
 554 00c1 2E       		.uleb128 0x2e
 555 00c2 00       		.byte	0
 556 00c3 3F       		.uleb128 0x3f
 557 00c4 19       		.uleb128 0x19
 558 00c5 03       		.uleb128 0x3
 559 00c6 0E       		.uleb128 0xe
 560 00c7 3A       		.uleb128 0x3a
 561 00c8 0B       		.uleb128 0xb
 562 00c9 3B       		.uleb128 0x3b
 563 00ca 0B       		.uleb128 0xb
 564 00cb 27       		.uleb128 0x27
 565 00cc 19       		.uleb128 0x19
 566 00cd 49       		.uleb128 0x49
 567 00ce 13       		.uleb128 0x13
 568 00cf 3C       		.uleb128 0x3c
 569 00d0 19       		.uleb128 0x19
 570 00d1 00       		.byte	0
 571 00d2 00       		.byte	0
 572 00d3 10       		.uleb128 0x10
 573 00d4 2E       		.uleb128 0x2e
 574 00d5 01       		.byte	0x1
 575 00d6 3F       		.uleb128 0x3f
 576 00d7 19       		.uleb128 0x19
 577 00d8 03       		.uleb128 0x3
 578 00d9 0E       		.uleb128 0xe
 579 00da 3A       		.uleb128 0x3a
 580 00db 0B       		.uleb128 0xb
 581 00dc 3B       		.uleb128 0x3b
ARM GAS  C:\Users\kelvi\AppData\Local\Temp\ccdThfSN.s 			page 12


 582 00dd 0B       		.uleb128 0xb
 583 00de 27       		.uleb128 0x27
 584 00df 19       		.uleb128 0x19
 585 00e0 3C       		.uleb128 0x3c
 586 00e1 19       		.uleb128 0x19
 587 00e2 01       		.uleb128 0x1
 588 00e3 13       		.uleb128 0x13
 589 00e4 00       		.byte	0
 590 00e5 00       		.byte	0
 591 00e6 11       		.uleb128 0x11
 592 00e7 05       		.uleb128 0x5
 593 00e8 00       		.byte	0
 594 00e9 49       		.uleb128 0x49
 595 00ea 13       		.uleb128 0x13
 596 00eb 00       		.byte	0
 597 00ec 00       		.byte	0
 598 00ed 12       		.uleb128 0x12
 599 00ee 2E       		.uleb128 0x2e
 600 00ef 00       		.byte	0
 601 00f0 3F       		.uleb128 0x3f
 602 00f1 19       		.uleb128 0x19
 603 00f2 03       		.uleb128 0x3
 604 00f3 0E       		.uleb128 0xe
 605 00f4 3A       		.uleb128 0x3a
 606 00f5 0B       		.uleb128 0xb
 607 00f6 3B       		.uleb128 0x3b
 608 00f7 0B       		.uleb128 0xb
 609 00f8 27       		.uleb128 0x27
 610 00f9 19       		.uleb128 0x19
 611 00fa 3C       		.uleb128 0x3c
 612 00fb 19       		.uleb128 0x19
 613 00fc 00       		.byte	0
 614 00fd 00       		.byte	0
 615 00fe 00       		.byte	0
 616              		.section	.debug_aranges,"",%progbits
 617 0000 1C000000 		.4byte	0x1c
 618 0004 0200     		.2byte	0x2
 619 0006 00000000 		.4byte	.Ldebug_info0
 620 000a 04       		.byte	0x4
 621 000b 00       		.byte	0
 622 000c 0000     		.2byte	0
 623 000e 0000     		.2byte	0
 624 0010 00000000 		.4byte	.LFB63
 625 0014 54000000 		.4byte	.LFE63-.LFB63
 626 0018 00000000 		.4byte	0
 627 001c 00000000 		.4byte	0
 628              		.section	.debug_ranges,"",%progbits
 629              	.Ldebug_ranges0:
 630 0000 00000000 		.4byte	.LFB63
 631 0004 54000000 		.4byte	.LFE63
 632 0008 00000000 		.4byte	0
 633 000c 00000000 		.4byte	0
 634              		.section	.debug_line,"",%progbits
 635              	.Ldebug_line0:
 636 0000 CB010000 		.section	.debug_str,"MS",%progbits,1
 636      02009601 
 636      00000201 
ARM GAS  C:\Users\kelvi\AppData\Local\Temp\ccdThfSN.s 			page 13


 636      FB0E0D00 
 636      01010101 
 637              	.LASF30:
 638 0000 6D795644 		.ascii	"myVDAC_Start\000"
 638      41435F53 
 638      74617274 
 638      00
 639              	.LASF31:
 640 000d 6D795644 		.ascii	"myVDAC_Enable\000"
 640      41435F45 
 640      6E61626C 
 640      6500
 641              	.LASF27:
 642 001b 6D79436F 		.ascii	"myCounter_Enable\000"
 642      756E7465 
 642      725F456E 
 642      61626C65 
 642      00
 643              	.LASF5:
 644 002c 5F5F696E 		.ascii	"__int32_t\000"
 644      7433325F 
 644      7400
 645              	.LASF3:
 646 0036 73686F72 		.ascii	"short unsigned int\000"
 646      7420756E 
 646      7369676E 
 646      65642069 
 646      6E7400
 647              	.LASF16:
 648 0049 646F7562 		.ascii	"double\000"
 648      6C6500
 649              	.LASF29:
 650 0050 6D79496E 		.ascii	"myInterrupt_Enable\000"
 650      74657272 
 650      7570745F 
 650      456E6162 
 650      6C6500
 651              	.LASF22:
 652 0063 6D795057 		.ascii	"myPWM_Enable\000"
 652      4D5F456E 
 652      61626C65 
 652      00
 653              	.LASF25:
 654 0070 6D795469 		.ascii	"myTimer_Enable\000"
 654      6D65725F 
 654      456E6162 
 654      6C6500
 655              	.LASF15:
 656 007f 666C6F61 		.ascii	"float\000"
 656      7400
 657              	.LASF1:
 658 0085 756E7369 		.ascii	"unsigned char\000"
 658      676E6564 
 658      20636861 
 658      7200
 659              	.LASF20:
 660 0093 6D795057 		.ascii	"myPWM_WriteCompare\000"
ARM GAS  C:\Users\kelvi\AppData\Local\Temp\ccdThfSN.s 			page 14


 660      4D5F5772 
 660      69746543 
 660      6F6D7061 
 660      726500
 661              	.LASF36:
 662 00a6 76617241 		.ascii	"varAdc\000"
 662      646300
 663              	.LASF24:
 664 00ad 6D795469 		.ascii	"myTimer_Start\000"
 664      6D65725F 
 664      53746172 
 664      7400
 665              	.LASF38:
 666 00bb 6D794144 		.ascii	"myADC_Read32\000"
 666      435F5265 
 666      61643332 
 666      00
 667              	.LASF21:
 668 00c8 6D795057 		.ascii	"myPWM_Start\000"
 668      4D5F5374 
 668      61727400 
 669              	.LASF37:
 670 00d4 49544D5F 		.ascii	"ITM_RxBuffer\000"
 670      52784275 
 670      66666572 
 670      00
 671              	.LASF4:
 672 00e1 5F5F7569 		.ascii	"__uint16_t\000"
 672      6E743136 
 672      5F7400
 673              	.LASF7:
 674 00ec 6C6F6E67 		.ascii	"long unsigned int\000"
 674      20756E73 
 674      69676E65 
 674      6420696E 
 674      7400
 675              	.LASF28:
 676 00fe 6D79496E 		.ascii	"myInterrupt_Start\000"
 676      74657272 
 676      7570745F 
 676      53746172 
 676      7400
 677              	.LASF35:
 678 0110 6D61696E 		.ascii	"main\000"
 678      00
 679              	.LASF13:
 680 0115 75696E74 		.ascii	"uint16\000"
 680      313600
 681              	.LASF26:
 682 011c 6D79436F 		.ascii	"myCounter_Start\000"
 682      756E7465 
 682      725F5374 
 682      61727400 
 683              	.LASF32:
 684 012c 474E5520 		.ascii	"GNU C 4.9.3 20150303 (release) [ARM/embedded-4_9-br"
 684      4320342E 
 684      392E3320 
ARM GAS  C:\Users\kelvi\AppData\Local\Temp\ccdThfSN.s 			page 15


 684      32303135 
 684      30333033 
 685 015f 616E6368 		.ascii	"anch revision 221220] -mcpu=cortex-m3 -mthumb -g -O"
 685      20726576 
 685      6973696F 
 685      6E203232 
 685      31323230 
 686 0192 67202D66 		.ascii	"g -ffunction-sections -ffat-lto-objects\000"
 686      66756E63 
 686      74696F6E 
 686      2D736563 
 686      74696F6E 
 687              	.LASF10:
 688 01ba 756E7369 		.ascii	"unsigned int\000"
 688      676E6564 
 688      20696E74 
 688      00
 689              	.LASF9:
 690 01c7 6C6F6E67 		.ascii	"long long unsigned int\000"
 690      206C6F6E 
 690      6720756E 
 690      7369676E 
 690      65642069 
 691              	.LASF34:
 692 01de 433A5C55 		.ascii	"C:\\Users\\kelvi\\OneDrive\\Documents\\school files"
 692      73657273 
 692      5C6B656C 
 692      76695C4F 
 692      6E654472 
 693 020c 5C737072 		.ascii	"\\spring 2017\\cs121\\lab1\\lab1.cydsn\\part3.cydsn"
 693      696E6720 
 693      32303137 
 693      5C637331 
 693      32315C6C 
 694 023a 00       		.ascii	"\000"
 695              	.LASF14:
 696 023b 696E7433 		.ascii	"int32\000"
 696      3200
 697              	.LASF18:
 698 0241 73697A65 		.ascii	"sizetype\000"
 698      74797065 
 698      00
 699              	.LASF8:
 700 024a 6C6F6E67 		.ascii	"long long int\000"
 700      206C6F6E 
 700      6720696E 
 700      7400
 701              	.LASF33:
 702 0258 6D61696E 		.ascii	"main.c\000"
 702      2E6300
 703              	.LASF17:
 704 025f 63686172 		.ascii	"char\000"
 704      00
 705              	.LASF23:
 706 0264 6D794144 		.ascii	"myADC_Start\000"
 706      435F5374 
 706      61727400 
ARM GAS  C:\Users\kelvi\AppData\Local\Temp\ccdThfSN.s 			page 16


 707              	.LASF12:
 708 0270 696E7433 		.ascii	"int32_t\000"
 708      325F7400 
 709              	.LASF2:
 710 0278 73686F72 		.ascii	"short int\000"
 710      7420696E 
 710      7400
 711              	.LASF11:
 712 0282 75696E74 		.ascii	"uint16_t\000"
 712      31365F74 
 712      00
 713              	.LASF6:
 714 028b 6C6F6E67 		.ascii	"long int\000"
 714      20696E74 
 714      00
 715              	.LASF0:
 716 0294 7369676E 		.ascii	"signed char\000"
 716      65642063 
 716      68617200 
 717              	.LASF19:
 718 02a0 6D795057 		.ascii	"myPWM_WritePeriod\000"
 718      4D5F5772 
 718      69746550 
 718      6572696F 
 718      6400
 719              		.ident	"GCC: (GNU Tools for ARM Embedded Processors) 4.9.3 20150303 (release) [ARM/embedded-4_9-br
