ARM GAS  C:\Users\kelvi\AppData\Local\Temp\ccgWx9pP.s 			page 1


   1              		.syntax unified
   2              		.cpu cortex-m3
   3              		.fpu softvfp
   4              		.eabi_attribute 20, 1
   5              		.eabi_attribute 21, 1
   6              		.eabi_attribute 23, 3
   7              		.eabi_attribute 24, 1
   8              		.eabi_attribute 25, 1
   9              		.eabi_attribute 26, 1
  10              		.eabi_attribute 30, 1
  11              		.eabi_attribute 34, 1
  12              		.eabi_attribute 18, 4
  13              		.thumb
  14              		.file	"myVDAC_PM.c"
  15              		.text
  16              	.Ltext0:
  17              		.cfi_sections	.debug_frame
  18              		.section	.text.myVDAC_SaveConfig,"ax",%progbits
  19              		.align	2
  20              		.global	myVDAC_SaveConfig
  21              		.thumb
  22              		.thumb_func
  23              		.type	myVDAC_SaveConfig, %function
  24              	myVDAC_SaveConfig:
  25              	.LFB0:
  26              		.file 1 "Generated_Source\\PSoC5\\myVDAC_PM.c"
   1:Generated_Source\PSoC5/myVDAC_PM.c **** /*******************************************************************************
   2:Generated_Source\PSoC5/myVDAC_PM.c **** * File Name: myVDAC_PM.c  
   3:Generated_Source\PSoC5/myVDAC_PM.c **** * Version 1.90
   4:Generated_Source\PSoC5/myVDAC_PM.c **** *
   5:Generated_Source\PSoC5/myVDAC_PM.c **** * Description:
   6:Generated_Source\PSoC5/myVDAC_PM.c **** *  This file provides the power management source code to API for the
   7:Generated_Source\PSoC5/myVDAC_PM.c **** *  VDAC8.  
   8:Generated_Source\PSoC5/myVDAC_PM.c **** *
   9:Generated_Source\PSoC5/myVDAC_PM.c **** * Note:
  10:Generated_Source\PSoC5/myVDAC_PM.c **** *  None
  11:Generated_Source\PSoC5/myVDAC_PM.c **** *
  12:Generated_Source\PSoC5/myVDAC_PM.c **** ********************************************************************************
  13:Generated_Source\PSoC5/myVDAC_PM.c **** * Copyright 2008-2012, Cypress Semiconductor Corporation.  All rights reserved.
  14:Generated_Source\PSoC5/myVDAC_PM.c **** * You may use this file only in accordance with the license, terms, conditions, 
  15:Generated_Source\PSoC5/myVDAC_PM.c **** * disclaimers, and limitations in the end user license agreement accompanying 
  16:Generated_Source\PSoC5/myVDAC_PM.c **** * the software package with which this file was provided.
  17:Generated_Source\PSoC5/myVDAC_PM.c **** *******************************************************************************/
  18:Generated_Source\PSoC5/myVDAC_PM.c **** 
  19:Generated_Source\PSoC5/myVDAC_PM.c **** #include "myVDAC.h"
  20:Generated_Source\PSoC5/myVDAC_PM.c **** 
  21:Generated_Source\PSoC5/myVDAC_PM.c **** static myVDAC_backupStruct myVDAC_backup;
  22:Generated_Source\PSoC5/myVDAC_PM.c **** 
  23:Generated_Source\PSoC5/myVDAC_PM.c **** 
  24:Generated_Source\PSoC5/myVDAC_PM.c **** /*******************************************************************************
  25:Generated_Source\PSoC5/myVDAC_PM.c **** * Function Name: myVDAC_SaveConfig
  26:Generated_Source\PSoC5/myVDAC_PM.c **** ********************************************************************************
  27:Generated_Source\PSoC5/myVDAC_PM.c **** * Summary:
  28:Generated_Source\PSoC5/myVDAC_PM.c **** *  Save the current user configuration
  29:Generated_Source\PSoC5/myVDAC_PM.c **** *
  30:Generated_Source\PSoC5/myVDAC_PM.c **** * Parameters:  
  31:Generated_Source\PSoC5/myVDAC_PM.c **** *  void  
ARM GAS  C:\Users\kelvi\AppData\Local\Temp\ccgWx9pP.s 			page 2


  32:Generated_Source\PSoC5/myVDAC_PM.c **** *
  33:Generated_Source\PSoC5/myVDAC_PM.c **** * Return: 
  34:Generated_Source\PSoC5/myVDAC_PM.c **** *  void
  35:Generated_Source\PSoC5/myVDAC_PM.c **** *
  36:Generated_Source\PSoC5/myVDAC_PM.c **** *******************************************************************************/
  37:Generated_Source\PSoC5/myVDAC_PM.c **** void myVDAC_SaveConfig(void) 
  38:Generated_Source\PSoC5/myVDAC_PM.c **** {
  27              		.loc 1 38 0
  28              		.cfi_startproc
  29              		@ args = 0, pretend = 0, frame = 0
  30              		@ frame_needed = 0, uses_anonymous_args = 0
  31              		@ link register save eliminated.
  39:Generated_Source\PSoC5/myVDAC_PM.c ****     if (!((myVDAC_CR1 & myVDAC_SRC_MASK) == myVDAC_SRC_UDB))
  32              		.loc 1 39 0
  33 0000 044B     		ldr	r3, .L3
  34 0002 1B78     		ldrb	r3, [r3]	@ zero_extendqisi2
  35 0004 13F0200F 		tst	r3, #32
  36 0008 03D1     		bne	.L1
  40:Generated_Source\PSoC5/myVDAC_PM.c ****     {
  41:Generated_Source\PSoC5/myVDAC_PM.c ****         myVDAC_backup.data_value = myVDAC_Data;
  37              		.loc 1 41 0
  38 000a 034B     		ldr	r3, .L3+4
  39 000c 1A78     		ldrb	r2, [r3]	@ zero_extendqisi2
  40 000e 034B     		ldr	r3, .L3+8
  41 0010 5A70     		strb	r2, [r3, #1]
  42              	.L1:
  43 0012 7047     		bx	lr
  44              	.L4:
  45              		.align	2
  46              	.L3:
  47 0014 21580040 		.word	1073764385
  48 0018 805B0040 		.word	1073765248
  49 001c 00000000 		.word	.LANCHOR0
  50              		.cfi_endproc
  51              	.LFE0:
  52              		.size	myVDAC_SaveConfig, .-myVDAC_SaveConfig
  53              		.section	.text.myVDAC_RestoreConfig,"ax",%progbits
  54              		.align	2
  55              		.global	myVDAC_RestoreConfig
  56              		.thumb
  57              		.thumb_func
  58              		.type	myVDAC_RestoreConfig, %function
  59              	myVDAC_RestoreConfig:
  60              	.LFB1:
  42:Generated_Source\PSoC5/myVDAC_PM.c ****     }
  43:Generated_Source\PSoC5/myVDAC_PM.c **** }
  44:Generated_Source\PSoC5/myVDAC_PM.c **** 
  45:Generated_Source\PSoC5/myVDAC_PM.c **** 
  46:Generated_Source\PSoC5/myVDAC_PM.c **** /*******************************************************************************
  47:Generated_Source\PSoC5/myVDAC_PM.c **** * Function Name: myVDAC_RestoreConfig
  48:Generated_Source\PSoC5/myVDAC_PM.c **** ********************************************************************************
  49:Generated_Source\PSoC5/myVDAC_PM.c **** *
  50:Generated_Source\PSoC5/myVDAC_PM.c **** * Summary:
  51:Generated_Source\PSoC5/myVDAC_PM.c **** *  Restores the current user configuration.
  52:Generated_Source\PSoC5/myVDAC_PM.c **** *
  53:Generated_Source\PSoC5/myVDAC_PM.c **** * Parameters:  
  54:Generated_Source\PSoC5/myVDAC_PM.c **** *  void
ARM GAS  C:\Users\kelvi\AppData\Local\Temp\ccgWx9pP.s 			page 3


  55:Generated_Source\PSoC5/myVDAC_PM.c **** *
  56:Generated_Source\PSoC5/myVDAC_PM.c **** * Return: 
  57:Generated_Source\PSoC5/myVDAC_PM.c **** *  void
  58:Generated_Source\PSoC5/myVDAC_PM.c **** *
  59:Generated_Source\PSoC5/myVDAC_PM.c **** *******************************************************************************/
  60:Generated_Source\PSoC5/myVDAC_PM.c **** void myVDAC_RestoreConfig(void) 
  61:Generated_Source\PSoC5/myVDAC_PM.c **** {
  61              		.loc 1 61 0
  62              		.cfi_startproc
  63              		@ args = 0, pretend = 0, frame = 0
  64              		@ frame_needed = 0, uses_anonymous_args = 0
  65              		@ link register save eliminated.
  62:Generated_Source\PSoC5/myVDAC_PM.c ****     if (!((myVDAC_CR1 & myVDAC_SRC_MASK) == myVDAC_SRC_UDB))
  66              		.loc 1 62 0
  67 0000 0E4B     		ldr	r3, .L8
  68 0002 1B78     		ldrb	r3, [r3]	@ zero_extendqisi2
  69 0004 13F0200F 		tst	r3, #32
  70 0008 16D1     		bne	.L5
  63:Generated_Source\PSoC5/myVDAC_PM.c ****     {
  64:Generated_Source\PSoC5/myVDAC_PM.c ****         if((myVDAC_Strobe & myVDAC_STRB_MASK) == myVDAC_STRB_EN)
  71              		.loc 1 64 0
  72 000a 0D4B     		ldr	r3, .L8+4
  73 000c 1B78     		ldrb	r3, [r3]	@ zero_extendqisi2
  74 000e 13F0080F 		tst	r3, #8
  75 0012 0DD0     		beq	.L7
  65:Generated_Source\PSoC5/myVDAC_PM.c ****         {
  66:Generated_Source\PSoC5/myVDAC_PM.c ****             myVDAC_Strobe &= (uint8)(~myVDAC_STRB_MASK);
  76              		.loc 1 66 0
  77 0014 0A4B     		ldr	r3, .L8+4
  78 0016 1A78     		ldrb	r2, [r3]	@ zero_extendqisi2
  79 0018 02F0F702 		and	r2, r2, #247
  80 001c 1A70     		strb	r2, [r3]
  67:Generated_Source\PSoC5/myVDAC_PM.c ****             myVDAC_Data = myVDAC_backup.data_value;
  81              		.loc 1 67 0
  82 001e 094A     		ldr	r2, .L8+8
  83 0020 5178     		ldrb	r1, [r2, #1]	@ zero_extendqisi2
  84 0022 094A     		ldr	r2, .L8+12
  85 0024 1170     		strb	r1, [r2]
  68:Generated_Source\PSoC5/myVDAC_PM.c ****             myVDAC_Strobe |= myVDAC_STRB_EN;
  86              		.loc 1 68 0
  87 0026 1A78     		ldrb	r2, [r3]	@ zero_extendqisi2
  88 0028 42F00802 		orr	r2, r2, #8
  89 002c 1A70     		strb	r2, [r3]
  90 002e 7047     		bx	lr
  91              	.L7:
  69:Generated_Source\PSoC5/myVDAC_PM.c ****         }
  70:Generated_Source\PSoC5/myVDAC_PM.c ****         else
  71:Generated_Source\PSoC5/myVDAC_PM.c ****         {
  72:Generated_Source\PSoC5/myVDAC_PM.c ****             myVDAC_Data = myVDAC_backup.data_value;
  92              		.loc 1 72 0
  93 0030 044B     		ldr	r3, .L8+8
  94 0032 5A78     		ldrb	r2, [r3, #1]	@ zero_extendqisi2
  95 0034 044B     		ldr	r3, .L8+12
  96 0036 1A70     		strb	r2, [r3]
  97              	.L5:
  98 0038 7047     		bx	lr
  99              	.L9:
ARM GAS  C:\Users\kelvi\AppData\Local\Temp\ccgWx9pP.s 			page 4


 100 003a 00BF     		.align	2
 101              	.L8:
 102 003c 21580040 		.word	1073764385
 103 0040 875A0040 		.word	1073764999
 104 0044 00000000 		.word	.LANCHOR0
 105 0048 805B0040 		.word	1073765248
 106              		.cfi_endproc
 107              	.LFE1:
 108              		.size	myVDAC_RestoreConfig, .-myVDAC_RestoreConfig
 109              		.section	.text.myVDAC_Sleep,"ax",%progbits
 110              		.align	2
 111              		.global	myVDAC_Sleep
 112              		.thumb
 113              		.thumb_func
 114              		.type	myVDAC_Sleep, %function
 115              	myVDAC_Sleep:
 116              	.LFB2:
  73:Generated_Source\PSoC5/myVDAC_PM.c ****         }
  74:Generated_Source\PSoC5/myVDAC_PM.c ****     }
  75:Generated_Source\PSoC5/myVDAC_PM.c **** }
  76:Generated_Source\PSoC5/myVDAC_PM.c **** 
  77:Generated_Source\PSoC5/myVDAC_PM.c **** 
  78:Generated_Source\PSoC5/myVDAC_PM.c **** /*******************************************************************************
  79:Generated_Source\PSoC5/myVDAC_PM.c **** * Function Name: myVDAC_Sleep
  80:Generated_Source\PSoC5/myVDAC_PM.c **** ********************************************************************************
  81:Generated_Source\PSoC5/myVDAC_PM.c **** * Summary:
  82:Generated_Source\PSoC5/myVDAC_PM.c **** *  Stop and Save the user configuration
  83:Generated_Source\PSoC5/myVDAC_PM.c **** *
  84:Generated_Source\PSoC5/myVDAC_PM.c **** * Parameters:  
  85:Generated_Source\PSoC5/myVDAC_PM.c **** *  void:  
  86:Generated_Source\PSoC5/myVDAC_PM.c **** *
  87:Generated_Source\PSoC5/myVDAC_PM.c **** * Return: 
  88:Generated_Source\PSoC5/myVDAC_PM.c **** *  void
  89:Generated_Source\PSoC5/myVDAC_PM.c **** *
  90:Generated_Source\PSoC5/myVDAC_PM.c **** * Global variables:
  91:Generated_Source\PSoC5/myVDAC_PM.c **** *  myVDAC_backup.enableState:  Is modified depending on the enable 
  92:Generated_Source\PSoC5/myVDAC_PM.c **** *  state  of the block before entering sleep mode.
  93:Generated_Source\PSoC5/myVDAC_PM.c **** *
  94:Generated_Source\PSoC5/myVDAC_PM.c **** *******************************************************************************/
  95:Generated_Source\PSoC5/myVDAC_PM.c **** void myVDAC_Sleep(void) 
  96:Generated_Source\PSoC5/myVDAC_PM.c **** {
 117              		.loc 1 96 0
 118              		.cfi_startproc
 119              		@ args = 0, pretend = 0, frame = 0
 120              		@ frame_needed = 0, uses_anonymous_args = 0
 121 0000 08B5     		push	{r3, lr}
 122              		.cfi_def_cfa_offset 8
 123              		.cfi_offset 3, -8
 124              		.cfi_offset 14, -4
  97:Generated_Source\PSoC5/myVDAC_PM.c ****     /* Save VDAC8's enable state */    
  98:Generated_Source\PSoC5/myVDAC_PM.c ****     if(myVDAC_ACT_PWR_EN == (myVDAC_PWRMGR & myVDAC_ACT_PWR_EN))
 125              		.loc 1 98 0
 126 0002 084B     		ldr	r3, .L14
 127 0004 1B78     		ldrb	r3, [r3]	@ zero_extendqisi2
 128 0006 13F0010F 		tst	r3, #1
 129 000a 03D0     		beq	.L11
  99:Generated_Source\PSoC5/myVDAC_PM.c ****     {
ARM GAS  C:\Users\kelvi\AppData\Local\Temp\ccgWx9pP.s 			page 5


 100:Generated_Source\PSoC5/myVDAC_PM.c ****         /* VDAC8 is enabled */
 101:Generated_Source\PSoC5/myVDAC_PM.c ****         myVDAC_backup.enableState = 1u;
 130              		.loc 1 101 0
 131 000c 0122     		movs	r2, #1
 132 000e 064B     		ldr	r3, .L14+4
 133 0010 1A70     		strb	r2, [r3]
 134 0012 02E0     		b	.L12
 135              	.L11:
 102:Generated_Source\PSoC5/myVDAC_PM.c ****     }
 103:Generated_Source\PSoC5/myVDAC_PM.c ****     else
 104:Generated_Source\PSoC5/myVDAC_PM.c ****     {
 105:Generated_Source\PSoC5/myVDAC_PM.c ****         /* VDAC8 is disabled */
 106:Generated_Source\PSoC5/myVDAC_PM.c ****         myVDAC_backup.enableState = 0u;
 136              		.loc 1 106 0
 137 0014 0022     		movs	r2, #0
 138 0016 044B     		ldr	r3, .L14+4
 139 0018 1A70     		strb	r2, [r3]
 140              	.L12:
 107:Generated_Source\PSoC5/myVDAC_PM.c ****     }
 108:Generated_Source\PSoC5/myVDAC_PM.c ****     
 109:Generated_Source\PSoC5/myVDAC_PM.c ****     myVDAC_Stop();
 141              		.loc 1 109 0
 142 001a FFF7FEFF 		bl	myVDAC_Stop
 143              	.LVL0:
 110:Generated_Source\PSoC5/myVDAC_PM.c ****     myVDAC_SaveConfig();
 144              		.loc 1 110 0
 145 001e FFF7FEFF 		bl	myVDAC_SaveConfig
 146              	.LVL1:
 147 0022 08BD     		pop	{r3, pc}
 148              	.L15:
 149              		.align	2
 150              	.L14:
 151 0024 A8430040 		.word	1073759144
 152 0028 00000000 		.word	.LANCHOR0
 153              		.cfi_endproc
 154              	.LFE2:
 155              		.size	myVDAC_Sleep, .-myVDAC_Sleep
 156              		.section	.text.myVDAC_Wakeup,"ax",%progbits
 157              		.align	2
 158              		.global	myVDAC_Wakeup
 159              		.thumb
 160              		.thumb_func
 161              		.type	myVDAC_Wakeup, %function
 162              	myVDAC_Wakeup:
 163              	.LFB3:
 111:Generated_Source\PSoC5/myVDAC_PM.c **** }
 112:Generated_Source\PSoC5/myVDAC_PM.c **** 
 113:Generated_Source\PSoC5/myVDAC_PM.c **** 
 114:Generated_Source\PSoC5/myVDAC_PM.c **** /*******************************************************************************
 115:Generated_Source\PSoC5/myVDAC_PM.c **** * Function Name: myVDAC_Wakeup
 116:Generated_Source\PSoC5/myVDAC_PM.c **** ********************************************************************************
 117:Generated_Source\PSoC5/myVDAC_PM.c **** *
 118:Generated_Source\PSoC5/myVDAC_PM.c **** * Summary:
 119:Generated_Source\PSoC5/myVDAC_PM.c **** *  Restores and enables the user configuration
 120:Generated_Source\PSoC5/myVDAC_PM.c **** *  
 121:Generated_Source\PSoC5/myVDAC_PM.c **** * Parameters:  
 122:Generated_Source\PSoC5/myVDAC_PM.c **** *  void
ARM GAS  C:\Users\kelvi\AppData\Local\Temp\ccgWx9pP.s 			page 6


 123:Generated_Source\PSoC5/myVDAC_PM.c **** *
 124:Generated_Source\PSoC5/myVDAC_PM.c **** * Return: 
 125:Generated_Source\PSoC5/myVDAC_PM.c **** *  void
 126:Generated_Source\PSoC5/myVDAC_PM.c **** *
 127:Generated_Source\PSoC5/myVDAC_PM.c **** * Global variables:
 128:Generated_Source\PSoC5/myVDAC_PM.c **** *  myVDAC_backup.enableState:  Is used to restore the enable state of 
 129:Generated_Source\PSoC5/myVDAC_PM.c **** *  block on wakeup from sleep mode.
 130:Generated_Source\PSoC5/myVDAC_PM.c **** *
 131:Generated_Source\PSoC5/myVDAC_PM.c **** *******************************************************************************/
 132:Generated_Source\PSoC5/myVDAC_PM.c **** void myVDAC_Wakeup(void) 
 133:Generated_Source\PSoC5/myVDAC_PM.c **** {
 164              		.loc 1 133 0
 165              		.cfi_startproc
 166              		@ args = 0, pretend = 0, frame = 0
 167              		@ frame_needed = 0, uses_anonymous_args = 0
 168 0000 08B5     		push	{r3, lr}
 169              		.cfi_def_cfa_offset 8
 170              		.cfi_offset 3, -8
 171              		.cfi_offset 14, -4
 134:Generated_Source\PSoC5/myVDAC_PM.c ****     myVDAC_RestoreConfig();
 172              		.loc 1 134 0
 173 0002 FFF7FEFF 		bl	myVDAC_RestoreConfig
 174              	.LVL2:
 135:Generated_Source\PSoC5/myVDAC_PM.c ****     
 136:Generated_Source\PSoC5/myVDAC_PM.c ****     if(myVDAC_backup.enableState == 1u)
 175              		.loc 1 136 0
 176 0006 054B     		ldr	r3, .L19
 177 0008 1B78     		ldrb	r3, [r3]	@ zero_extendqisi2
 178 000a 012B     		cmp	r3, #1
 179 000c 05D1     		bne	.L16
 137:Generated_Source\PSoC5/myVDAC_PM.c ****     {
 138:Generated_Source\PSoC5/myVDAC_PM.c ****         /* Enable VDAC8's operation */
 139:Generated_Source\PSoC5/myVDAC_PM.c ****         myVDAC_Enable();
 180              		.loc 1 139 0
 181 000e FFF7FEFF 		bl	myVDAC_Enable
 182              	.LVL3:
 140:Generated_Source\PSoC5/myVDAC_PM.c **** 
 141:Generated_Source\PSoC5/myVDAC_PM.c ****         /* Restore the data register */
 142:Generated_Source\PSoC5/myVDAC_PM.c ****         myVDAC_SetValue(myVDAC_Data);
 183              		.loc 1 142 0
 184 0012 034B     		ldr	r3, .L19+4
 185 0014 1878     		ldrb	r0, [r3]	@ zero_extendqisi2
 186 0016 FFF7FEFF 		bl	myVDAC_SetValue
 187              	.LVL4:
 188              	.L16:
 189 001a 08BD     		pop	{r3, pc}
 190              	.L20:
 191              		.align	2
 192              	.L19:
 193 001c 00000000 		.word	.LANCHOR0
 194 0020 805B0040 		.word	1073765248
 195              		.cfi_endproc
 196              	.LFE3:
 197              		.size	myVDAC_Wakeup, .-myVDAC_Wakeup
 198              		.bss
 199              		.align	2
 200              		.set	.LANCHOR0,. + 0
ARM GAS  C:\Users\kelvi\AppData\Local\Temp\ccgWx9pP.s 			page 7


 201              		.type	myVDAC_backup, %object
 202              		.size	myVDAC_backup, 2
 203              	myVDAC_backup:
 204 0000 0000     		.space	2
 205 0002 0000     		.text
 206              	.Letext0:
 207              		.file 2 "Generated_Source\\PSoC5\\cytypes.h"
 208              		.file 3 "Generated_Source\\PSoC5\\myVDAC.h"
 209              		.section	.debug_info,"",%progbits
 210              	.Ldebug_info0:
 211 0000 6D010000 		.4byte	0x16d
 212 0004 0400     		.2byte	0x4
 213 0006 00000000 		.4byte	.Ldebug_abbrev0
 214 000a 04       		.byte	0x4
 215 000b 01       		.uleb128 0x1
 216 000c C6000000 		.4byte	.LASF23
 217 0010 01       		.byte	0x1
 218 0011 41000000 		.4byte	.LASF24
 219 0015 78010000 		.4byte	.LASF25
 220 0019 00000000 		.4byte	.Ldebug_ranges0+0
 221 001d 00000000 		.4byte	0
 222 0021 00000000 		.4byte	.Ldebug_line0
 223 0025 02       		.uleb128 0x2
 224 0026 01       		.byte	0x1
 225 0027 06       		.byte	0x6
 226 0028 3A020000 		.4byte	.LASF0
 227 002c 02       		.uleb128 0x2
 228 002d 01       		.byte	0x1
 229 002e 08       		.byte	0x8
 230 002f 64000000 		.4byte	.LASF1
 231 0033 02       		.uleb128 0x2
 232 0034 02       		.byte	0x2
 233 0035 05       		.byte	0x5
 234 0036 15020000 		.4byte	.LASF2
 235 003a 02       		.uleb128 0x2
 236 003b 02       		.byte	0x2
 237 003c 07       		.byte	0x7
 238 003d 97000000 		.4byte	.LASF3
 239 0041 02       		.uleb128 0x2
 240 0042 04       		.byte	0x4
 241 0043 05       		.byte	0x5
 242 0044 25020000 		.4byte	.LASF4
 243 0048 02       		.uleb128 0x2
 244 0049 04       		.byte	0x4
 245 004a 07       		.byte	0x7
 246 004b 85000000 		.4byte	.LASF5
 247 004f 02       		.uleb128 0x2
 248 0050 08       		.byte	0x8
 249 0051 05       		.byte	0x5
 250 0052 F6010000 		.4byte	.LASF6
 251 0056 02       		.uleb128 0x2
 252 0057 08       		.byte	0x8
 253 0058 07       		.byte	0x7
 254 0059 61010000 		.4byte	.LASF7
 255 005d 03       		.uleb128 0x3
 256 005e 04       		.byte	0x4
 257 005f 05       		.byte	0x5
ARM GAS  C:\Users\kelvi\AppData\Local\Temp\ccgWx9pP.s 			page 8


 258 0060 696E7400 		.ascii	"int\000"
 259 0064 02       		.uleb128 0x2
 260 0065 04       		.byte	0x4
 261 0066 07       		.byte	0x7
 262 0067 54010000 		.4byte	.LASF8
 263 006b 04       		.uleb128 0x4
 264 006c 1F020000 		.4byte	.LASF12
 265 0070 02       		.byte	0x2
 266 0071 9201     		.2byte	0x192
 267 0073 2C000000 		.4byte	0x2c
 268 0077 02       		.uleb128 0x2
 269 0078 04       		.byte	0x4
 270 0079 04       		.byte	0x4
 271 007a 3B000000 		.4byte	.LASF9
 272 007e 02       		.uleb128 0x2
 273 007f 08       		.byte	0x8
 274 0080 04       		.byte	0x4
 275 0081 AA000000 		.4byte	.LASF10
 276 0085 02       		.uleb128 0x2
 277 0086 01       		.byte	0x1
 278 0087 08       		.byte	0x8
 279 0088 04020000 		.4byte	.LASF11
 280 008c 04       		.uleb128 0x4
 281 008d 80000000 		.4byte	.LASF13
 282 0091 02       		.byte	0x2
 283 0092 3C02     		.2byte	0x23c
 284 0094 98000000 		.4byte	0x98
 285 0098 05       		.uleb128 0x5
 286 0099 6B000000 		.4byte	0x6b
 287 009d 06       		.uleb128 0x6
 288 009e 02       		.byte	0x2
 289 009f 03       		.byte	0x3
 290 00a0 25       		.byte	0x25
 291 00a1 BE000000 		.4byte	0xbe
 292 00a5 07       		.uleb128 0x7
 293 00a6 2E020000 		.4byte	.LASF14
 294 00aa 03       		.byte	0x3
 295 00ab 27       		.byte	0x27
 296 00ac 6B000000 		.4byte	0x6b
 297 00b0 00       		.byte	0
 298 00b1 07       		.uleb128 0x7
 299 00b2 30000000 		.4byte	.LASF15
 300 00b6 03       		.byte	0x3
 301 00b7 28       		.byte	0x28
 302 00b8 6B000000 		.4byte	0x6b
 303 00bc 01       		.byte	0x1
 304 00bd 00       		.byte	0
 305 00be 08       		.uleb128 0x8
 306 00bf D5010000 		.4byte	.LASF16
 307 00c3 03       		.byte	0x3
 308 00c4 29       		.byte	0x29
 309 00c5 9D000000 		.4byte	0x9d
 310 00c9 09       		.uleb128 0x9
 311 00ca 1E000000 		.4byte	.LASF17
 312 00ce 01       		.byte	0x1
 313 00cf 25       		.byte	0x25
 314 00d0 00000000 		.4byte	.LFB0
ARM GAS  C:\Users\kelvi\AppData\Local\Temp\ccgWx9pP.s 			page 9


 315 00d4 20000000 		.4byte	.LFE0-.LFB0
 316 00d8 01       		.uleb128 0x1
 317 00d9 9C       		.byte	0x9c
 318 00da 09       		.uleb128 0x9
 319 00db B1000000 		.4byte	.LASF18
 320 00df 01       		.byte	0x1
 321 00e0 3C       		.byte	0x3c
 322 00e1 00000000 		.4byte	.LFB1
 323 00e5 4C000000 		.4byte	.LFE1-.LFB1
 324 00e9 01       		.uleb128 0x1
 325 00ea 9C       		.byte	0x9c
 326 00eb 0A       		.uleb128 0xa
 327 00ec E9010000 		.4byte	.LASF19
 328 00f0 01       		.byte	0x1
 329 00f1 5F       		.byte	0x5f
 330 00f2 00000000 		.4byte	.LFB2
 331 00f6 2C000000 		.4byte	.LFE2-.LFB2
 332 00fa 01       		.uleb128 0x1
 333 00fb 9C       		.byte	0x9c
 334 00fc 13010000 		.4byte	0x113
 335 0100 0B       		.uleb128 0xb
 336 0101 1E000000 		.4byte	.LVL0
 337 0105 55010000 		.4byte	0x155
 338 0109 0B       		.uleb128 0xb
 339 010a 22000000 		.4byte	.LVL1
 340 010e C9000000 		.4byte	0xc9
 341 0112 00       		.byte	0
 342 0113 0A       		.uleb128 0xa
 343 0114 46020000 		.4byte	.LASF20
 344 0118 01       		.byte	0x1
 345 0119 84       		.byte	0x84
 346 011a 00000000 		.4byte	.LFB3
 347 011e 24000000 		.4byte	.LFE3-.LFB3
 348 0122 01       		.uleb128 0x1
 349 0123 9C       		.byte	0x9c
 350 0124 44010000 		.4byte	0x144
 351 0128 0B       		.uleb128 0xb
 352 0129 06000000 		.4byte	.LVL2
 353 012d DA000000 		.4byte	0xda
 354 0131 0B       		.uleb128 0xb
 355 0132 12000000 		.4byte	.LVL3
 356 0136 5C010000 		.4byte	0x15c
 357 013a 0B       		.uleb128 0xb
 358 013b 1A000000 		.4byte	.LVL4
 359 013f 63010000 		.4byte	0x163
 360 0143 00       		.byte	0
 361 0144 0C       		.uleb128 0xc
 362 0145 72000000 		.4byte	.LASF26
 363 0149 01       		.byte	0x1
 364 014a 15       		.byte	0x15
 365 014b BE000000 		.4byte	0xbe
 366 014f 05       		.uleb128 0x5
 367 0150 03       		.byte	0x3
 368 0151 00000000 		.4byte	myVDAC_backup
 369 0155 0D       		.uleb128 0xd
 370 0156 09020000 		.4byte	.LASF21
 371 015a 03       		.byte	0x3
ARM GAS  C:\Users\kelvi\AppData\Local\Temp\ccgWx9pP.s 			page 10


 372 015b 34       		.byte	0x34
 373 015c 0D       		.uleb128 0xd
 374 015d 00000000 		.4byte	.LASF22
 375 0161 03       		.byte	0x3
 376 0162 3A       		.byte	0x3a
 377 0163 0E       		.uleb128 0xe
 378 0164 0E000000 		.4byte	.LASF27
 379 0168 03       		.byte	0x3
 380 0169 37       		.byte	0x37
 381 016a 0F       		.uleb128 0xf
 382 016b 6B000000 		.4byte	0x6b
 383 016f 00       		.byte	0
 384 0170 00       		.byte	0
 385              		.section	.debug_abbrev,"",%progbits
 386              	.Ldebug_abbrev0:
 387 0000 01       		.uleb128 0x1
 388 0001 11       		.uleb128 0x11
 389 0002 01       		.byte	0x1
 390 0003 25       		.uleb128 0x25
 391 0004 0E       		.uleb128 0xe
 392 0005 13       		.uleb128 0x13
 393 0006 0B       		.uleb128 0xb
 394 0007 03       		.uleb128 0x3
 395 0008 0E       		.uleb128 0xe
 396 0009 1B       		.uleb128 0x1b
 397 000a 0E       		.uleb128 0xe
 398 000b 55       		.uleb128 0x55
 399 000c 17       		.uleb128 0x17
 400 000d 11       		.uleb128 0x11
 401 000e 01       		.uleb128 0x1
 402 000f 10       		.uleb128 0x10
 403 0010 17       		.uleb128 0x17
 404 0011 00       		.byte	0
 405 0012 00       		.byte	0
 406 0013 02       		.uleb128 0x2
 407 0014 24       		.uleb128 0x24
 408 0015 00       		.byte	0
 409 0016 0B       		.uleb128 0xb
 410 0017 0B       		.uleb128 0xb
 411 0018 3E       		.uleb128 0x3e
 412 0019 0B       		.uleb128 0xb
 413 001a 03       		.uleb128 0x3
 414 001b 0E       		.uleb128 0xe
 415 001c 00       		.byte	0
 416 001d 00       		.byte	0
 417 001e 03       		.uleb128 0x3
 418 001f 24       		.uleb128 0x24
 419 0020 00       		.byte	0
 420 0021 0B       		.uleb128 0xb
 421 0022 0B       		.uleb128 0xb
 422 0023 3E       		.uleb128 0x3e
 423 0024 0B       		.uleb128 0xb
 424 0025 03       		.uleb128 0x3
 425 0026 08       		.uleb128 0x8
 426 0027 00       		.byte	0
 427 0028 00       		.byte	0
 428 0029 04       		.uleb128 0x4
ARM GAS  C:\Users\kelvi\AppData\Local\Temp\ccgWx9pP.s 			page 11


 429 002a 16       		.uleb128 0x16
 430 002b 00       		.byte	0
 431 002c 03       		.uleb128 0x3
 432 002d 0E       		.uleb128 0xe
 433 002e 3A       		.uleb128 0x3a
 434 002f 0B       		.uleb128 0xb
 435 0030 3B       		.uleb128 0x3b
 436 0031 05       		.uleb128 0x5
 437 0032 49       		.uleb128 0x49
 438 0033 13       		.uleb128 0x13
 439 0034 00       		.byte	0
 440 0035 00       		.byte	0
 441 0036 05       		.uleb128 0x5
 442 0037 35       		.uleb128 0x35
 443 0038 00       		.byte	0
 444 0039 49       		.uleb128 0x49
 445 003a 13       		.uleb128 0x13
 446 003b 00       		.byte	0
 447 003c 00       		.byte	0
 448 003d 06       		.uleb128 0x6
 449 003e 13       		.uleb128 0x13
 450 003f 01       		.byte	0x1
 451 0040 0B       		.uleb128 0xb
 452 0041 0B       		.uleb128 0xb
 453 0042 3A       		.uleb128 0x3a
 454 0043 0B       		.uleb128 0xb
 455 0044 3B       		.uleb128 0x3b
 456 0045 0B       		.uleb128 0xb
 457 0046 01       		.uleb128 0x1
 458 0047 13       		.uleb128 0x13
 459 0048 00       		.byte	0
 460 0049 00       		.byte	0
 461 004a 07       		.uleb128 0x7
 462 004b 0D       		.uleb128 0xd
 463 004c 00       		.byte	0
 464 004d 03       		.uleb128 0x3
 465 004e 0E       		.uleb128 0xe
 466 004f 3A       		.uleb128 0x3a
 467 0050 0B       		.uleb128 0xb
 468 0051 3B       		.uleb128 0x3b
 469 0052 0B       		.uleb128 0xb
 470 0053 49       		.uleb128 0x49
 471 0054 13       		.uleb128 0x13
 472 0055 38       		.uleb128 0x38
 473 0056 0B       		.uleb128 0xb
 474 0057 00       		.byte	0
 475 0058 00       		.byte	0
 476 0059 08       		.uleb128 0x8
 477 005a 16       		.uleb128 0x16
 478 005b 00       		.byte	0
 479 005c 03       		.uleb128 0x3
 480 005d 0E       		.uleb128 0xe
 481 005e 3A       		.uleb128 0x3a
 482 005f 0B       		.uleb128 0xb
 483 0060 3B       		.uleb128 0x3b
 484 0061 0B       		.uleb128 0xb
 485 0062 49       		.uleb128 0x49
ARM GAS  C:\Users\kelvi\AppData\Local\Temp\ccgWx9pP.s 			page 12


 486 0063 13       		.uleb128 0x13
 487 0064 00       		.byte	0
 488 0065 00       		.byte	0
 489 0066 09       		.uleb128 0x9
 490 0067 2E       		.uleb128 0x2e
 491 0068 00       		.byte	0
 492 0069 3F       		.uleb128 0x3f
 493 006a 19       		.uleb128 0x19
 494 006b 03       		.uleb128 0x3
 495 006c 0E       		.uleb128 0xe
 496 006d 3A       		.uleb128 0x3a
 497 006e 0B       		.uleb128 0xb
 498 006f 3B       		.uleb128 0x3b
 499 0070 0B       		.uleb128 0xb
 500 0071 27       		.uleb128 0x27
 501 0072 19       		.uleb128 0x19
 502 0073 11       		.uleb128 0x11
 503 0074 01       		.uleb128 0x1
 504 0075 12       		.uleb128 0x12
 505 0076 06       		.uleb128 0x6
 506 0077 40       		.uleb128 0x40
 507 0078 18       		.uleb128 0x18
 508 0079 9742     		.uleb128 0x2117
 509 007b 19       		.uleb128 0x19
 510 007c 00       		.byte	0
 511 007d 00       		.byte	0
 512 007e 0A       		.uleb128 0xa
 513 007f 2E       		.uleb128 0x2e
 514 0080 01       		.byte	0x1
 515 0081 3F       		.uleb128 0x3f
 516 0082 19       		.uleb128 0x19
 517 0083 03       		.uleb128 0x3
 518 0084 0E       		.uleb128 0xe
 519 0085 3A       		.uleb128 0x3a
 520 0086 0B       		.uleb128 0xb
 521 0087 3B       		.uleb128 0x3b
 522 0088 0B       		.uleb128 0xb
 523 0089 27       		.uleb128 0x27
 524 008a 19       		.uleb128 0x19
 525 008b 11       		.uleb128 0x11
 526 008c 01       		.uleb128 0x1
 527 008d 12       		.uleb128 0x12
 528 008e 06       		.uleb128 0x6
 529 008f 40       		.uleb128 0x40
 530 0090 18       		.uleb128 0x18
 531 0091 9742     		.uleb128 0x2117
 532 0093 19       		.uleb128 0x19
 533 0094 01       		.uleb128 0x1
 534 0095 13       		.uleb128 0x13
 535 0096 00       		.byte	0
 536 0097 00       		.byte	0
 537 0098 0B       		.uleb128 0xb
 538 0099 898201   		.uleb128 0x4109
 539 009c 00       		.byte	0
 540 009d 11       		.uleb128 0x11
 541 009e 01       		.uleb128 0x1
 542 009f 31       		.uleb128 0x31
ARM GAS  C:\Users\kelvi\AppData\Local\Temp\ccgWx9pP.s 			page 13


 543 00a0 13       		.uleb128 0x13
 544 00a1 00       		.byte	0
 545 00a2 00       		.byte	0
 546 00a3 0C       		.uleb128 0xc
 547 00a4 34       		.uleb128 0x34
 548 00a5 00       		.byte	0
 549 00a6 03       		.uleb128 0x3
 550 00a7 0E       		.uleb128 0xe
 551 00a8 3A       		.uleb128 0x3a
 552 00a9 0B       		.uleb128 0xb
 553 00aa 3B       		.uleb128 0x3b
 554 00ab 0B       		.uleb128 0xb
 555 00ac 49       		.uleb128 0x49
 556 00ad 13       		.uleb128 0x13
 557 00ae 02       		.uleb128 0x2
 558 00af 18       		.uleb128 0x18
 559 00b0 00       		.byte	0
 560 00b1 00       		.byte	0
 561 00b2 0D       		.uleb128 0xd
 562 00b3 2E       		.uleb128 0x2e
 563 00b4 00       		.byte	0
 564 00b5 3F       		.uleb128 0x3f
 565 00b6 19       		.uleb128 0x19
 566 00b7 03       		.uleb128 0x3
 567 00b8 0E       		.uleb128 0xe
 568 00b9 3A       		.uleb128 0x3a
 569 00ba 0B       		.uleb128 0xb
 570 00bb 3B       		.uleb128 0x3b
 571 00bc 0B       		.uleb128 0xb
 572 00bd 27       		.uleb128 0x27
 573 00be 19       		.uleb128 0x19
 574 00bf 3C       		.uleb128 0x3c
 575 00c0 19       		.uleb128 0x19
 576 00c1 00       		.byte	0
 577 00c2 00       		.byte	0
 578 00c3 0E       		.uleb128 0xe
 579 00c4 2E       		.uleb128 0x2e
 580 00c5 01       		.byte	0x1
 581 00c6 3F       		.uleb128 0x3f
 582 00c7 19       		.uleb128 0x19
 583 00c8 03       		.uleb128 0x3
 584 00c9 0E       		.uleb128 0xe
 585 00ca 3A       		.uleb128 0x3a
 586 00cb 0B       		.uleb128 0xb
 587 00cc 3B       		.uleb128 0x3b
 588 00cd 0B       		.uleb128 0xb
 589 00ce 27       		.uleb128 0x27
 590 00cf 19       		.uleb128 0x19
 591 00d0 3C       		.uleb128 0x3c
 592 00d1 19       		.uleb128 0x19
 593 00d2 00       		.byte	0
 594 00d3 00       		.byte	0
 595 00d4 0F       		.uleb128 0xf
 596 00d5 05       		.uleb128 0x5
 597 00d6 00       		.byte	0
 598 00d7 49       		.uleb128 0x49
 599 00d8 13       		.uleb128 0x13
ARM GAS  C:\Users\kelvi\AppData\Local\Temp\ccgWx9pP.s 			page 14


 600 00d9 00       		.byte	0
 601 00da 00       		.byte	0
 602 00db 00       		.byte	0
 603              		.section	.debug_aranges,"",%progbits
 604 0000 34000000 		.4byte	0x34
 605 0004 0200     		.2byte	0x2
 606 0006 00000000 		.4byte	.Ldebug_info0
 607 000a 04       		.byte	0x4
 608 000b 00       		.byte	0
 609 000c 0000     		.2byte	0
 610 000e 0000     		.2byte	0
 611 0010 00000000 		.4byte	.LFB0
 612 0014 20000000 		.4byte	.LFE0-.LFB0
 613 0018 00000000 		.4byte	.LFB1
 614 001c 4C000000 		.4byte	.LFE1-.LFB1
 615 0020 00000000 		.4byte	.LFB2
 616 0024 2C000000 		.4byte	.LFE2-.LFB2
 617 0028 00000000 		.4byte	.LFB3
 618 002c 24000000 		.4byte	.LFE3-.LFB3
 619 0030 00000000 		.4byte	0
 620 0034 00000000 		.4byte	0
 621              		.section	.debug_ranges,"",%progbits
 622              	.Ldebug_ranges0:
 623 0000 00000000 		.4byte	.LFB0
 624 0004 20000000 		.4byte	.LFE0
 625 0008 00000000 		.4byte	.LFB1
 626 000c 4C000000 		.4byte	.LFE1
 627 0010 00000000 		.4byte	.LFB2
 628 0014 2C000000 		.4byte	.LFE2
 629 0018 00000000 		.4byte	.LFB3
 630 001c 24000000 		.4byte	.LFE3
 631 0020 00000000 		.4byte	0
 632 0024 00000000 		.4byte	0
 633              		.section	.debug_line,"",%progbits
 634              	.Ldebug_line0:
 635 0000 A7000000 		.section	.debug_str,"MS",%progbits,1
 635      02005200 
 635      00000201 
 635      FB0E0D00 
 635      01010101 
 636              	.LASF22:
 637 0000 6D795644 		.ascii	"myVDAC_Enable\000"
 637      41435F45 
 637      6E61626C 
 637      6500
 638              	.LASF27:
 639 000e 6D795644 		.ascii	"myVDAC_SetValue\000"
 639      41435F53 
 639      65745661 
 639      6C756500 
 640              	.LASF17:
 641 001e 6D795644 		.ascii	"myVDAC_SaveConfig\000"
 641      41435F53 
 641      61766543 
 641      6F6E6669 
 641      6700
 642              	.LASF15:
ARM GAS  C:\Users\kelvi\AppData\Local\Temp\ccgWx9pP.s 			page 15


 643 0030 64617461 		.ascii	"data_value\000"
 643      5F76616C 
 643      756500
 644              	.LASF9:
 645 003b 666C6F61 		.ascii	"float\000"
 645      7400
 646              	.LASF24:
 647 0041 47656E65 		.ascii	"Generated_Source\\PSoC5\\myVDAC_PM.c\000"
 647      72617465 
 647      645F536F 
 647      75726365 
 647      5C50536F 
 648              	.LASF1:
 649 0064 756E7369 		.ascii	"unsigned char\000"
 649      676E6564 
 649      20636861 
 649      7200
 650              	.LASF26:
 651 0072 6D795644 		.ascii	"myVDAC_backup\000"
 651      41435F62 
 651      61636B75 
 651      7000
 652              	.LASF13:
 653 0080 72656738 		.ascii	"reg8\000"
 653      00
 654              	.LASF5:
 655 0085 6C6F6E67 		.ascii	"long unsigned int\000"
 655      20756E73 
 655      69676E65 
 655      6420696E 
 655      7400
 656              	.LASF3:
 657 0097 73686F72 		.ascii	"short unsigned int\000"
 657      7420756E 
 657      7369676E 
 657      65642069 
 657      6E7400
 658              	.LASF10:
 659 00aa 646F7562 		.ascii	"double\000"
 659      6C6500
 660              	.LASF18:
 661 00b1 6D795644 		.ascii	"myVDAC_RestoreConfig\000"
 661      41435F52 
 661      6573746F 
 661      7265436F 
 661      6E666967 
 662              	.LASF23:
 663 00c6 474E5520 		.ascii	"GNU C 4.9.3 20150303 (release) [ARM/embedded-4_9-br"
 663      4320342E 
 663      392E3320 
 663      32303135 
 663      30333033 
 664 00f9 616E6368 		.ascii	"anch revision 221220] -mcpu=cortex-m3 -mthumb -g -O"
 664      20726576 
 664      6973696F 
 664      6E203232 
 664      31323230 
ARM GAS  C:\Users\kelvi\AppData\Local\Temp\ccgWx9pP.s 			page 16


 665 012c 67202D66 		.ascii	"g -ffunction-sections -ffat-lto-objects\000"
 665      66756E63 
 665      74696F6E 
 665      2D736563 
 665      74696F6E 
 666              	.LASF8:
 667 0154 756E7369 		.ascii	"unsigned int\000"
 667      676E6564 
 667      20696E74 
 667      00
 668              	.LASF7:
 669 0161 6C6F6E67 		.ascii	"long long unsigned int\000"
 669      206C6F6E 
 669      6720756E 
 669      7369676E 
 669      65642069 
 670              	.LASF25:
 671 0178 433A5C55 		.ascii	"C:\\Users\\kelvi\\OneDrive\\Documents\\school files"
 671      73657273 
 671      5C6B656C 
 671      76695C4F 
 671      6E654472 
 672 01a6 5C737072 		.ascii	"\\spring 2017\\cs121\\lab1\\lab1.cydsn\\part3.cydsn"
 672      696E6720 
 672      32303137 
 672      5C637331 
 672      32315C6C 
 673 01d4 00       		.ascii	"\000"
 674              	.LASF16:
 675 01d5 6D795644 		.ascii	"myVDAC_backupStruct\000"
 675      41435F62 
 675      61636B75 
 675      70537472 
 675      75637400 
 676              	.LASF19:
 677 01e9 6D795644 		.ascii	"myVDAC_Sleep\000"
 677      41435F53 
 677      6C656570 
 677      00
 678              	.LASF6:
 679 01f6 6C6F6E67 		.ascii	"long long int\000"
 679      206C6F6E 
 679      6720696E 
 679      7400
 680              	.LASF11:
 681 0204 63686172 		.ascii	"char\000"
 681      00
 682              	.LASF21:
 683 0209 6D795644 		.ascii	"myVDAC_Stop\000"
 683      41435F53 
 683      746F7000 
 684              	.LASF2:
 685 0215 73686F72 		.ascii	"short int\000"
 685      7420696E 
 685      7400
 686              	.LASF12:
 687 021f 75696E74 		.ascii	"uint8\000"
ARM GAS  C:\Users\kelvi\AppData\Local\Temp\ccgWx9pP.s 			page 17


 687      3800
 688              	.LASF4:
 689 0225 6C6F6E67 		.ascii	"long int\000"
 689      20696E74 
 689      00
 690              	.LASF14:
 691 022e 656E6162 		.ascii	"enableState\000"
 691      6C655374 
 691      61746500 
 692              	.LASF0:
 693 023a 7369676E 		.ascii	"signed char\000"
 693      65642063 
 693      68617200 
 694              	.LASF20:
 695 0246 6D795644 		.ascii	"myVDAC_Wakeup\000"
 695      41435F57 
 695      616B6575 
 695      7000
 696              		.ident	"GCC: (GNU Tools for ARM Embedded Processors) 4.9.3 20150303 (release) [ARM/embedded-4_9-br
